﻿capital = 602
set_research_slots = 4
2000.1.1 = {
	oob = "NKO_2000"
	set_cosmetic_tag = NKO_AUTH_S
	set_country_flag = dynamic_flag
	set_country_flag = dynamic_rebel_flag
	if = {
		limit = {
			has_dlc = "Man the Guns"
		}
		set_naval_oob = "NKO_2000_naval_mtg"
		else = {
			set_naval_oob = "NKO_2000_naval_legacy"
		}
	}
	set_convoys = 20

	add_ideas = {
		paralyzing_corruption
		gdp_1
		cheondo
		closed_nation
		Planned_Economy
		Massive_International_Sanctions
		stagnation
		defence_08
		edu_02
		health_02
		social_01
		bureau_03
		police_05
		md_closed_economy
		draft_army
		drafted_women
		the_donju
		the_military
		communist_cadres
		#hybrid
		#tax_cost_40
		officer_advanced_training
	}

	add_opinion_modifier = { target = CHI modifier = large_commercial_relations }
	add_opinion_modifier = { target = JAP modifier = refuse_to_apologize_for_warcrimes }
	add_opinion_modifier = { target = USA modifier = refuse_to_apologize_for_warcrimes }
	add_opinion_modifier = { target = USA modifier = imminent_danger_to_national_security }

	set_technology = {
		legacy_doctrines = 1
		infiltration_assault = 1
		frontline_defence = 1
		early_tunnel_warfare = 1
		massed_artillery = 1

		infantry_weapons = 1
		infantry_weapons1 = 1

		combat_eng_equipment = 1
		night_vision_1 = 1
		command_control_equipment = 1
		Early_APC = 1 #Vehicle Design

		APC_1 = 1
		APC_2 = 1

		IFV_1 = 1
		IFV_2 = 1 #M-1977

		MBT_1 = 1
		MBT_2 = 1

		Rec_tank_0 = 1 #1965
		Rec_tank_1 = 1 #PT-85 Shin'heung

		util_vehicle_0 = 1
		util_vehicle_1 = 1
		util_vehicle_2 = 1 #UAZ-3132

		land_Drone_equipment = 1

		artillery_0 = 1 #M-1931
		Arty_upgrade_1 = 1
		SP_arty_0 = 1
		SP_R_arty_0 = 1
		SP_arty_1 = 1 #M-1989 Koksan
		SP_R_arty_1 = 1 #MRL M1985

		Anti_tank_0 = 1
		Heavy_Anti_tank_0 = 1
		AT_upgrade_1 = 1
		Anti_tank_1 = 1 #Bulsae-2
		Heavy_Anti_tank_1 = 1 #AT-5 Konkurs

		Anti_Air_0 = 1
		SP_Anti_Air_0 = 1 #SA-13 Strela-10
		AA_upgrade_1 = 1
		Anti_Air_1 = 1 #SA-16 Igla

		early_fighter = 1
		Strike_fighter1 = 1
		MR_Fighter1 = 1
		AS_Fighter1 = 1

		early_helicopter = 1
		attack_helicopter1 = 1
		transport_helicopter1 = 1

		early_bomber = 1
		cas1 = 1

		basic_computing = 1
		integrated_circuit = 1
		computing1 = 1
		decryption1 = 1
		encryption1 = 1

		radar = 1
		internet1 = 1 	#1G
		fuel_silos =1
	}
	if = {
		limit = {
			not = { has_dlc = "Man the Guns" }
		}
		set_technology = {
			frigate_1 = 1
			diesel_attack_submarine_1 = 1 # ming class

			landing_craft = 1
		}
	}
	if = {
		limit = {
			has_dlc = "Man the Guns"
		}
		set_technology = {
			corvette_hull_1 = 1
			corvette_hull_2 = 1

			frigate_hull_1 = 1
			frigate_hull_2 = 1

			tech_submarine_engineering = 1

			tech_naval_systems_engineering = 1
			tech_power_systems = 1
			tech_power_systems_1 = 1

			tech_combat_support_systems = 1
			tech_fire_control = 1
			tech_fire_control_1 = 1
			tech_combat_radar = 1
			tech_combat_radar_1 = 1
			tech_combat_sonar = 1
			tech_combat_sonar_1 = 1

			tech_early_naval_weapon_systems = 1
			tech_naval_weapon_systems = 1
			tech_light_guns = 1
			tech_light_guns_1 = 1

			tech_point_defense_system = 1

			tech_missile_systems = 1

			tech_turret_missiles_surface = 1
			tech_turret_missiles_surface_1 = 1

			tech_turret_missiles_aa = 1
			tech_turret_missiles_aa_1 = 1

			tech_vls_surface = 1
			tech_vls_surface_1 = 1

			tech_vls_aa = 1
			tech_vls_aa_1 = 1

			tech_torpedoes = 1
			tech_torpedoes_1 = 1

			tech_asw_systems = 1
			tech_asw_systems_1 = 1
			tech_mine_warfare = 1
			tech_mine_warfare_1 = 1

			tech_mtg_landing_craft = 1
		}
	}

	#Cyber
	add_to_array = { cyber_targets = USA }
	add_to_array = { cyber_targets = AST }
	add_to_array = { cyber_targets = ENG }
	add_to_array = { cyber_targets = CHI }
	add_to_array = { cyber_targets = FRA }
	add_to_array = { cyber_targets = GER }
	add_to_array = { cyber_targets = JAP }
	add_to_array = { cyber_targets = KOR }
	add_to_array = { cyber_targets = SOV }

	#Influence system
	init_influence = yes
	set_variable = { domestic_influence_amount = 200 }
	add_to_array = { influence_array = CHI.id }
	add_to_array = { influence_array_val = 125 }
	add_to_array = { influence_array = SOV.id }
	add_to_array = { influence_array_val = 20 }
	add_to_array = { influence_array = KOR.id }
	add_to_array = { influence_array_val = 7 }
	add_to_array = { influence_array = JAP.id }
	add_to_array = { influence_array_val = 0 }
	startup_influence = yes

	### Economy
	set_variable = { var = debt value = 7.6 }
	set_variable = { var = int_investments value = 0 }
	set_variable = { var = treasury value = 3 }
	set_variable = { var = tax_rate value = 40 }

	set_popularities = {
		democratic = 0.0
		communism = 99.9
		fascism = 0.0
		neutrality = 0.0
		nationalist = 0.1
	}
	set_politics = {
		ruling_party = communism
		last_election = "2000.1.1"
		election_frequency = 48
		elections_allowed = no
	}

	start_politics_input = yes

	### Party Popularities
	set_variable = { party_pop_array^0 = 0 } #Western_Autocracy
	set_variable = { party_pop_array^1 = 0 } #conservatism
	set_variable = { party_pop_array^2 = 0 } #liberalism
	set_variable = { party_pop_array^3 = 0 } #socialism
	set_variable = { party_pop_array^4 = 0.95 } #Communist-State
	set_variable = { party_pop_array^5 = 0.049 } #anarchist_communism
	set_variable = { party_pop_array^6 = 0 } #Conservative
	set_variable = { party_pop_array^7 = 0 } #Autocracy
	set_variable = { party_pop_array^8 = 0 } #Mod_Vilayat_e_Faqih
	set_variable = { party_pop_array^9 = 0 } #Vilayat_e_Faqih
	set_variable = { party_pop_array^10 = 0 } #Kingdom
	set_variable = { party_pop_array^11 = 0 } #Caliphate
	set_variable = { party_pop_array^12 = 0 } #Neutral_Muslim_Brotherhood
	set_variable = { party_pop_array^13 = 0 } #Neutral_Autocracy
	set_variable = { party_pop_array^14 = 0 } #Neutral_conservatism
	set_variable = { party_pop_array^15 = 0 } #oligarchism
	set_variable = { party_pop_array^16 = 0 } #Neutral_Libertarian
	set_variable = { party_pop_array^17 = 0 } #Neutral_green
	set_variable = { party_pop_array^18 = 0 } #neutral_Social
	set_variable = { party_pop_array^19 = 0 } #Neutral_Communism
	set_variable = { party_pop_array^20 = 0 } #Nat_Populism
	set_variable = { party_pop_array^21 = 0 } #Nat_Fascism
	set_variable = { party_pop_array^22 = 0.091 } #Nat_Autocracy
	set_variable = { party_pop_array^23 = 0 } #Monarchist

	### Ruling Party
	add_to_array = { ruling_party = 4 }

	startup_politics = yes

	### Banned Parties & Balance
	set_partyall_banned = yes
	add_political_power = 300

	create_country_leader = {
		name = "Kim Jong-il"
		picture = "Kim_Jong_il.dds"
		expire = "2011.12.11"
		ideology = Communist-State
		traits = {
			emerging_Communist-State
			stubborn
			ruthless
		}
	}

	create_field_marshal = {
		name = "Kim Jong-un"
			picture = "Kim_Jong-un.dds"
		traits = { inspirational_leader }
		id = 44100
		skill = 1
		attack_skill = 1
		defense_skill = 1
		planning_skill = 1
		logistics_skill = 1
	}
	create_corps_commander = {
		name = "Ri Myong-su"
			picture = "gen_Ri_Myong_Su.dds"
		traits = {  }
		id = 44101
		skill = 2
		attack_skill = 2
		defense_skill = 2
		planning_skill = 2
		logistics_skill = 2
	}
	create_corps_commander = {
		name = "Ri Yong-gil"
			picture = "gen_Ri_Yong_Gil.dds"
		traits = {  }
		id = 44102
		skill = 2
		attack_skill = 2
		defense_skill = 2
		planning_skill = 2
		logistics_skill = 2
	}
	create_navy_leader = {
		name = "Yi Yong-ju"
			picture = "adm_Yi_Yong_Ju.dds"
		traits = {  }
		id = 44103
		skill = 1
        attack_skill = 1
        defense_skill = 1
        coordination_skill = 1
        maneuvering_skill = 1
	}
	create_corps_commander = {
		name = "Hyon Yong Chol"
		picture = "Portrait_Hyon_Yong_Chol.dds"
		traits = {  }
		id = 44104
		skill = 2
		attack_skill = 2
		defense_skill = 2
		planning_skill = 2
		logistics_skill = 2
	}

	create_corps_commander = {
		name = "Cho Ryong Hae"
		picture = "Portrait_Cho_Ryong_Hae.dds"
		traits = {  }
		id = 44105
		skill = 2
		attack_skill = 2
		defense_skill = 2
		planning_skill = 2
		logistics_skill = 2
	}

	create_corps_commander = {
		name = "Choe Pu Il"
		picture = "Portrait_Choe_Pu_Il.dds"
		traits = {  }
		id = 44106
		skill = 2
		attack_skill = 2
		defense_skill = 2
		planning_skill = 2
		logistics_skill = 2
	}

	create_corps_commander = {
		name = "Hwang Pyong So"
		picture = "Portrait_Hwang_Pyong_So.dds"
		traits = {  }
		id = 44107
		skill = 2
		attack_skill = 2
		defense_skill = 2
		planning_skill = 2
		logistics_skill = 2
	}

	create_corps_commander = {
		name = "Jo Chun Ryong"
		picture = "Portrait_Jo_Chun_Ryong.dds"
		traits = {  }
		id = 44108
		skill = 2
		attack_skill = 2
		defense_skill = 2
		planning_skill = 2
		logistics_skill = 2
	}

	create_corps_commander = {
		name = "Kim Chun Sop"
		picture = "Portrait_Kim_Chun_Sop.dds"
		traits = {  }
		id = 44109
		skill = 2
		attack_skill = 2
		defense_skill = 2
		planning_skill = 2
		logistics_skill = 2
	}

	create_corps_commander = {
		name = "Jo Kyong Chol"
		picture = "Portrait_Jo_Kyong_Chol.dds"
		traits = {  }
		id = 44110
		skill = 2
		attack_skill = 2
		defense_skill = 2
		planning_skill = 2
		logistics_skill = 2
	}

	create_corps_commander = {
		name = "Kim Kyok Sik"
		picture = "Portrait_Kim_Kyok_Sik.dds"
		traits = {  }
		id = 44111
		skill = 2
		attack_skill = 2
		defense_skill = 2
		planning_skill = 2
		logistics_skill = 2
	}

	create_corps_commander = {
		name = "Kim Myong Kuk"
		picture = "Portrait_Kim_Myong_Kuk.dds"
		traits = {  }
		id = 44112
		skill = 2
		attack_skill = 2
		defense_skill = 2
		planning_skill = 2
		logistics_skill = 2
	}

	create_corps_commander = {
		name = "Kim Won Hong"
		picture = "Portrait_Kim_Won_Hong.dds"
		traits = {  }
		id = 44113
		skill = 2
		attack_skill = 2
		defense_skill = 2
		planning_skill = 2
		logistics_skill = 2
	}

	create_corps_commander = {
		name = "Kim Yong Chun"
		picture = "Portrait_Kim_Yong_Chun.dds"
		traits = {  }
		id = 44114
		skill = 2
		attack_skill = 2
		defense_skill = 2
		planning_skill = 2
		logistics_skill = 2
	}

	create_corps_commander = {
		name = "Pak Yong Sik"
		picture = "Portrait_Pak_Yong_Sik.dds"
		traits = {  }
		id = 44115
		skill = 2
		attack_skill = 2
		defense_skill = 2
		planning_skill = 2
		logistics_skill = 2
	}
	#############################################
	#MTG Variants
	##############
	if = {
		limit = { has_dlc = "Man the Guns" }


		#Najin Class https://en.wikipedia.org/wiki/Najin-class_frigate
		create_equipment_variant = {
			name = "Najin Class"
			type = frigate_hull_1
			#name_group = NKO_DD_HISTORICAL
			parent_version = 0
			modules = {
				fixed_ship_engine_slot = module_light_surface_diesel_power
				fixed_ship_fire_control_system_slot = module_analog_fire_control
				fixed_ship_radar_slot = module_sonar_1
				fixed_ship_asw_slot_1 = module_anti_submarine_mortar_1
				fixed_ship_asw_slot = module_aa_missiles_1
				fixed_ship_auxillary_slot = module_ciws_1
				fixed_ship_battery_slot = module_light_guns_2
				front_1_custom_slot = module_light_guns_2
				rear_1_custom_slot = module_asm_1
			}
		}


		#Sang-O Class https://en.wikipedia.org/wiki/Sang-O-class_submarine
		create_equipment_variant = {
			name = "Sang-O Class"
			type = attack_submarine_hull_1
			#name_group = NKO_SS_HISTORICAL
			parent_version = 0
			modules = {
				fixed_ship_engine_slot = module_sub_diesel_electric_power
				fixed_ship_radar_slot = module_sonar_1
				fixed_ship_auxillary_slot_1 = module_minelaying_1
				fixed_ship_auxillary_slot = module_torpedoes_1
				fixed_ship_battery_slot = module_torpedoes_1
			}
		}
	}
	#############################################
}

2017.1.1 = {
	capital = 602
	oob = "NKO_2017"
	if = {
		limit = {
			has_dlc = "Man the Guns"
		}
		set_naval_oob = "NKO_2017_naval_mtg"
		else = {
			set_naval_oob = "NKO_2017_naval_legacy"
		}
	}

	set_convoys = 10

	add_opinion_modifier = { target = KOR modifier = NKO_KOR_Koren_War_Ceasefire }
	#add_opinion_modifier = { target = KOR modifier = hostile_status }
	add_opinion_modifier = { target = CHI modifier = NKO_KOR_Korean_War_Aid }

	#Nat focus



	# Starting tech
	set_technology = {
		APC_3 = 1
		APC_4 = 1 #1995

		MBT_3 = 1 #P'okp'ung-ho

		internet2 = 1 	#2G
		gprs = 1
		internet3 = 1	#3G
	}
	if = {
		limit = {
			not = { has_dlc = "Man the Guns" }
		}
		set_technology = {
			frigate_1 = 1
			diesel_attack_submarine_1 = 1 # ming class

			landing_craft = 1
		}
	}
	if = {
		limit = {
			has_dlc = "Man the Guns"
		}
		set_technology = {
			corvette_hull_1 = 1
			corvette_hull_2 = 1

			frigate_hull_1 = 1
			frigate_hull_2 = 1

			tech_submarine_engineering = 1

			tech_naval_systems_engineering = 1
			tech_power_systems = 1
			tech_power_systems_1 = 1

			tech_combat_support_systems = 1
			tech_fire_control = 1
			tech_fire_control_1 = 1
			tech_combat_radar = 1
			tech_combat_radar_1 = 1
			tech_combat_sonar = 1
			tech_combat_sonar_1 = 1

			tech_naval_weapon_systems = 1
			tech_light_guns = 1
			tech_light_guns_1 = 1

			tech_point_defense_system = 1

			tech_missile_systems = 1

			tech_turret_missiles_surface = 1
			tech_turret_missiles_surface_1 = 1

			tech_turret_missiles_aa = 1
			tech_turret_missiles_aa_1 = 1

			tech_vls_surface = 1
			tech_vls_surface_1 = 1

			tech_vls_aa = 1
			tech_vls_aa_1 = 1

			tech_torpedoes = 1
			tech_torpedoes_1 = 1

			tech_asw_systems = 1
			tech_asw_systems_1 = 1
			tech_mine_warfare = 1
			tech_mine_warfare_1 = 1

			tech_mtg_landing_craft = 1
		}
	}
	### Economy
	set_variable = { var = debt value = 7.6 }
	set_variable = { var = int_investments value = 0 }
	set_variable = { var = treasury value = 3 }
	set_variable = { var = tax_rate value = 40 }
	

	set_popularities = {
		democratic = 0.0
		communism = 99.9
		fascism = 0.0
		neutrality = 0.0
		nationalist = 0.1
	}
	set_politics = {
		ruling_party = communism
		last_election = "2000.1.1"
		election_frequency = 48
		elections_allowed = no
	}

	start_politics_input = yes

	### Party Popularities
	set_variable = { party_pop_array^0 = 0 } #Western_Autocracy
	set_variable = { party_pop_array^1 = 0 } #conservatism
	set_variable = { party_pop_array^2 = 0 } #liberalism
	set_variable = { party_pop_array^3 = 0 } #socialism
	set_variable = { party_pop_array^4 = 0.95 } #Communist-State
	set_variable = { party_pop_array^5 = 0.049 } #anarchist_communism
	set_variable = { party_pop_array^6 = 0 } #Conservative
	set_variable = { party_pop_array^7 = 0 } #Autocracy
	set_variable = { party_pop_array^8 = 0 } #Mod_Vilayat_e_Faqih
	set_variable = { party_pop_array^9 = 0 } #Vilayat_e_Faqih
	set_variable = { party_pop_array^10 = 0 } #Kingdom
	set_variable = { party_pop_array^11 = 0 } #Caliphate
	set_variable = { party_pop_array^12 = 0 } #Neutral_Muslim_Brotherhood
	set_variable = { party_pop_array^13 = 0 } #Neutral_Autocracy
	set_variable = { party_pop_array^14 = 0 } #Neutral_conservatism
	set_variable = { party_pop_array^15 = 0 } #oligarchism
	set_variable = { party_pop_array^16 = 0 } #Neutral_Libertarian
	set_variable = { party_pop_array^17 = 0 } #Neutral_green
	set_variable = { party_pop_array^18 = 0 } #neutral_Social
	set_variable = { party_pop_array^19 = 0 } #Neutral_Communism
	set_variable = { party_pop_array^20 = 0 } #Nat_Populism
	set_variable = { party_pop_array^21 = 0 } #Nat_Fascism
	set_variable = { party_pop_array^22 = 0.001 } #Nat_Autocracy
	set_variable = { party_pop_array^23 = 0 } #Monarchist

	### Ruling Party
	add_to_array = { ruling_party = 4 }

	startup_politics = yes

	create_country_leader = {
		name = "Kim Jong-Un"
		picture = "Kim_Jong-un.dds"
		ideology = Communist-State
		traits = {
			military_career
			emerging_Communist-State
			stubborn
			ruthless
			emotional
			narcissist
		}
	}
	#############################################
	#MTG Variants
	##############
	#if = {
	#	limit = { has_dlc = "Man the Guns" }
	#}
	#############################################
}