arab_spring_category = {
	arab_spring_encourage_supporters = {
		icon = GFX_decision_generic_civil_support

		visible = {
			has_country_flag = arab_spring_active
		}

		cost = 25

		complete_effect = {
			subtract_from_variable = { treasury = 0.5 }
			custom_effect_tooltip = 0_5_billion_expense_tt
			log = "[GetDateText]: [This.GetName]: decision arab_spring_encourage_supporters executed"
		}

		days_remove = 7

		remove_effect = {
			hidden_effect = {
				random_list = {
					75 = {
					}
					25 = {
						set_country_flag = arab_spring_civilian_clashes
						modifier = {
							factor = 2
							check_variable = { arab_spring > 50 }
						}
						modifier = {
							factor = 2
							check_variable = { arab_spring > 75 }
						}
					}
				}
			}
			country_event = { id = arab_spring.6 }
			custom_effect_tooltip = slight_weaken_protests_tt
			subtract_from_variable = { arab_spring = 10 }
			custom_effect_tooltip = clashes_fatalities_tt
		}

		ai_will_do = {
			factor = 10
		}
	}

	arab_spring_request_crackdown = {
		icon = GFX_decision_generic_tank

		visible = {
			has_country_flag = arab_spring_active
			has_idea = idea_gcc_member_state
			NOT = { has_country_flag = gcc_dominant_member }
		}

		cost = 25

		days_remove = 2

		complete_effect = {

			log = "[GetDateText]: [This.GetName]: decision arab_spring_request_crackdown executed"
		}

		remove_effect = {
			random_country = {
				limit = { has_country_flag = gcc_dominant_member }
				country_event = { id = arab_spring.19 }
			}
		}

		ai_will_do = {
			factor = 0
			modifier = {
				add = 100
				check_variable = { arab_spring > 100 }
			}
		}
	}

	arab_spring_deploy_the_military = {
		icon = GFX_decision_generic_tank

		visible = {
			has_country_flag = arab_spring_active
			NOT = { has_country_flag = arab_spring_military_deployed }
		}

		cost = 50

		days_remove = 2

		complete_effect = {
			decrease_the_military_opinion = yes
			log = "[GetDateText]: [This.GetName]: decision arab_spring_deploy_the_military executed"
		}

		remove_effect = {
			custom_effect_tooltip = significantly_weaken_protests_tt
			subtract_from_variable = { arab_spring = 20 }
			set_country_flag = arab_spring_military_deployed
			custom_effect_tooltip = mutiny_possibility_tt
			custom_effect_tooltip = clashes_fatalities_tt
		}

		ai_will_do = {
			factor = 10
		}
	}

	arab_spring_return_to_barracks = {
		icon = GFX_decision_generic_tank

		visible = {
			has_country_flag = arab_spring_active
			has_country_flag = arab_spring_military_deployed
		}

		cost = 50

		days_remove = 5

		fire_only_once = yes

		complete_effect = {
			log = "[GetDateText]: [This.GetName]: decision arab_spring_deploy_the_military executed"
		}

		remove_effect = {
			custom_effect_tooltip = significantly_strengthen_protests_tt
			add_to_variable = { arab_spring = 20 }
			clr_country_flag = arab_spring_military_deployed
			custom_effect_tooltip = arab_spring_return_to_barracks_tt
		}
	}

	arab_spring_reshuffle_government = {
		icon = GFX_decision_generic_political_discourse

		visible = {
			has_country_flag = arab_spring_active
		}

		cost = 100

		days_remove = 20

		remove_effect = {
			custom_effect_tooltip = slight_weaken_protests_tt
			subtract_from_variable = { arab_spring = 10 }
			if = {
				limit = { check_variable = { arab_spring < 26 }}
				random_list = {
					60 = {
						country_event = { id = arab_spring.9 }
					}
					40 = {
						country_event = { id = arab_spring.10 }
					}
				}
			}
			else_if = {
				limit = {
					check_variable = { arab_spring > 25 }
					check_variable = { arab_spring < 66 }
				}
				random_list = {
					50 = {
						country_event = { id = arab_spring.9 }
					}
					50 = {
						country_event = { id = arab_spring.10 }
					}
				}
			}
			else_if = {
				limit = { check_variable = { arab_spring > 65 } }
				random_list = {
					40 = {
						country_event = { id = arab_spring.9 }
					}
					60 = {
						country_event = { id = arab_spring.10 }
					}
				}
			}
		}

		ai_will_do = {
			factor = 10
		}
	}

	arab_spring_amend_the_constitution = {
		icon = eng_trade_unions_support

		visible = {
			has_country_flag = arab_spring_active
		}

		cost = 150

		fire_only_once = yes

		days_remove = 10

		complete_effect = {
			add_ideas = constitutional_reform
			custom_effect_tooltip = significantly_weaken_protests_tt
			subtract_from_variable = { arab_spring = 20 }
			if = {
				limit = { check_variable = { arab_spring < 26 }}
				random_list = {
					75 = {
						country_event = { id = arab_spring.9 }
					}
					25 = {
						country_event = { id = arab_spring.10 }
					}
				}
			}
			else_if = {
				limit = {
					check_variable = { arab_spring > 25 }
					check_variable = { arab_spring < 66 }
				}
				random_list = {
					60 = {
						country_event = { id = arab_spring.9 }
					}
					40 = {
						country_event = { id = arab_spring.10 }
					}
				}
			}
			else_if = {
				limit = { check_variable = { arab_spring > 65 } }
				random_list = {
					50 = {
						country_event = { id = arab_spring.9 }
					}
					50 = {
						country_event = { id = arab_spring.10 }
					}
				}
			}
		}

		ai_will_do = {
			factor = 10
		}
	}

	arab_spring_protests_1 = { #for trigger nation

		allowed = {
		}

		icon = GFX_decision_revolt

		is_good = no

		days_mission_timeout = 30

		activation = {
			has_country_flag = arab_spring_active
			NOT = { has_global_flag = global_arab_spring }
		}

		fire_only_once = yes

		available = {
			custom_trigger_tooltip = {
				tooltip = arab_spring_ended_tt
				check_variable = { arab_spring < 1 }
			}
		}

		timeout_effect = {
			clr_country_flag = arab_spring_active
			if = {
				limit = { check_variable = { arab_spring > 65 } }
				country_event = { id = arab_spring.11 }
			}
			else = {
				add_political_power = -300
			}
		}

		complete_effect = {
			clr_country_flag = arab_spring_active
		}
	}

	arab_spring_protests_2 = { #for other nations

		allowed = {
		}

		icon = GFX_decision_revolt

		is_good = no

		days_mission_timeout = 90

		activation = {
			has_country_flag = arab_spring_active
			has_global_flag = global_arab_spring
		}

		fire_only_once = yes

		available = {
			custom_trigger_tooltip = {
				tooltip = arab_spring_ended_tt
				check_variable = { arab_spring < 1 }
			}
		}

		timeout_effect = {
			clr_country_flag = arab_spring_active
			if = {
				limit = { check_variable = { arab_spring > 99 } }
				country_event = { id = arab_spring.11 }
			}
			else = {
				add_political_power = -300
				country_event = { id = arab_spring.18 }
			}
		}

		complete_effect = {
			clr_country_flag = arab_spring_active
			country_event = { id = arab_spring.18 }
		}
	}
}