terror_gulf_category = {

	MOR_promote_tolerant_islam = {

		icon = GFX_decision_generic_political_discourse

		allowed = {
			original_tag = MOR
		}

		available = {
			NOT = { has_government = fascism }
			NOT = { has_idea = youth_radicalization }
			custom_trigger_tooltip = {
				tooltip = influences_other_middle_eastern_country_tt
				any_country = {
					is_middle_eastern_nation = yes
					NOT = {
						original_tag = ISR
						original_tag = PER
						original_tag = PAL
						original_tag = HAM
						original_tag = HEZ
						original_tag = TUA
						original_tag = SHA
						is_Caucasus = yes
					}
					is_influencer = yes
				}
			}
		}

		cost = 50

		days_remove = 60

		remove_effect = {
			every_other_country = {
				limit = {
					is_middle_eastern_nation = yes
					NOT = {
						original_tag = ISR
						original_tag = PER
						original_tag = PAL
						original_tag = HAM
						original_tag = HEZ
						original_tag = TUA
						original_tag = SHA
						is_Caucasus = yes
					}
					is_influencer = yes
				}
				custom_effect_tooltip = radicalization_decrease_tt
				subtract_from_variable = { radicalization = 5 }
				clamp_radicalization = yes
			}
			log = "[GetDateText]: [This.GetName]: decision MOR_promote_tolerant_islam executed"
		}

		ai_will_do = {
			factor = 1
		}
	}

	OMA_promote_tolerant_islam = {

		icon = GFX_decision_generic_political_discourse

		allowed = {
			original_tag = OMA
		}

		available = {
			has_idea = ibadi
			NOT = { has_government = fascism }
			NOT = { has_idea = youth_radicalization }
			custom_trigger_tooltip = {
				tooltip = influences_other_middle_eastern_country_tt
				any_country = {
					is_middle_eastern_nation = yes
					NOT = {
						original_tag = ISR
						original_tag = PER
						original_tag = PAL
						original_tag = HAM
						original_tag = HEZ
						original_tag = TUA
						original_tag = SHA
						is_Caucasus = yes
					}
					is_influencer = yes
				}
			}
		}

		cost = 50

		days_remove = 60

		remove_effect = {
			every_other_country = {
				limit = {
					is_middle_eastern_nation = yes
					NOT = {
						original_tag = ISR
						original_tag = PER
						original_tag = PAL
						original_tag = HAM
						original_tag = HEZ
						original_tag = TUA
						original_tag = SHA
						is_Caucasus = yes
					}
					is_influencer = yes
				}
				custom_effect_tooltip = radicalization_decrease_tt
				subtract_from_variable = { radicalization = 5 }
				clamp_radicalization = yes
			}
			log = "[GetDateText]: [This.GetName]: decision OMA_promote_tolerant_islam executed"
		}

		ai_will_do = {
			factor = 1
		}
	}

	MENA_terror_fund_deradicalisation_programmes = {
		icon = GFX_decision_generic_political_discourse

		allowed = {
			is_middle_eastern_nation = yes
			NOT = {
				original_tag = ISR
				original_tag = PER
				original_tag = PAL
				original_tag = HAM
				original_tag = HEZ
				original_tag = TUA
				original_tag = SHA
				is_Caucasus = yes
			}
		}

		available = {
			no_jihadist_government = yes
			has_idea = youth_radicalization
			NOT = {
				has_idea = paralyzing_corruption
				has_idea = crippling_corruption
			}
		}

		custom_cost_trigger = {
			always = yes
		}
		custom_cost_text = [propaganda_cost]

		complete_effect = {
			if = { limit = { check_variable = { num_of_factories < 4 } }
				subtract_from_variable = { treasury = 0.05 }
			}
			if = {
				limit = {
					check_variable = { num_of_factories > 3 }
					check_variable = { num_of_factories < 8 }
				}
				subtract_from_variable = { treasury = 0.1 }
			}
			if = {
				limit = {
					check_variable = { num_of_factories > 7 }
					check_variable = { num_of_factories < 16 }
				}
				subtract_from_variable = { treasury = 0.2 }
			}
			if = {
				limit = {
					check_variable = { num_of_factories > 15 }
					check_variable = { num_of_factories < 26 }
				}
				subtract_from_variable = { treasury = 0.35 }
			}
			if = {
				limit = {
					check_variable = { num_of_factories > 25 }
					check_variable = { num_of_factories < 39 }
				}
				subtract_from_variable = { treasury = 0.5 }
			}
			if = {
				limit = {
					check_variable = { num_of_factories > 38 }
					check_variable = { num_of_factories < 54 }
				}
				subtract_from_variable = { treasury = 0.75 }
			}
			if = {
				limit = {
					check_variable = { num_of_factories > 53 }
					check_variable = { num_of_factories < 82 }
				}
				subtract_from_variable = { treasury = 1.0 }
			}
			if = {
				limit = {
					check_variable = { num_of_factories > 81 }
					check_variable = { num_of_factories < 120 }
				}
				subtract_from_variable = { treasury = 1.5 }
			}
			if = {
				limit = {
					check_variable = { num_of_factories > 119 }
					check_variable = { num_of_factories < 164 }
				}
				subtract_from_variable = { treasury = 2.5 }
			}
			if = {
				limit = {
					check_variable = { num_of_factories > 163 }
					check_variable = { num_of_factories < 250 }
				}
				subtract_from_variable = { treasury = 4.0 }
			}
			if = {
				limit = {
					check_variable = { num_of_factories > 249 }
					check_variable = { num_of_factories < 370 }
				}
				subtract_from_variable = { treasury = 5.5 }
			}
			if = {
				limit = {
					check_variable = { num_of_factories > 369 }
					check_variable = { num_of_factories < 500 }
				}
				subtract_from_variable = { treasury = 7.5 }
			}
			if = {
				limit = {
					check_variable = { num_of_factories > 499 }
				}
				subtract_from_variable = { treasury = 10.0 }
			}
			custom_effect_tooltip = radicalization_decrease_tt
			if = {
				limit = { has_idea = social_01 }
				subtract_from_variable = { radicalization = 1 }
			}
			if = {
				limit = { has_idea = social_02 }
				subtract_from_variable = { radicalization = 2 }
			}
			if = {
				limit = { has_idea = social_03 }
				subtract_from_variable = { radicalization = 3 }
			}
			if = {
				limit = { has_idea = social_04 }
				subtract_from_variable = { radicalization = 4 }
			}
			if = {
				limit = { has_idea = social_05 }
				subtract_from_variable = { radicalization = 5 }
			}
			if = {
				limit = { has_idea = social_06 }
				subtract_from_variable = { radicalization = 6 }
			}
			clamp_radicalization = yes
			add_popularity = {
				ideology = fascism
				popularity = -0.01
			}
			subtract_from_variable = { party_pop_array^11 = 0.01 }
			recalculate_party = yes
			log = "[GetDateText]: [This.GetName]: decision terror_fund_deradicalisation_programmes executed"
		}

		days_remove = 30

		ai_will_do = {
			factor = 0
			modifier = {
				add = 1
				check_variable = { treasury > 0 }
			}
		}
	}

	MENA_terror_ct_training = {

		icon = GFX_decision_generic_army_support

		allowed = {
			is_middle_eastern_nation = yes
			NOT = {
				original_tag = ISR
				original_tag = PER
				original_tag = PAL
				original_tag = HAM
				original_tag = HEZ
				original_tag = TUA
				original_tag = SHA
				is_Caucasus = yes
			}
		}

		available = {
			no_jihadist_government = yes
		}

		custom_cost_trigger = {
			command_power > 20
		}

		custom_cost_text = command_power_more_than_20

		complete_effect = {
			add_command_power = -20
			log = "[GetDateText]: [This.GetName]: decision terror_ct_training executed"
		}

		days_remove = 90

		remove_effect = {
			custom_effect_tooltip = terror_ct_training
			if = {
				limit = { check_variable = { foreign_advisors = 0 } }
				add_to_variable = { ct_training = 1 }
			}
			else_if = {
				limit = {
					OR = {
						AND = {
							check_variable = { foreign_advisors > 0 }
							check_variable = { foreign_advisors < 6 }
						}
						AND = {
							check_variable = { foreign_advisors = 0 }
							has_idea = officer_advanced_training
						}
					}
				}
				add_to_variable = { ct_training = 2 }
			}
			else_if = {
				limit = {
					OR = {
						AND = {
							check_variable = { foreign_advisors > 5 }
							check_variable = { foreign_advisors < 11 }
						}
						AND = {
							check_variable = { foreign_advisors < 6 }
							has_idea = officer_military_school
						}
					}
				}
				add_to_variable = { ct_training = 3 }
			}
			else_if = {
				limit = {
					OR = {
						check_variable = { foreign_advisors > 10 }
						AND = {
							check_variable = { foreign_advisors < 11 }
							has_idea = officer_military_academy
						}
						AND = {
							check_variable = { foreign_advisors < 11 }
							has_idea = officer_international_education
						}
					}
				}
				add_to_variable = { ct_training = 4 }
			}
			clamp_variable = {
				var = ct_training
				min = 0
				max = 10
			}
		}

		ai_will_do = {
			factor = 1
		}
	}

	MENA_terror_conduct_raid = {

		icon = GFX_decision_generic_army_support_new

		allowed = {
			is_middle_eastern_nation = yes
			NOT = {
				original_tag = ISR
				original_tag = PER
				original_tag = PAL
				original_tag = HAM
				original_tag = HEZ
				original_tag = TUA
				original_tag = SHA
				is_Caucasus = yes
			}
		}

		available = {
			no_jihadist_government = yes
			OR = {
				has_idea = police_03
				has_idea = police_04
				has_idea = police_05
			}
			custom_trigger_tooltip = {
				tooltip = low_threat_higher_tt
				check_variable = { threat_level > 10 }
			}
		}

		custom_cost_trigger = {
			command_power > 40
		}

		custom_cost_text = command_power_more_than_40

		complete_effect = {
			add_command_power = -40
			log = "[GetDateText]: [This.GetName]: decision terror_conduct_raid executed"
		}

		days_remove = 30

		remove_effect = {
			custom_effect_tooltip = terror_conduct_raid_tt
			hidden_effect = {
				if = {
					limit = {
						check_variable = { ct_training = 0 }
					}
					random_list = {
						33 = {
							country_event = { id = terror.1 }
						}
						67 = {
							country_event = { id = terror.2 }
						}
					}
				}
				else_if = {
					limit = {
						check_variable = { ct_training > 0 }
						check_variable = { ct_training < 5 }
					}
					random_list = {
						50 = {
							country_event = { id = terror.1 }
						}
						50 = {
							country_event = { id = terror.2 }
						}
					}
				}
				else_if = {
					limit = {
						check_variable = { ct_training > 4 }
						check_variable = { ct_training < 8 }
					}
					random_list = {
						67 = {
							country_event = { id = terror.1 }
						}
						33 = {
							country_event = { id = terror.2 }
						}
					}
				}
				else_if = {
					limit = {
						check_variable = { ct_training > 7 }
						check_variable = { ct_training < 10 }
					}
					random_list = {
						75 = {
							country_event = { id = terror.1 }
						}
						25 = {
							country_event = { id = terror.2 }
						}
					}
				}
				else_if = {
					limit = {
						check_variable = { ct_training = 10 }
					}
					random_list = {
						90 = {
							country_event = { id = terror.1 }
						}
						10 = {
							country_event = { id = terror.2 }
						}
					}
				}
			}
		}

		ai_will_do = {
			factor = 1
		}
	}

	MENA_terror_conduct_strike = {

		icon = GFX_decision_generic_ignite_civil_war

		allowed = {
			is_middle_eastern_nation = yes
			NOT = {
				original_tag = ISR
				original_tag = PER
				original_tag = PAL
				original_tag = HAM
				original_tag = HEZ
				original_tag = TUA
				original_tag = SHA
				is_Caucasus = yes
			}
		}

		available = {
			no_jihadist_government = yes
			OR = {
				has_deployed_air_force_size = {
					size > 9
					type = cas
				}
				has_deployed_air_force_size = {
					size > 9
					type = tactical_bomber
				}
			}
			custom_trigger_tooltip = {
				tooltip = severe_threat_higher_tt
				check_variable = { threat_level > 50 }
			}
		}

		custom_cost_trigger = {
			command_power > 40
		}

		custom_cost_text = command_power_more_than_40

		complete_effect = {
			add_command_power = -40
			log = "[GetDateText]: [This.GetName]: decision terror_conduct_raid executed"
		}

		days_remove = 30

		remove_effect = {
			custom_effect_tooltip = terror_conduct_strike_tt
			hidden_effect = {
				if = {
					limit = {
						check_variable = { ct_training = 0 }
					}
					random_list = {
						25 = {
							country_event = { id = terror.15 }
						}
						75 = {
							country_event = { id = terror.16 }
						}
					}
				}
				else_if = {
					limit = {
						check_variable = { ct_training > 0 }
						check_variable = { ct_training < 5 }
					}
					random_list = {
						33 = {
							country_event = { id = terror.15 }
						}
						67 = {
							country_event = { id = terror.16 }
						}
					}
				}
				else_if = {
					limit = {
						check_variable = { ct_training > 4 }
						check_variable = { ct_training < 8 }
					}
					random_list = {
						50 = {
							country_event = { id = terror.15 }
						}
						59 = {
							country_event = { id = terror.16 }
						}
					}
				}
				else_if = {
					limit = {
						check_variable = { ct_training > 7 }
						check_variable = { ct_training < 10 }
					}
					random_list = {
						67 = {
							country_event = { id = terror.15 }
						}
						33 = {
							country_event = { id = terror.16 }
						}
					}
				}
				else_if = {
					limit = {
						check_variable = { ct_training = 10 }
					}
					random_list = {
						75 = {
							country_event = { id = terror.15 }
						}
						25 = {
							country_event = { id = terror.16 }
						}
					}
				}
			}
		}

		ai_will_do = {
			factor = 1
		}
	}

	MENA_deploy_military_advisors = {
		icon = GFX_decision_generic_army_support
		target_root_trigger = {
			no_jihadist_government = yes
			has_country_flag = middle_east_influencer
		}

		visible = {
			NOT = { has_country_flag = military_advisors_@FROM }
		}

		target_array = global.ct_states

		target_trigger = {
			FROM = {
				no_jihadist_government = yes
				is_top5_influencer = yes
				is_middle_eastern_nation = yes
				NOT = {
					original_tag = ISR
					original_tag = PER
					original_tag = PAL
					original_tag = HAM
					original_tag = HEZ
					original_tag = TUA
					original_tag = SHA
					is_Caucasus = yes
				}
				exists = yes
			}
		}

		available = {
			custom_trigger_tooltip = {
				tooltip = limited_interventionism_tt
				OR = {
					has_idea = intervention_regional_interventionism
					has_idea = intervention_global_interventionism
					has_idea = intervention_neo_imperialism
					has_idea = intervention_limited_interventionism
				}
			}
			custom_trigger_tooltip = {
				tooltip = superior_officer_law_tt
				if = {
					limit = { FROM = { has_idea = officer_baptism_by_fire }}
					NOT = { has_idea = officer_baptism_by_fire }
				}
				if = {
					limit = { FROM = { has_idea = officer_basic_training }}
					NOT = { has_idea = officer_baptism_by_fire }
					NOT = { has_idea = officer_basic_training }
				}
				if = {
					limit = { FROM = { has_idea = officer_advanced_training }}
					NOT = { has_idea = officer_baptism_by_fire }
					NOT = { has_idea = officer_basic_training }
					NOT = { has_idea = officer_advanced_training }
				}
				if = {
					limit = { FROM = { has_idea = officer_military_school }}
					NOT = { has_idea = officer_baptism_by_fire }
					NOT = { has_idea = officer_basic_training }
					NOT = { has_idea = officer_advanced_training }
					NOT = { has_idea = officer_military_school }
				}
				if = {
					limit = { FROM = { has_idea = officer_military_academy }}
					has_idea = officer_international_education
				}
				FROM = { NOT = { has_idea = officer_international_education }}
			}
		}

		custom_cost_trigger = {
			command_power > 40
		}

		custom_cost_text = command_power_more_than_40

		complete_effect = {
			add_command_power = -40
			add_manpower = -150
			set_country_flag = military_advisors_@FROM
			FROM = { add_to_variable = { foreign_advisors = 1 } }
			custom_effect_tooltip = deploy_military_advisors_tt
			log = "[GetDateText]: [This.GetName]: decision deploy_military_advisors executed"
		}

		ai_will_do = {
			factor = 0
			modifier = {
				add = 1
				has_government = democratic
				has_opinion = {
					target = FROM
					value > 0
				}
			}
		}
	}

	MENA_withdraw_military_advisors = {

		icon = GFX_decision_generic_army_support
		target_root_trigger = {
			no_jihadist_government = yes
		}

		visible = {
			has_country_flag = military_advisors_@FROM
		}

		target_array = global.ct_states

		target_trigger = {
			FROM = {
				is_middle_eastern_nation = yes
				NOT = {
					original_tag = ISR
					original_tag = PER
					original_tag = PAL
					original_tag = HAM
					original_tag = HEZ
					original_tag = TUA
					original_tag = SHA
					is_Caucasus = yes
				}
				exists = yes
			}
		}

		available = {
		}

		custom_cost_trigger = {
			command_power > 40
		}

		custom_cost_text = command_power_more_than_40

		complete_effect = {
			add_command_power = -40
			add_manpower = 150
			clr_country_flag = military_advisors_@FROM
			FROM = { subtract_from_variable = { foreign_advisors = 1 } }
			custom_effect_tooltip = withdraw_military_advisors_tt
			log = "[GetDateText]: [This.GetName]: decision withdraw_military_advisors executed"
		}
	}
}

terror_africa_category = {

	AFR_MOR_promote_tolerant_islam = {

		icon = GFX_decision_generic_political_discourse

		allowed = {
			original_tag = MOR
		}

		available = {
			NOT = { has_government = fascism }
			NOT = { has_idea = youth_radicalization }
			custom_trigger_tooltip = {
				tooltip = influences_african_country_tt
				any_country = {
					OR = {
						original_tag = BFA
						original_tag = CHA
						original_tag = MAL
						original_tag = MAU
						original_tag = NIG
						original_tag = NGR
						original_tag = SEN
						original_tag = SUD
						original_tag = SOM
					}
					is_influencer = yes
				}
			}
		}

		cost = 50

		days_remove = 60

		remove_effect = {
			every_other_country = {
				limit = {
					OR = {
						original_tag = BFA
						original_tag = CHA
						original_tag = MAL
						original_tag = MAU
						original_tag = NIG
						original_tag = NGR
						original_tag = SEN
						original_tag = SUD
						original_tag = SOM
					}
					is_influencer = yes
				}
				custom_effect_tooltip = radicalization_decrease_tt
				subtract_from_variable = { radicalization = 5 }
				clamp_radicalization = yes
			}
			log = "[GetDateText]: [This.GetName]: decision MOR_promote_tolerant_islam executed"
		}

		ai_will_do = {
			factor = 1
		}
	}

	AFR_OMA_promote_tolerant_islam = {

		icon = GFX_decision_generic_political_discourse

		allowed = {
			original_tag = OMA
		}

		available = {
			has_idea = ibadi
			NOT = { has_government = fascism }
			NOT = { has_idea = youth_radicalization }
			custom_trigger_tooltip = {
				tooltip = influences_african_country_tt
				any_country = {
					OR = {
						original_tag = BFA
						original_tag = CHA
						original_tag = MAL
						original_tag = MAU
						original_tag = NIG
						original_tag = NGR
						original_tag = SEN
						original_tag = SUD
						original_tag = SOM
					}
					is_influencer = yes
				}
			}
		}

		cost = 50

		days_remove = 60

		remove_effect = {
			every_other_country = {
				limit = {
					OR = {
						original_tag = BFA
						original_tag = CHA
						original_tag = MAL
						original_tag = MAU
						original_tag = NIG
						original_tag = NGR
						original_tag = SEN
						original_tag = SUD
						original_tag = SOM
					}
					is_influencer = yes
				}
				custom_effect_tooltip = radicalization_decrease_tt
				subtract_from_variable = { radicalization = 5 }
				clamp_radicalization = yes
			}
			log = "[GetDateText]: [This.GetName]: decision OMA_promote_tolerant_islam executed"
		}

		ai_will_do = {
			factor = 1
		}
	}

	AFR_terror_fund_deradicalisation_programmes = {

		icon = GFX_decision_generic_political_discourse

		allowed = {
			OR = {
				original_tag = BFA
				original_tag = CHA
				original_tag = MAL
				original_tag = MAU
				original_tag = NIG
				original_tag = NGR
				original_tag = SEN
				original_tag = SUD
				original_tag = SOM
			}
		}

		available = {
			no_jihadist_government = yes
			has_idea = youth_radicalization
			NOT = {
				has_idea = paralyzing_corruption
				has_idea = crippling_corruption
			}
		}

		custom_cost_trigger = {
			always = yes
		}
		custom_cost_text = [propaganda_cost]

		complete_effect = {
			if = { limit = { check_variable = { num_of_factories < 4 } }
				subtract_from_variable = { treasury = 0.05 }
			}
			if = {
				limit = {
					check_variable = { num_of_factories > 3 }
					check_variable = { num_of_factories < 8 }
				}
				subtract_from_variable = { treasury = 0.1 }
			}
			if = {
				limit = {
					check_variable = { num_of_factories > 7 }
					check_variable = { num_of_factories < 16 }
				}
				subtract_from_variable = { treasury = 0.2 }
			}
			if = {
				limit = {
					check_variable = { num_of_factories > 15 }
					check_variable = { num_of_factories < 26 }
				}
				subtract_from_variable = { treasury = 0.35 }
			}
			if = {
				limit = {
					check_variable = { num_of_factories > 25 }
					check_variable = { num_of_factories < 39 }
				}
				subtract_from_variable = { treasury = 0.5 }
			}
			if = {
				limit = {
					check_variable = { num_of_factories > 38 }
					check_variable = { num_of_factories < 54 }
				}
				subtract_from_variable = { treasury = 0.75 }
			}
			if = {
				limit = {
					check_variable = { num_of_factories > 53 }
					check_variable = { num_of_factories < 82 }
				}
				subtract_from_variable = { treasury = 1.0 }
			}
			if = {
				limit = {
					check_variable = { num_of_factories > 81 }
					check_variable = { num_of_factories < 120 }
				}
				subtract_from_variable = { treasury = 1.5 }
			}
			if = {
				limit = {
					check_variable = { num_of_factories > 119 }
					check_variable = { num_of_factories < 164 }
				}
				subtract_from_variable = { treasury = 2.5 }
			}
			if = {
				limit = {
					check_variable = { num_of_factories > 163 }
					check_variable = { num_of_factories < 250 }
				}
				subtract_from_variable = { treasury = 4.0 }
			}
			if = {
				limit = {
					check_variable = { num_of_factories > 249 }
					check_variable = { num_of_factories < 370 }
				}
				subtract_from_variable = { treasury = 5.5 }
			}
			if = {
				limit = {
					check_variable = { num_of_factories > 369 }
					check_variable = { num_of_factories < 500 }
				}
				subtract_from_variable = { treasury = 7.5 }
			}
			if = {
				limit = {
					check_variable = { num_of_factories > 499 }
				}
				subtract_from_variable = { treasury = 10.0 }
			}
			custom_effect_tooltip = radicalization_decrease_tt
			if = {
				limit = { has_idea = social_01 }
				subtract_from_variable = { radicalization = 1 }
			}
			if = {
				limit = { has_idea = social_02 }
				subtract_from_variable = { radicalization = 2 }
			}
			if = {
				limit = { has_idea = social_03 }
				subtract_from_variable = { radicalization = 3 }
			}
			if = {
				limit = { has_idea = social_04 }
				subtract_from_variable = { radicalization = 4 }
			}
			if = {
				limit = { has_idea = social_05 }
				subtract_from_variable = { radicalization = 5 }
			}
			if = {
				limit = { has_idea = social_06 }
				subtract_from_variable = { radicalization = 6 }
			}
			clamp_radicalization = yes
			add_popularity = {
				ideology = fascism
				popularity = -0.01
			}
			subtract_from_variable = { party_pop_array^11 = 0.01 }
			recalculate_party = yes
			log = "[GetDateText]: [This.GetName]: decision terror_fund_deradicalisation_programmes executed"
		}

		days_remove = 30

		ai_will_do = {
			factor = 0
			modifier = {
				add = 1
				check_variable = { treasury > 0 }
			}
		}
	}

	AFR_terror_ct_training = {

		icon = GFX_decision_generic_army_support

		allowed = {
			OR = {
				original_tag = BFA
				original_tag = CHA
				original_tag = MAL
				original_tag = MAU
				original_tag = NIG
				original_tag = NGR
				original_tag = SEN
				original_tag = SUD
				original_tag = SOM
			}
		}

		available = {
			no_jihadist_government = yes
		}

		custom_cost_trigger = {
			command_power > 20
		}

		custom_cost_text = command_power_more_than_20

		complete_effect = {
			add_command_power = -20
			log = "[GetDateText]: [This.GetName]: decision terror_ct_training executed"
		}

		days_remove = 90

		remove_effect = {
			custom_effect_tooltip = terror_ct_training
			if = {
				limit = { check_variable = { foreign_advisors = 0 } }
				add_to_variable = { ct_training = 1 }
			}
			else_if = {
				limit = {
					OR = {
						AND = {
							check_variable = { foreign_advisors > 0 }
							check_variable = { foreign_advisors < 6 }
						}
						AND = {
							check_variable = { foreign_advisors = 0 }
							has_idea = officer_advanced_training
						}
					}
				}
				add_to_variable = { ct_training = 2 }
			}
			else_if = {
				limit = {
					OR = {
						AND = {
							check_variable = { foreign_advisors > 5 }
							check_variable = { foreign_advisors < 11 }
						}
						AND = {
							check_variable = { foreign_advisors < 6 }
							has_idea = officer_military_school
						}
					}
				}
				add_to_variable = { ct_training = 3 }
			}
			else_if = {
				limit = {
					OR = {
						check_variable = { foreign_advisors > 10 }
						AND = {
							check_variable = { foreign_advisors < 11 }
							has_idea = officer_military_academy
						}
						AND = {
							check_variable = { foreign_advisors < 11 }
							has_idea = officer_international_education
						}
					}
				}
				add_to_variable = { ct_training = 4 }
			}
			clamp_variable = {
				var = ct_training
				min = 0
				max = 10
			}
		}

		ai_will_do = {
			factor = 1
		}
	}

	AFR_terror_conduct_raid = {

		icon = GFX_decision_generic_army_support_new

		allowed = {
			OR = {
				original_tag = BFA
				original_tag = CHA
				original_tag = MAL
				original_tag = MAU
				original_tag = NIG
				original_tag = NGR
				original_tag = SEN
				original_tag = SUD
				original_tag = SOM
			}
		}

		available = {
			no_jihadist_government = yes
			OR = {
				has_idea = police_03
				has_idea = police_04
				has_idea = police_05
			}
			custom_trigger_tooltip = {
				tooltip = low_threat_higher_tt
				check_variable = { threat_level > 10 }
			}
		}

		custom_cost_trigger = {
			command_power > 40
		}

		custom_cost_text = command_power_more_than_40

		complete_effect = {
			add_command_power = -40
			log = "[GetDateText]: [This.GetName]: decision terror_conduct_raid executed"
		}

		days_remove = 30

		remove_effect = {
			custom_effect_tooltip = terror_conduct_raid_tt
			hidden_effect = {
				if = {
					limit = {
						check_variable = { ct_training = 0 }
					}
					random_list = {
						33 = {
							country_event = { id = terror.1 }
						}
						67 = {
							country_event = { id = terror.2 }
						}
					}
				}
				else_if = {
					limit = {
						check_variable = { ct_training > 0 }
						check_variable = { ct_training < 5 }
					}
					random_list = {
						50 = {
							country_event = { id = terror.1 }
						}
						50 = {
							country_event = { id = terror.2 }
						}
					}
				}
				else_if = {
					limit = {
						check_variable = { ct_training > 4 }
						check_variable = { ct_training < 8 }
					}
					random_list = {
						67 = {
							country_event = { id = terror.1 }
						}
						33 = {
							country_event = { id = terror.2 }
						}
					}
				}
				else_if = {
					limit = {
						check_variable = { ct_training > 7 }
						check_variable = { ct_training < 10 }
					}
					random_list = {
						75 = {
							country_event = { id = terror.1 }
						}
						25 = {
							country_event = { id = terror.2 }
						}
					}
				}
				else_if = {
					limit = {
						check_variable = { ct_training = 10 }
					}
					random_list = {
						90 = {
							country_event = { id = terror.1 }
						}
						10 = {
							country_event = { id = terror.2 }
						}
					}
				}
			}
		}

		ai_will_do = {
			factor = 1
		}
	}

	AFR_terror_conduct_strike = {

		icon = GFX_decision_generic_ignite_civil_war

		allowed = {
			OR = {
				original_tag = BFA
				original_tag = CHA
				original_tag = MAL
				original_tag = MAU
				original_tag = NIG
				original_tag = NGR
				original_tag = SEN
				original_tag = SUD
				original_tag = SOM
			}
		}

		available = {
			no_jihadist_government = yes
			OR = {
				has_deployed_air_force_size = {
					size > 9
					type = cas
				}
				has_deployed_air_force_size = {
					size > 9
					type = tactical_bomber
				}
			}
			custom_trigger_tooltip = {
				tooltip = severe_threat_higher_tt
				check_variable = { threat_level > 50 }
			}
		}

		custom_cost_trigger = {
			command_power > 40
		}

		custom_cost_text = command_power_more_than_40

		complete_effect = {
			add_command_power = -40
			log = "[GetDateText]: [This.GetName]: decision terror_conduct_raid executed"
		}

		days_remove = 30

		remove_effect = {
			custom_effect_tooltip = terror_conduct_strike_tt
			hidden_effect = {
				if = {
					limit = {
						check_variable = { ct_training = 0 }
					}
					random_list = {
						25 = {
							country_event = { id = terror.15 }
						}
						75 = {
							country_event = { id = terror.16 }
						}
					}
				}
				else_if = {
					limit = {
						check_variable = { ct_training > 0 }
						check_variable = { ct_training < 5 }
					}
					random_list = {
						33 = {
							country_event = { id = terror.15 }
						}
						67 = {
							country_event = { id = terror.16 }
						}
					}
				}
				else_if = {
					limit = {
						check_variable = { ct_training > 4 }
						check_variable = { ct_training < 8 }
					}
					random_list = {
						50 = {
							country_event = { id = terror.15 }
						}
						59 = {
							country_event = { id = terror.16 }
						}
					}
				}
				else_if = {
					limit = {
						check_variable = { ct_training > 7 }
						check_variable = { ct_training < 10 }
					}
					random_list = {
						67 = {
							country_event = { id = terror.15 }
						}
						33 = {
							country_event = { id = terror.16 }
						}
					}
				}
				else_if = {
					limit = {
						check_variable = { ct_training = 10 }
					}
					random_list = {
						75 = {
							country_event = { id = terror.15 }
						}
						25 = {
							country_event = { id = terror.16 }
						}
					}
				}
			}
		}

		ai_will_do = {
			factor = 1
		}
	}

	AFR_deploy_military_advisors = {
		icon = GFX_decision_generic_army_support
		target_root_trigger = {
			no_jihadist_government = yes
			has_country_flag = africa_influencer
		}

		visible = {
			NOT = { has_country_flag = military_advisors_@FROM }
		}

		target_array = global.ct_states

		target_trigger = {
			FROM = {
				no_jihadist_government = yes
				is_top5_influencer = yes
				OR = {
					original_tag = BFA
					original_tag = CHA
					original_tag = MAL
					original_tag = MAU
					original_tag = NIG
					original_tag = NGR
					original_tag = SEN
					original_tag = SUD
					original_tag = SOM
				}
				exists = yes
			}
		}

		available = {
			custom_trigger_tooltip = {
				tooltip = limited_interventionism_tt
				OR = {
					has_idea = intervention_regional_interventionism
					has_idea = intervention_global_interventionism
					has_idea = intervention_neo_imperialism
					has_idea = intervention_limited_interventionism
				}
			}
			custom_trigger_tooltip = {
				tooltip = superior_officer_law_tt
				if = {
					limit = { FROM = { has_idea = officer_baptism_by_fire }}
					NOT = { has_idea = officer_baptism_by_fire }
				}
				if = {
					limit = { FROM = { has_idea = officer_basic_training }}
					NOT = { has_idea = officer_baptism_by_fire }
					NOT = { has_idea = officer_basic_training }
				}
				if = {
					limit = { FROM = { has_idea = officer_advanced_training }}
					NOT = { has_idea = officer_baptism_by_fire }
					NOT = { has_idea = officer_basic_training }
					NOT = { has_idea = officer_advanced_training }
				}
				if = {
					limit = { FROM = { has_idea = officer_military_school }}
					NOT = { has_idea = officer_baptism_by_fire }
					NOT = { has_idea = officer_basic_training }
					NOT = { has_idea = officer_advanced_training }
					NOT = { has_idea = officer_military_school }
				}
				if = {
					limit = { FROM = { has_idea = officer_military_academy }}
					has_idea = officer_international_education
				}
				FROM = { NOT = { has_idea = officer_international_education }}
			}
		}

		custom_cost_trigger = {
			command_power > 40
		}

		custom_cost_text = command_power_more_than_40

		complete_effect = {
			add_command_power = -40
			add_manpower = -150
			set_country_flag = military_advisors_@FROM
			FROM = { add_to_variable = { foreign_advisors = 1 } }
			custom_effect_tooltip = deploy_military_advisors_tt
			log = "[GetDateText]: [This.GetName]: decision deploy_military_advisors executed"
		}

		ai_will_do = {
			factor = 0
			modifier = {
				add = 1
				has_government = democratic
				has_opinion = {
					target = FROM
					value > 0
				}
			}
		}
	}

	AFR_withdraw_military_advisors = {

		icon = GFX_decision_generic_army_support
		target_root_trigger = {
			no_jihadist_government = yes
		}

		visible = {
			has_country_flag = military_advisors_@FROM
		}

		target_array = global.ct_states

		target_trigger = {
			FROM = {
				OR = {
					original_tag = BFA
					original_tag = CHA
					original_tag = MAL
					original_tag = MAU
					original_tag = NIG
					original_tag = NGR
					original_tag = SEN
					original_tag = SUD
					original_tag = SOM
				}
				exists = yes
			}
		}

		available = {
		}

		custom_cost_trigger = {
			command_power > 40
		}

		custom_cost_text = command_power_more_than_40

		complete_effect = {
			add_command_power = -40
			add_manpower = 150
			clr_country_flag = military_advisors_@FROM
			FROM = { subtract_from_variable = { foreign_advisors = 1 } }
			custom_effect_tooltip = withdraw_military_advisors_tt
			log = "[GetDateText]: [This.GetName]: decision withdraw_military_advisors executed"
		}
	}
}

terror_asia_category = {

	ASIA_MOR_promote_tolerant_islam = {

		icon = GFX_decision_generic_political_discourse

		allowed = {
			original_tag = MOR
		}

		available = {
			NOT = { has_government = fascism }
			NOT = { has_idea = youth_radicalization }
			custom_trigger_tooltip = {
				tooltip = influences_asian_country_tt
				any_country = {
					OR = {
						original_tag = AFG
						original_tag = KYR
						original_tag = TAJ
						original_tag = TRK
						original_tag = PAK
						original_tag = UZB
					}
					is_influencer = yes
				}
			}
		}

		cost = 50

		days_remove = 60

		remove_effect = {
			every_other_country = {
				limit = {
					OR = {
						original_tag = AFG
						original_tag = KYR
						original_tag = TAJ
						original_tag = TRK
						original_tag = PAK
						original_tag = UZB
					}
					is_influencer = yes
				}
				custom_effect_tooltip = radicalization_decrease_tt
				subtract_from_variable = { radicalization = 5 }
				clamp_radicalization = yes
			}
			log = "[GetDateText]: [This.GetName]: decision MOR_promote_tolerant_islam executed"
		}

		ai_will_do = {
			factor = 1
		}
	}

	ASIA_OMA_promote_tolerant_islam = {

		icon = GFX_decision_generic_political_discourse

		allowed = {
			original_tag = OMA
		}

		available = {
			has_idea = ibadi
			NOT = { has_government = fascism }
			NOT = { has_idea = youth_radicalization }
			custom_trigger_tooltip = {
				tooltip = influences_asian_country_tt
				any_country = {
					OR = {
						original_tag = AFG
						original_tag = KYR
						original_tag = TAJ
						original_tag = TRK
						original_tag = PAK
						original_tag = UZB
					}
					is_influencer = yes
				}
			}
		}

		cost = 50

		days_remove = 60

		remove_effect = {
			every_other_country = {
				limit = {
					OR = {
						original_tag = AFG
						original_tag = KYR
						original_tag = TAJ
						original_tag = TRK
						original_tag = PAK
						original_tag = UZB
					}
					is_influencer = yes
				}
				custom_effect_tooltip = radicalization_decrease_tt
				subtract_from_variable = { radicalization = 5 }
				clamp_radicalization = yes
			}
			log = "[GetDateText]: [This.GetName]: decision OMA_promote_tolerant_islam executed"
		}

		ai_will_do = {
			factor = 1
		}
	}

	ASIA_terror_fund_deradicalisation_programmes = {

		icon = GFX_decision_generic_political_discourse

		allowed = {
			OR = {
				original_tag = AFG
				original_tag = KYR
				original_tag = TAJ
				original_tag = TRK
				original_tag = PAK
				original_tag = UZB
			}
		}

		available = {
			no_jihadist_government = yes
			has_idea = youth_radicalization
			NOT = {
				has_idea = paralyzing_corruption
				has_idea = crippling_corruption
			}
		}

		custom_cost_trigger = {
			always = yes
		}
		custom_cost_text = [propaganda_cost]

		complete_effect = {
			if = { limit = { check_variable = { num_of_factories < 4 } }
				subtract_from_variable = { treasury = 0.05 }
			}
			if = {
				limit = {
					check_variable = { num_of_factories > 3 }
					check_variable = { num_of_factories < 8 }
				}
				subtract_from_variable = { treasury = 0.1 }
			}
			if = {
				limit = {
					check_variable = { num_of_factories > 7 }
					check_variable = { num_of_factories < 16 }
				}
				subtract_from_variable = { treasury = 0.2 }
			}
			if = {
				limit = {
					check_variable = { num_of_factories > 15 }
					check_variable = { num_of_factories < 26 }
				}
				subtract_from_variable = { treasury = 0.35 }
			}
			if = {
				limit = {
					check_variable = { num_of_factories > 25 }
					check_variable = { num_of_factories < 39 }
				}
				subtract_from_variable = { treasury = 0.5 }
			}
			if = {
				limit = {
					check_variable = { num_of_factories > 38 }
					check_variable = { num_of_factories < 54 }
				}
				subtract_from_variable = { treasury = 0.75 }
			}
			if = {
				limit = {
					check_variable = { num_of_factories > 53 }
					check_variable = { num_of_factories < 82 }
				}
				subtract_from_variable = { treasury = 1.0 }
			}
			if = {
				limit = {
					check_variable = { num_of_factories > 81 }
					check_variable = { num_of_factories < 120 }
				}
				subtract_from_variable = { treasury = 1.5 }
			}
			if = {
				limit = {
					check_variable = { num_of_factories > 119 }
					check_variable = { num_of_factories < 164 }
				}
				subtract_from_variable = { treasury = 2.5 }
			}
			if = {
				limit = {
					check_variable = { num_of_factories > 163 }
					check_variable = { num_of_factories < 250 }
				}
				subtract_from_variable = { treasury = 4.0 }
			}
			if = {
				limit = {
					check_variable = { num_of_factories > 249 }
					check_variable = { num_of_factories < 370 }
				}
				subtract_from_variable = { treasury = 5.5 }
			}
			if = {
				limit = {
					check_variable = { num_of_factories > 369 }
					check_variable = { num_of_factories < 500 }
				}
				subtract_from_variable = { treasury = 7.5 }
			}
			if = {
				limit = {
					check_variable = { num_of_factories > 499 }
				}
				subtract_from_variable = { treasury = 10.0 }
			}
			custom_effect_tooltip = radicalization_decrease_tt
			if = {
				limit = { has_idea = social_01 }
				subtract_from_variable = { radicalization = 1 }
			}
			if = {
				limit = { has_idea = social_02 }
				subtract_from_variable = { radicalization = 2 }
			}
			if = {
				limit = { has_idea = social_03 }
				subtract_from_variable = { radicalization = 3 }
			}
			if = {
				limit = { has_idea = social_04 }
				subtract_from_variable = { radicalization = 4 }
			}
			if = {
				limit = { has_idea = social_05 }
				subtract_from_variable = { radicalization = 5 }
			}
			if = {
				limit = { has_idea = social_06 }
				subtract_from_variable = { radicalization = 6 }
			}
			clamp_radicalization = yes
			add_popularity = {
				ideology = fascism
				popularity = -0.01
			}
			subtract_from_variable = { party_pop_array^11 = 0.01 }
			recalculate_party = yes
			log = "[GetDateText]: [This.GetName]: decision terror_fund_deradicalisation_programmes executed"
		}

		days_remove = 30

		ai_will_do = {
			factor = 0
			modifier = {
				add = 1
				check_variable = { treasury > 0 }
			}
		}
	}

	ASIA_terror_ct_training = {

		icon = GFX_decision_generic_army_support

		allowed = {
			OR = {
				original_tag = AFG
				original_tag = KYR
				original_tag = TAJ
				original_tag = TRK
				original_tag = PAK
				original_tag = UZB
			}
		}

		available = {
			no_jihadist_government = yes
		}

		custom_cost_trigger = {
			command_power > 20
		}

		custom_cost_text = command_power_more_than_20

		complete_effect = {
			add_command_power = -20
			log = "[GetDateText]: [This.GetName]: decision terror_ct_training executed"
		}

		days_remove = 90

		remove_effect = {
			custom_effect_tooltip = terror_ct_training
			if = {
				limit = { check_variable = { foreign_advisors = 0 } }
				add_to_variable = { ct_training = 1 }
			}
			else_if = {
				limit = {
					OR = {
						AND = {
							check_variable = { foreign_advisors > 0 }
							check_variable = { foreign_advisors < 6 }
						}
						AND = {
							check_variable = { foreign_advisors = 0 }
							has_idea = officer_advanced_training
						}
					}
				}
				add_to_variable = { ct_training = 2 }
			}
			else_if = {
				limit = {
					OR = {
						AND = {
							check_variable = { foreign_advisors > 5 }
							check_variable = { foreign_advisors < 11 }
						}
						AND = {
							check_variable = { foreign_advisors < 6 }
							has_idea = officer_military_school
						}
					}
				}
				add_to_variable = { ct_training = 3 }
			}
			else_if = {
				limit = {
					OR = {
						check_variable = { foreign_advisors > 10 }
						AND = {
							check_variable = { foreign_advisors < 11 }
							has_idea = officer_military_academy
						}
						AND = {
							check_variable = { foreign_advisors < 11 }
							has_idea = officer_international_education
						}
					}
				}
				add_to_variable = { ct_training = 4 }
			}
			clamp_variable = {
				var = ct_training
				min = 0
				max = 10
			}
		}

		ai_will_do = {
			factor = 1
		}
	}

	ASIA_terror_conduct_raid = {

		icon = GFX_decision_generic_army_support_new

		allowed = {
			OR = {
				original_tag = AFG
				original_tag = KYR
				original_tag = TAJ
				original_tag = TRK
				original_tag = PAK
				original_tag = UZB
			}
		}

		available = {
			no_jihadist_government = yes
			OR = {
				has_idea = police_03
				has_idea = police_04
				has_idea = police_05
			}
			custom_trigger_tooltip = {
				tooltip = low_threat_higher_tt
				check_variable = { threat_level > 10 }
			}
		}

		custom_cost_trigger = {
			command_power > 40
		}

		custom_cost_text = command_power_more_than_40

		complete_effect = {
			add_command_power = -40
			log = "[GetDateText]: [This.GetName]: decision terror_conduct_raid executed"
		}

		days_remove = 30

		remove_effect = {
			custom_effect_tooltip = terror_conduct_raid_tt
			hidden_effect = {
				if = {
					limit = {
						check_variable = { ct_training = 0 }
					}
					random_list = {
						33 = {
							country_event = { id = terror.1 }
						}
						67 = {
							country_event = { id = terror.2 }
						}
					}
				}
				else_if = {
					limit = {
						check_variable = { ct_training > 0 }
						check_variable = { ct_training < 5 }
					}
					random_list = {
						50 = {
							country_event = { id = terror.1 }
						}
						50 = {
							country_event = { id = terror.2 }
						}
					}
				}
				else_if = {
					limit = {
						check_variable = { ct_training > 4 }
						check_variable = { ct_training < 8 }
					}
					random_list = {
						67 = {
							country_event = { id = terror.1 }
						}
						33 = {
							country_event = { id = terror.2 }
						}
					}
				}
				else_if = {
					limit = {
						check_variable = { ct_training > 7 }
						check_variable = { ct_training < 10 }
					}
					random_list = {
						75 = {
							country_event = { id = terror.1 }
						}
						25 = {
							country_event = { id = terror.2 }
						}
					}
				}
				else_if = {
					limit = {
						check_variable = { ct_training = 10 }
					}
					random_list = {
						90 = {
							country_event = { id = terror.1 }
						}
						10 = {
							country_event = { id = terror.2 }
						}
					}
				}
			}
		}

		ai_will_do = {
			factor = 1
		}
	}

	ASIA_terror_conduct_strike = {

		icon = GFX_decision_generic_ignite_civil_war

		allowed = {
			OR = {
				original_tag = AFG
				original_tag = KYR
				original_tag = TAJ
				original_tag = TRK
				original_tag = PAK
				original_tag = UZB
			}
		}

		available = {
			no_jihadist_government = yes
			OR = {
				has_deployed_air_force_size = {
					size > 9
					type = cas
				}
				has_deployed_air_force_size = {
					size > 9
					type = tactical_bomber
				}
			}
			custom_trigger_tooltip = {
				tooltip = severe_threat_higher_tt
				check_variable = { threat_level > 50 }
			}
		}

		custom_cost_trigger = {
			command_power > 40
		}

		custom_cost_text = command_power_more_than_40

		complete_effect = {
			add_command_power = -40
			log = "[GetDateText]: [This.GetName]: decision terror_conduct_raid executed"
		}

		days_remove = 30

		remove_effect = {
			custom_effect_tooltip = terror_conduct_strike_tt
			hidden_effect = {
				if = {
					limit = {
						check_variable = { ct_training = 0 }
					}
					random_list = {
						25 = {
							country_event = { id = terror.15 }
						}
						75 = {
							country_event = { id = terror.16 }
						}
					}
				}
				else_if = {
					limit = {
						check_variable = { ct_training > 0 }
						check_variable = { ct_training < 5 }
					}
					random_list = {
						33 = {
							country_event = { id = terror.15 }
						}
						67 = {
							country_event = { id = terror.16 }
						}
					}
				}
				else_if = {
					limit = {
						check_variable = { ct_training > 4 }
						check_variable = { ct_training < 8 }
					}
					random_list = {
						50 = {
							country_event = { id = terror.15 }
						}
						59 = {
							country_event = { id = terror.16 }
						}
					}
				}
				else_if = {
					limit = {
						check_variable = { ct_training > 7 }
						check_variable = { ct_training < 10 }
					}
					random_list = {
						67 = {
							country_event = { id = terror.15 }
						}
						33 = {
							country_event = { id = terror.16 }
						}
					}
				}
				else_if = {
					limit = {
						check_variable = { ct_training = 10 }
					}
					random_list = {
						75 = {
							country_event = { id = terror.15 }
						}
						25 = {
							country_event = { id = terror.16 }
						}
					}
				}
			}
		}

		ai_will_do = {
			factor = 1
		}
	}

	ASIA_deploy_military_advisors = {

		icon = GFX_decision_generic_army_support
		target_root_trigger = {
			no_jihadist_government = yes
			has_country_flag = asia_influencer
		}

		visible = {
			NOT = { has_country_flag = military_advisors_@FROM }
		}

		target_array = global.ct_states

		target_trigger = {
			FROM = {
				no_jihadist_government = yes
				is_top5_influencer = yes
				OR = {
					original_tag = AFG
					original_tag = KYR
					original_tag = TAJ
					original_tag = TRK
					original_tag = PAK
					original_tag = UZB
				}
				exists = yes
			}
		}

		available = {
			custom_trigger_tooltip = {
				tooltip = limited_interventionism_tt
				OR = {
					has_idea = intervention_regional_interventionism
					has_idea = intervention_global_interventionism
					has_idea = intervention_neo_imperialism
					has_idea = intervention_limited_interventionism
				}
			}
			custom_trigger_tooltip = {
				tooltip = superior_officer_law_tt
				if = {
					limit = { FROM = { has_idea = officer_baptism_by_fire }}
					NOT = { has_idea = officer_baptism_by_fire }
				}
				if = {
					limit = { FROM = { has_idea = officer_basic_training }}
					NOT = { has_idea = officer_baptism_by_fire }
					NOT = { has_idea = officer_basic_training }
				}
				if = {
					limit = { FROM = { has_idea = officer_advanced_training }}
					NOT = { has_idea = officer_baptism_by_fire }
					NOT = { has_idea = officer_basic_training }
					NOT = { has_idea = officer_advanced_training }
				}
				if = {
					limit = { FROM = { has_idea = officer_military_school }}
					NOT = { has_idea = officer_baptism_by_fire }
					NOT = { has_idea = officer_basic_training }
					NOT = { has_idea = officer_advanced_training }
					NOT = { has_idea = officer_military_school }
				}
				if = {
					limit = { FROM = { has_idea = officer_military_academy }}
					has_idea = officer_international_education
				}
				FROM = { NOT = { has_idea = officer_international_education }}
			}
		}

		custom_cost_trigger = {
			command_power > 40
		}

		custom_cost_text = command_power_more_than_40

		complete_effect = {
			add_command_power = -40
			add_manpower = -150
			set_country_flag = military_advisors_@FROM
			FROM = { add_to_variable = { foreign_advisors = 1 } }
			custom_effect_tooltip = deploy_military_advisors_tt
			log = "[GetDateText]: [This.GetName]: decision deploy_military_advisors executed"
		}

		ai_will_do = {
			factor = 0
			modifier = {
				add = 1
				has_government = democratic
				has_opinion = {
					target = FROM
					value > 0
				}
			}
		}
	}

	ASIA_withdraw_military_advisors = {

		icon = GFX_decision_generic_army_support
		target_root_trigger = {
			no_jihadist_government = yes
		}

		visible = {
			has_country_flag = military_advisors_@FROM
		}

		target_array = global.ct_states

		target_trigger = {
			FROM = {
				OR = {
					original_tag = AFG
					original_tag = KYR
					original_tag = TAJ
					original_tag = TRK
					original_tag = PAK
					original_tag = UZB
				}
				exists = yes
			}
		}

		available = {
		}

		custom_cost_trigger = {
			command_power > 40
		}

		custom_cost_text = command_power_more_than_40

		complete_effect = {
			add_command_power = -40
			add_manpower = 150
			clr_country_flag = military_advisors_@FROM
			FROM = { subtract_from_variable = { foreign_advisors = 1 } }
			custom_effect_tooltip = withdraw_military_advisors_tt
			log = "[GetDateText]: [This.GetName]: decision withdraw_military_advisors executed"
		}
	}
}