##Written by Bird, Ahmex, Razmodell
EP_vhc_cat = {
	EP_vhc_close = {
		icon = GFX_decision_generic_prepare_civil_war
		visible = {
			has_country_flag = vhc_cat_open
		}

		complete_effect = {
			log = "[GetDateText]: [Root.GetName]: Decision EP_vhc_close"
			clr_country_flag = vhc_cat_open

			clr_country_flag = show_APC
			clr_country_flag = show_IFV
			clr_country_flag = show_rec
			clr_country_flag = show_mbt
		}
	}

	EP_mbt_open = {
		icon = GFX_decision_generic_prepare_civil_war
		visible = {
			has_country_flag = vhc_cat_open
			hidden_trigger = {
				NOT = { has_country_flag = show_mbt }
			}
		}

		complete_effect = {
			log = "[GetDateText]: [Root.GetName]: Decision EP_mbt_open"
			set_country_flag = show_mbt
		}
	}

	EP_mbt_close = {

		icon = GFX_decision_generic_prepare_civil_war

		visible = {
			has_country_flag = show_mbt
			has_country_flag = vhc_cat_open
		}

		complete_effect = {
			log = "[GetDateText]: [Root.GetName]: Decision EP_mbt_close"
			clr_country_flag = show_mbt
		}
	}

	EP_buy_USA_mbt_1 = {
		allowed = { NOT = { tag = USA } }
		visible = {
			has_country_flag = show_mbt
			has_country_flag = vhc_cat_open
			country_exists = USA
			NOT = { has_war_with = USA }
		}

		available = { NOT = { tag = USA } }

		icon = usa

		days_remove = 210 ##MBT will take awhile to manufacture
		days_re_enable = 10

		custom_cost_trigger = {
			check_variable = { treasury > 0.1 }
		}
		custom_cost_text = EPinfo_0_1

		remove_effect = {
			log = "[GetDateText]: [Root.GetName]: Decision remove EP_buy_USA_mbt_1"
			mbt_USA = yes
		}
	}

	EP_buy_SOV_mbt_1 = {
		allowed = { NOT = { tag = SOV } }
		visible = {
			has_country_flag = show_mbt
			has_country_flag = vhc_cat_open
			country_exists = SOV
			NOT = { has_war_with = SOV }
		}

		available = { NOT = { tag = SOV } }

		icon = russia

		days_remove = 210 ##MBT will take awhile to manufacture
		days_re_enable = 10

		custom_cost_trigger = {
			check_variable = { treasury > 0.1 }
		}
		custom_cost_text = EPinfo_0_1

		remove_effect = {
			log = "[GetDateText]: [Root.GetName]: Decision remove EP_buy_SOV_mbt_1"
			mbt_SOV = yes
		}
	}

	EP_buy_FRA_mbt_1 = {
		allowed = { NOT = { tag = FRA } }
		visible = {
			has_country_flag = show_mbt
			has_country_flag = vhc_cat_open
			country_exists = FRA
			NOT = { has_war_with = FRA }
		}

		available = { NOT = { tag = FRA } }

		icon = france

		days_remove = 210 ##MBT will take awhile to manufacture
		days_re_enable = 10

		custom_cost_trigger = {
			check_variable = { treasury > 0.1 }
		}
		custom_cost_text = EPinfo_0_1

		remove_effect = {
			log = "[GetDateText]: [Root.GetName]: Decision remove EP_buy_FRA_mbt_1"
			mbt_FRA = yes
		}
	}

	EP_buy_GER_mbt_1 = {
		allowed = { NOT = { tag = GER } }
		visible = {
			has_country_flag = show_mbt
			has_country_flag = vhc_cat_open
			country_exists = GER
			NOT = { has_war_with = GER }
		}

		available = { NOT = { tag = GER } }

		icon = germany

		days_remove = 210 ##MBT will take awhile to manufacture
		days_re_enable = 10

		custom_cost_trigger = {
			check_variable = { treasury > 0.1 }
		}
		custom_cost_text = EPinfo_0_1

		remove_effect = {
			log = "[GetDateText]: [Root.GetName]: Decision remove EP_buy_GER_mbt_1"
			mbt_GER = yes
		}
	}

	EP_buy_KOR_mbt_1 = {
		allowed = { NOT = { tag = KOR } }
		visible = {
			has_country_flag = show_mbt
			has_country_flag = vhc_cat_open
			country_exists = KOR
			NOT = { has_war_with = KOR }
		}

		available = { NOT = { tag = KOR } }

		icon = south_korea

		days_remove = 210 ##MBT will take awhile to manufacture
		days_re_enable = 10

		custom_cost_trigger = {
			check_variable = { treasury > 0.1 }
		}
		custom_cost_text = EPinfo_0_1

		remove_effect = {
			log = "[GetDateText]: [Root.GetName]: Decision remove EP_buy_KOR_mbt_1"
			mbt_KOR = yes
		}
	}

	EP_APC_open = {

		icon = GFX_decision_generic_prepare_civil_war

		visible = {
			has_country_flag = vhc_cat_open
			hidden_trigger = {
				NOT = { has_country_flag = show_APC }
			}
		}

		complete_effect = {
			log = "[GetDateText]: [Root.GetName]: Decision EP_APC_open"
			set_country_flag = show_APC
		}
	}

	EP_APC_close = {

		icon = GFX_decision_generic_prepare_civil_war

		visible = {
			has_country_flag = show_APC
			has_country_flag = vhc_cat_open
		}

		complete_effect = {
			log = "[GetDateText]: [Root.GetName]: Decision EP_APC_close"
			clr_country_flag = show_APC
		}
	}

	EP_buy_GER_apc_1 = {
		allowed = { NOT = { tag = GER } }
		visible = {
			has_country_flag = show_APC
			has_country_flag = vhc_cat_open
			country_exists = GER
			NOT = { has_war_with = GER }
		}

		available = { NOT = { tag = GER } }

		icon = germany

		days_remove = 150 ##APC
		days_re_enable = 10

		custom_cost_trigger = {
			check_variable = { treasury > 0.1 }
		}
		custom_cost_text = EPinfo_0_1

		remove_effect = {
			log = "[GetDateText]: [Root.GetName]: Decision remove EP_buy_GER_apc_1"
			apc_GER = yes
		}
	}

	EP_buy_FRA_apc_1 = {
		allowed = { NOT = { tag = FRA } }
		visible = {
			has_country_flag = show_APC
			has_country_flag = vhc_cat_open
			country_exists = FRA
			NOT = { has_war_with = FRA }
		}

		available = { NOT = { tag = FRA } }

		icon = france

		days_remove = 150 ##APC
		days_re_enable = 10

		custom_cost_trigger = {
			check_variable = { treasury > 0.1 }
		}
		custom_cost_text = EPinfo_0_1

		remove_effect = {
			log = "[GetDateText]: [Root.GetName]: Decision remove EP_buy_FRA_apc_1"
			apc_FRA = yes
		}
	}

	EP_buy_SOV_apc_1 = {
		allowed = { NOT = { tag = SOV } }
		visible = {
			has_country_flag = show_APC
			has_country_flag = vhc_cat_open
			country_exists = SOV
			NOT = { has_war_with = SOV }
		}

		available = { NOT = { tag = SOV } }

		icon = russia

		days_remove = 150 ##APC
		days_re_enable = 10

		custom_cost_trigger = {
			check_variable = { treasury > 0.1 }
		}
		custom_cost_text = EPinfo_0_1

		remove_effect = {
			log = "[GetDateText]: [Root.GetName]: Decision remove EP_buy_SOV_apc_1"
			apc_SOV = yes
		}
	}

	EP_buy_CHI_apc_1 = {
		allowed = { NOT = { tag = CHI } }
		visible = {
			has_country_flag = show_APC
			has_country_flag = vhc_cat_open
			country_exists = CHI
			NOT = { has_war_with = CHI }
		}

		available = { NOT = { tag = CHI } }

		icon = china

		days_remove = 150 ##APC
		days_re_enable = 10

		custom_cost_trigger = {
			check_variable = { treasury > 0.1 }
		}
		custom_cost_text = EPinfo_0_1

		remove_effect = {
			log = "[GetDateText]: [Root.GetName]: Decision remove EP_buy_CHI_apc_1"
			apc_CHI = yes
		}
	}

	EP_buy_CAN_apc_1 = {
		allowed = { NOT = { tag = CAN } }
		visible = {
			has_country_flag = show_APC
			has_country_flag = vhc_cat_open
			country_exists = CAN
			NOT = { has_war_with = CAN }
		}

		available = { NOT = { tag = CAN } }

		icon = canada

		days_remove = 150 ##APC
		days_re_enable = 10

		custom_cost_trigger = {
			check_variable = { treasury > 0.1 }
		}
		custom_cost_text = EPinfo_0_1

		remove_effect = {
			log = "[GetDateText]: [Root.GetName]: Decision remove EP_buy_CAN_apc_1"
			apc_CAN = yes
		}
	}

	EP_buy_FIN_apc_1 = {
		allowed = { NOT = { tag = FIN } }
		visible = {
			has_country_flag = show_APC
			has_country_flag = vhc_cat_open
			country_exists = FIN
			NOT = { has_war_with = FIN }
		}

		available = { NOT = { tag = FIN } }

		icon = finland

		days_remove = 150 ##APC
		days_re_enable = 10

		custom_cost_trigger = {
			check_variable = { treasury > 0.1 }
		}
		custom_cost_text = EPinfo_0_1

		remove_effect = {
			log = "[GetDateText]: [Root.GetName]: Decision remove EP_buy_FIN_apc_1"
			apc_FIN = yes
		}
	}

	EP_buy_SAF_apc_1 = {
		allowed = { NOT = { tag = SAF } }
		visible = {
			has_country_flag = show_APC
			has_country_flag = vhc_cat_open
			country_exists = SAF
			NOT = { has_war_with = SAF }
		}

		available = { NOT = { tag = SAF } }

		icon = south_africa

		days_remove = 150 ##APC
		days_re_enable = 10

		custom_cost_trigger = {
			check_variable = { treasury > 0.1 }
		}
		custom_cost_text = EPinfo_0_1

		remove_effect = {
			log = "[GetDateText]: [Root.GetName]: Decision remove EP_buy_SAF_apc_1"
			apc_SAF = yes
		}
	}

	EP_buy_SIN_apc_1 = {
		allowed = { NOT = { tag = SIN } }
		visible = {
			has_country_flag = show_APC
			has_country_flag = vhc_cat_open
			country_exists = SIN
			NOT = { has_war_with = SIN }
		}

		available = { NOT = { tag = SIN } }

		icon = singapore

		days_remove = 150 ##APC
		days_re_enable = 10

		custom_cost_trigger = {
			check_variable = { treasury > 0.1 }
		}
		custom_cost_text = EPinfo_0_1

		remove_effect = {
			log = "[GetDateText]: [Root.GetName]: Decision remove EP_buy_SIN_apc_1"
			apc_SIN = yes
		}
	}

	EP_buy_SWI_apc_1 = {
		allowed = { NOT = { tag = SWI } }
		visible = {
			has_country_flag = show_APC
			has_country_flag = vhc_cat_open
			country_exists = SWI
			NOT = { has_war_with = SWI }
		}

		available = { NOT = { tag = SWI } }

		icon = switzerland

		days_remove = 150 ##APC
		days_re_enable = 10

		custom_cost_trigger = {
			check_variable = { treasury > 0.1 }
		}
		custom_cost_text = EPinfo_0_1

		remove_effect = {
			log = "[GetDateText]: [Root.GetName]: Decision remove EP_buy_SWI_APC_1"
			apc_SWI = yes
		}
	}
	EP_buy_TUR_apc_1 = {
		allowed = { NOT = { tag = TUR } }
		visible = {
			has_country_flag = show_APC
			has_country_flag = vhc_cat_open
			country_exists = TUR
			NOT = { has_war_with = TUR }
		}

		available = { NOT = { tag = TUR } }

		icon = turkey

		days_remove = 150 ##APC
		days_re_enable = 10

		custom_cost_trigger = {
			check_variable = { treasury > 0.1 }
		}
		custom_cost_text = EPinfo_0_1

		remove_effect = {
			log = "[GetDateText]: [Root.GetName]: Decision remove EP_buy_TUR_apc_1"
			apc_TUR = yes
		}
	}
	EP_buy_UKR_apc_1 = {
		allowed = { NOT = { tag = UKR } }
		visible = {
			has_country_flag = show_APC
			has_country_flag = vhc_cat_open
			country_exists = UKR
			NOT = { has_war_with = UKR }
		}

		available = { NOT = { tag = UKR } }

		icon = ukraine

		days_remove = 150 ##APC
		days_re_enable = 10

		custom_cost_trigger = {
			check_variable = { treasury > 0.1 }
		}
		custom_cost_text = EPinfo_0_1

		remove_effect = {
			log = "[GetDateText]: [Root.GetName]: Decision remove EP_buy_UKR_apc_1"
			apc_UKR = yes
		}
	}

	EP_IFV_open = {

		icon = GFX_decision_generic_prepare_civil_war

		visible = {
			has_country_flag = vhc_cat_open
			hidden_trigger = {
				NOT = { has_country_flag = show_IFV }
			}
		}

		complete_effect = {
			log = "[GetDateText]: [Root.GetName]: Decision EP_IFV_open"
			set_country_flag = show_IFV
		}
	}

	EP_IFV_close = {

		icon = GFX_decision_generic_prepare_civil_war

		visible = {
			has_country_flag = show_IFV
			has_country_flag = vhc_cat_open
		}

		complete_effect = {
			log = "[GetDateText]: [Root.GetName]: Decision EP_IFV_close"
			clr_country_flag = show_IFV
		}
	}

	EP_buy_CHI_ifv_1 = {
		allowed = { NOT = { tag = CHI } }
		visible = {
			has_country_flag = show_IFV
			has_country_flag = vhc_cat_open
			country_exists = CHI
			NOT = { has_war_with = CHI }
		}

		available = { NOT = { tag = CHI } }

		icon = china

		days_remove = 150 ##APC
		days_re_enable = 10

		custom_cost_trigger = {
			check_variable = { treasury > 0.1 }
		}
		custom_cost_text = EPinfo_0_1

		remove_effect = {
			log = "[GetDateText]: [Root.GetName]: Decision remove EP_buy_CHI_ifv_1"
			ifv_CHI = yes
		}
	}

	EP_buy_GER_ifv_1 = {
		allowed = { NOT = { tag = GER } }
		visible = {
			has_country_flag = show_IFV
			has_country_flag = vhc_cat_open
			country_exists = GER
			NOT = { has_war_with = GER }
		}

		available = { NOT = { tag = GER } }

		icon = germany

		days_remove = 150 ##APC
		days_re_enable = 10

		custom_cost_trigger = {
			check_variable = { treasury > 0.1 }
		}
		custom_cost_text = EPinfo_0_1

		remove_effect = {
			log = "[GetDateText]: [Root.GetName]: Decision remove EP_buy_GER_ifv_1"
			ifv_GER = yes
		}
	}

	EP_buy_FRA_ifv_1 = {
		allowed = { NOT = { tag = FRA } }
		visible = {
			has_country_flag = show_IFV
			has_country_flag = vhc_cat_open
			country_exists = FRA
			NOT = { has_war_with = FRA }
		}

		available = { NOT = { tag = FRA } }

		icon = france

		days_remove = 150 ##APC
		days_re_enable = 10

		custom_cost_trigger = {
			check_variable = { treasury > 0.1 }
		}
		custom_cost_text = EPinfo_0_1

		remove_effect = {
			log = "[GetDateText]: [Root.GetName]: Decision remove EP_buy_FRA_ifv_1"
			ifv_FRA = yes
		}
	}

	EP_buy_ITA_ifv_1 = {
		allowed = { NOT = { tag = ITA } }
		visible = {
			has_country_flag = show_IFV
			has_country_flag = vhc_cat_open
			country_exists = ITA
			NOT = { has_war_with = ITA }
		}

		available = { NOT = { tag = ITA } }

		icon = italy

		days_remove = 150 ##APC
		days_re_enable = 10

		custom_cost_trigger = {
			check_variable = { treasury > 0.1 }
		}
		custom_cost_text = EPinfo_0_1

		remove_effect = {
			log = "[GetDateText]: [Root.GetName]: Decision remove EP_buy_ITA_ifv_1"
			ifv_ITA = yes
		}
	}

	EP_buy_KOR_ifv_1 = {
		allowed = { NOT = { tag = KOR } }
		visible = {
			has_country_flag = show_IFV
			has_country_flag = vhc_cat_open
			country_exists = KOR
			NOT = { has_war_with = KOR }
		}

		available = { NOT = { tag = KOR } }

		icon = korea

		days_remove = 150 ##APC
		days_re_enable = 10

		custom_cost_trigger = {
			check_variable = { treasury > 0.1 }
		}
		custom_cost_text = EPinfo_0_1

		remove_effect = {
			log = "[GetDateText]: [Root.GetName]: Decision remove EP_buy_KOR_ifv_1"
			ifv_KOR = yes
		}
	}

	EP_rec_open = {

		icon = GFX_decision_generic_prepare_civil_war

		visible = {
			has_country_flag = vhc_cat_open
			hidden_trigger = {
				NOT = { has_country_flag = show_rec }
			}
		}

		complete_effect = {
			log = "[GetDateText]: [Root.GetName]: Decision EP_rec_open"
			set_country_flag = show_rec
		}
	}

	EP_rec_close = {

		icon = GFX_decision_generic_prepare_civil_war

		visible = {
			has_country_flag = show_rec
			has_country_flag = vhc_cat_open
		}

		complete_effect = {
			log = "[GetDateText]: [Root.GetName]: Decision EP_rec_close"
			clr_country_flag = show_rec
		}
	}

	EP_buy_ENG_rec_1 = {
		allowed = { NOT = { tag = ENG } }
		visible = {
			has_country_flag = show_rec
			has_country_flag = vhc_cat_open
			country_exists = ENG
			NOT = { has_war_with = ENG }
		}

		available = { NOT = { tag = ENG } }

		icon = uk

		days_remove = 180 ##REC
		days_re_enable = 10

		custom_cost_trigger = {
			check_variable = { treasury > 0.1 }
		}
		custom_cost_text = EPinfo_0_1

		remove_effect = {
			log = "[GetDateText]: [Root.GetName]: Decision remove EP_buy_ENG_rec_1"
			rec_ENG = yes
		}
	}

	EP_buy_CHI_rec_1 = {
		allowed = { NOT = { tag = CHI } }
		visible = {
			has_country_flag = show_rec
			has_country_flag = vhc_cat_open
			country_exists = CHI
			NOT = { has_war_with = CHI }
		}

		available = { NOT = { tag = CHI } }

		icon = china

		days_remove = 180 ##REC
		days_re_enable = 10

		custom_cost_trigger = {
			check_variable = { treasury > 0.1 }
		}
		custom_cost_text = EPinfo_0_1

		remove_effect = {
			log = "[GetDateText]: [Root.GetName]: Decision remove EP_buy_CHI_rec_1"
			rec_CHI = yes
		}
	}

	EP_utility_open = {

		icon = GFX_decision_generic_prepare_civil_war

		visible = {
			has_country_flag = vhc_cat_open
			hidden_trigger = {
				NOT = { has_country_flag = show_utility }
			}
		}

		complete_effect = {
			log = "[GetDateText]: [Root.GetName]: Decision EP_utility_open"
			set_country_flag = show_utility
		}
	}

	EP_utility_close = {

		icon = GFX_decision_generic_prepare_civil_war

		visible = {
			has_country_flag = show_utility
			has_country_flag = vhc_cat_open
		}

		complete_effect = {
			log = "[GetDateText]: [Root.GetName]: Decision EP_utility_close"
			clr_country_flag = show_utility
		}
	}

	EP_buy_USA_utility_1 = {
		allowed = { NOT = { tag = USA } }
		visible = {
			has_country_flag = show_utility
			has_country_flag = vhc_cat_open
			country_exists = USA
			NOT = { has_war_with = USA }
		}

		available = { NOT = { tag = USA } }

		icon = usa

		days_remove = 100
		days_re_enable = 10

		custom_cost_trigger = {
			check_variable = { treasury > 0.1 }
		}
		custom_cost_text = EPinfo_0_1

		remove_effect = {
			log = "[GetDateText]: [Root.GetName]: Decision remove EP_buy_USA_utility_1"
			utility_USA = yes
		}
	}

	EP_buy_SOV_utility_1 = {
		allowed = { NOT = { tag = SOV } }
		visible = {
			has_country_flag = show_utility
			has_country_flag = vhc_cat_open
			country_exists = SOV
			NOT = { has_war_with = SOV }
		}

		available = { NOT = { tag = SOV } }

		icon = russia

		days_remove = 100
		days_re_enable = 10

		custom_cost_trigger = {
			check_variable = { treasury > 0.1 }
		}
		custom_cost_text = EPinfo_0_1

		remove_effect = {
			log = "[GetDateText]: [Root.GetName]: Decision remove EP_buy_SOV_utility_1"
			utility_SOV = yes
		}
	}

	EP_buy_CHI_utility_1 = {
		allowed = { NOT = { tag = CHI } }
		visible = {
			has_country_flag = show_utility
			has_country_flag = vhc_cat_open
			country_exists = CHI
			NOT = { has_war_with = CHI }
		}

		available = { NOT = { tag = CHI } }

		icon = china

		days_remove = 100
		days_re_enable = 10

		custom_cost_trigger = {
			check_variable = { treasury > 0.1 }
		}
		custom_cost_text = EPinfo_0_1

		remove_effect = {
			log = "[GetDateText]: [Root.GetName]: Decision remove EP_buy_CHI_utility_1"
			utility_CHI = yes
		}
	}

	EP_buy_JAP_utility_1 = {
		allowed = { NOT = { tag = JAP } }
		visible = {
			has_country_flag = show_utility
			has_country_flag = vhc_cat_open
			country_exists = JAP
			NOT = { has_war_with = JAP }
		}

		available = { NOT = { tag = JAP } }

		icon = japan

		days_remove = 100
		days_re_enable = 10

		custom_cost_trigger = {
			check_variable = { treasury > 0.1 }
		}
		custom_cost_text = EPinfo_0_1

		remove_effect = {
			log = "[GetDateText]: [Root.GetName]: Decision remove EP_buy_JAP_utility_1"
			utility_JAP = yes
		}
	}
}