﻿capital = 336

oob = "SIG_2000"

set_convoys = 470
set_stability = 0.5

set_country_flag = country_language_chinese
set_country_flag = country_language_english

set_technology = {
	infantry_weapons = 1
	infantry_weapons1 = 1
	infantry_weapons2 = 1
	infantry_weapons3 = 1
	infantry_weapons4 = 1
	night_vision_1 = 1
	command_control_equipment = 1
	command_control_equipment1 = 1
	command_control_equipment2 = 1
	command_control_equipment3 = 1
	land_Drone_equipment = 1
	land_Drone_equipment1 = 1
	combat_eng_equipment = 1
	body_armor = 1
	body_armor2 = 1
	camouflage = 1
	
	Early_APC = 1
	MBT_1 = 1
	ENG_MBT_1
	MBT_2 = 1
	ENG_MBT_2 = 1
	MBT_3 = 1
	ENG_MBT_3 = 1
	Rec_tank_0 = 1
	APC_1 = 1
	Air_APC_1 = 1
	APC_2 = 1
	Air_APC_2 = 1
	IFV_1 = 1
	Air_IFV_1 = 1
	IFV_2 = 1
	Air_IFV_2 = 1
	util_vehicle_equipment_0 = 1
	util_vehicle_equipment_1 = 1
	
	gw_artillery = 1
	artillery_1 = 1
	Anti_tank_2 = 1
	Heavy_Anti_tank_2 = 1
	AT_upgrade_2 = 1
	Anti_Air_0 = 1
	SP_Anti_Air_0 = 1
	AA_upgrade_1 = 1
	
	corvette1 = 1
	corvette2 = 1
	frigate_1 = 1
	frigate_2 = 1
	missile_frigate_1 = 1
	missile_frigate_2 = 1
	missile_frigate_2 = 1
	destroyer_1 = 1
	destroyer_2 = 1
	missile_destroyer_1 = 1

	submarine_1 = 1
	attack_submarine_1 = 1
	attack_submarine_2 = 1
	attack_submarine_3 = 1
	
	early_bomber = 1
	cas1 = 1
	cas2 = 1
	early_fighter = 1
	MR_Fighter1 = 1
	MR_Fighter2 = 1
	MR_upgrade_1 = 1
	MR_Fighter3 = 1
	naval_plane1 = 1
	naval_plane2 = 1
	naval_plane3 = 1
	strategic_bomber1 = 1
	strategic_bomber2 = 1
	strategic_bomber3 = 1
	Air_UAV1 = 1
	
	
}

add_ideas = {
	population_growth_steady
	extensive_conscription
	commonwealth_of_nations_member
}

set_politics = {

	parties = {
		
		nationalist = {
			popularity = 5
		}
		conservative = {
			popularity = 57
		}
		social_liberal = {
			popularity = 5
		}
		social_democrat = {
			popularity = 29
		}
		democratic_socialist = {
			popularity = 2
		}
		communist = {
			popularity = 2
		}
	}
	
	ruling_party = conservative
	last_election = "1999.9.1"
	election_frequency = 60
	elections_allowed = yes
}

create_country_leader = {
	name = "Sellapan Ramanathan"
	picture = "Sellapan_Ramanathan.dds"
	ideology = constitutionalist
}

2016.1.1 = {
	create_country_leader = {
		name = "Tony Tan Keng Yam"
		picture = "Tony_Tan_Keng_Yam.dds"
		ideology = constitutionalist
	}
}