focus_tree = {
	
	id = switzerland_focus
	
	country = {
		factor = 0
		
		modifier = {
			add = 20
			original_tag = SWI
		}
	}
	
	continuous_focus_position = { x = 50 y = 1200 }
	
	focus = {
		id = SWI_strengthen_the_government
		icon = democracy5
		
		x = 9
		y = 0
		
		cost = 10
		
		prerequisite = { }
		
		mutually_exclusive = { }
		
		available = { }
		
		bypass = { }
		
		completion_reward = {
			log = "[GetDateText]: [Root.GetName]: Focus SWI_strengthen_the_government"
			add_political_power = 75
		}
		
		ai_will_do = {
			factor = 10
		}
	}
	
	#United Nations Tree
	
	focus = {
		id = SWI_join_the_united_nations
		icon = align_to_united_nations
		
		x = -3
		y = 1
		relative_position_id = SWI_strengthen_the_government
		
		cost = 10
		
		prerequisite = { 
			focus = SWI_strengthen_the_government
		}
		
		mutually_exclusive = {
			focus = SWI_the_mountain_fortress
		}
		
		available = { }
		
		bypass = { }
		
		completion_reward = {
			log = "[GetDateText]: [Root.GetName]: Focus SWI_join_the_united_nations"
			add_political_power = 75
			hidden_effect = {
				news_event = {
					id = switzerland_news.1
					hours = 2
				}
			}
		}
		
		ai_will_do = {
			factor = 10
		}
	}
	
	focus = {
		id = SWI_economic_independence
		icon = coins
		
		x = -3
		y = 1
		relative_position_id = SWI_join_the_united_nations
		
		cost = 10
		
		prerequisite = { 
			focus = SWI_join_the_united_nations
		}
		
		mutually_exclusive = {
			focus = SWI_seek_eu_membership
		}
		
		available = { }
		
		bypass = { }
		
		completion_reward = {
			log = "[GetDateText]: [Root.GetName]: Focus SWI_economic_independence"
			add_stability = 0.02
			add_political_power = 200
		}
		
		ai_will_do = {
			factor = 10
			
			modifier = {
				factor = 0
				is_historical_focus_on = yes
			}
		}
	}
	
	focus = {
		id = SWI_seek_eu_membership
		icon = align_to_europe
		
		x = -1
		y = 1
		relative_position_id = SWI_join_the_united_nations
		
		cost = 10
		
		prerequisite = { 
			focus = SWI_join_the_united_nations
		}
		
		mutually_exclusive = {
			focus = SWI_economic_independence
		}
		
		available = {
			is_puppet = no
			has_war = no
		}
		
		bypass = { }
		
		completion_reward = {
			log = "[GetDateText]: [Root.GetName]: Focus SWI_seek_eu_membership"
			add_ideas = EU_member
			if = {
				limit = { NOT = { has_country_flag = enthusiasthic_small_medium_business_owners } }
				set_country_flag = current_small_medium_business_owners
				increase_internal_faction_opinion = yes
				visually_display_opinion_rise_small_medium_business_owners = yes
			}	
		}
		
		ai_will_do = {
			factor = 10
			
			modifier = {
				factor = 0
				is_historical_focus_on = yes
			}
		}
	}
	
	focus = {
		id = SWI_strengthen_the_fdfa
		icon = treaty
		
		x = 1
		y = 1
		relative_position_id = SWI_join_the_united_nations
		
		cost = 10
		
		prerequisite = { 
			focus = SWI_join_the_united_nations
		}
		
		mutually_exclusive = { }
		
		available = { }
		
		bypass = { }
		
		completion_reward = {
			log = "[GetDateText]: [Root.GetName]: Focus SWI_strengthen_the_fdfa"
			add_ideas = political_power_bonus
		}
		
		ai_will_do = {
			factor = 10
		}
	}
	
	focus = {
		id = SWI_strengthen_the_fdha
		icon = self_management
		
		x = 3
		y = 1
		relative_position_id = SWI_join_the_united_nations
		
		cost = 10
		
		prerequisite = { 
			focus = SWI_join_the_united_nations
			focus = SWI_the_mountain_fortress
		}
		
		mutually_exclusive = { }
		
		available = { }
		
		bypass = { }
		
		completion_reward = {
			log = "[GetDateText]: [Root.GetName]: Focus SWI_strengthen_the_fdha"
			add_ideas = civilian_industry_project
		}
		
		ai_will_do = {
			factor = 10
		}
	}
	
	focus = {
		id = SWI_join_schengen
		icon = improve_relations_green
		
		x = -6
		y = 2
		relative_position_id = SWI_join_the_united_nations
		
		cost = 10
		
		prerequisite = { 
			focus = SWI_economic_independence
			focus = SWI_seek_eu_membership
		}
		
		mutually_exclusive = {
			focus = SWI_maintain_border_controls
		}
		
		available = {
			is_puppet = no
			has_war = no
		}
		
		bypass = { }
		
		completion_reward = {
			log = "[GetDateText]: [Root.GetName]: Focus SWI_join_schengen"
			every_country = {
				limit = {
					has_idea = EU_member
					NOT = { has_war_with = SWI }
				}
				diplomatic_relation = {
					country = ROOT
					relation = military_access
					active = yes
				}
				SWI = {
					diplomatic_relation = {
						country = PREV
						relation = military_access
						active = yes
					}
				}
			}
		}
		
		ai_will_do = {
			factor = 10
		}
	}
	
	focus = {
		id = SWI_maintain_border_controls
		icon = demand_territory3
		
		x = -4
		y = 2
		relative_position_id = SWI_join_the_united_nations
		
		cost = 10
		
		prerequisite = { 
			focus = SWI_economic_independence
			focus = SWI_seek_eu_membership
		}
		
		mutually_exclusive = {
			focus = SWI_join_schengen
		}
		
		available = { }
		
		bypass = { }
		
		completion_reward = {
			log = "[GetDateText]: [Root.GetName]: Focus SWI_maintain_border_controls"
			add_stability = 0.02
			add_political_power = 40
			add_war_support = 0.03
		}
		
		ai_will_do = {
			factor = 10
			
			modifier = {
				factor = 0
				is_historical_focus_on = yes
			}
		}
	}
	
	focus = {
		id = SWI_international_neutrality
		icon = neutrality
		
		x = -2
		y = 2
		relative_position_id = SWI_join_the_united_nations
		
		cost = 10
		
		prerequisite = { 
			focus = SWI_economic_independence
			focus = SWI_seek_eu_membership
		}
		
		mutually_exclusive = {
			focus = SWI_declare_the_end_of_swiss_neutrality
		}
		
		available = { }
		
		bypass = { }
		
		completion_reward = {
			log = "[GetDateText]: [Root.GetName]: Focus SWI_international_neutrality"
			add_political_power = 100
			hidden_effect = {
				news_event = {
					id = switzerland_news.3
					hours = 2
				}
			}
		}
		
		ai_will_do = {
			factor = 10
		}
	}
	
	focus = {
		id = SWI_declare_the_end_of_swiss_neutrality
		icon = renounce_treaty
		
		x = 0
		y = 2
		relative_position_id = SWI_join_the_united_nations
		
		cost = 10
		
		prerequisite = {
			focus = SWI_seek_eu_membership
		}
		prerequisite = {
			focus = SWI_strengthen_the_fdfa
		}
		
		mutually_exclusive = {
			focus = SWI_international_neutrality
		}
		
		available = { }
		
		bypass = { }
		
		completion_reward = {
			log = "[GetDateText]: [Root.GetName]: Focus SWI_declare_the_end_of_swiss_neutrality"
			remove_ideas = SWI_swiss_neutrality
			hidden_effect = {
				news_event = {
					id = switzerland_news.2
					hours = 2
				}
			}
		}
		
		ai_will_do = {
			factor = 10
			
			modifier = {
				factor = 0
				is_historical_focus_on = yes
			}
		}
	}
	
	focus = {
		id = SWI_reform_the_bureaucracy
		icon = demand_territory2
		
		x = 2
		y = 2
		relative_position_id = SWI_join_the_united_nations
		
		cost = 10
		
		prerequisite = {
			focus = SWI_strengthen_the_fdfa
		}
		prerequisite = {
			focus = SWI_strengthen_the_fdha
		}
		
		mutually_exclusive = { }
		
		available = { }
		
		bypass = { }
		
		completion_reward = {
			log = "[GetDateText]: [Root.GetName]: Focus SWI_reform_the_bureaucracy"
			add_stability = 0.02
		}
		
		ai_will_do = {
			factor = 10
		}
	}
	
	focus = {
		id = SWI_additional_military_facilities
		icon = industry_military
		
		x = -5
		y = 3
		relative_position_id = SWI_join_the_united_nations
		
		cost = 10
		
		prerequisite = {
			focus = SWI_join_schengen
			focus = SWI_maintain_border_controls
		}
		
		mutually_exclusive = { }
		
		available = { }
		
		bypass = { }
		
		completion_reward = {
			log = "[GetDateText]: [Root.GetName]: Focus SWI_additional_military_facilities"
			add_war_support = 0.05
			if = {
				limit = { has_full_control_of_state = 74 }
				74 = {
					add_building_construction = {
						type = arms_factory
						level = 1
						instant_build = yes
					}
				}
				hidden_effect = {
					add_to_variable = {
						treasury = -5
					}
				}	
			}
			if = {
				limit = { has_full_control_of_state = 75 }
				75 = {
					add_building_construction = {
						type = arms_factory
						level = 1
						instant_build = yes
					}
				}
				hidden_effect = {
					add_to_variable = {
						treasury = -5
					}
				}	
			}
			if = {
				limit = { has_full_control_of_state = 76 }
				76 = {
					add_building_construction = {
						type = arms_factory
						level = 1
						instant_build = yes
					}
				}
				hidden_effect = {
					add_to_variable = {
						treasury = -5
					}
				}	
			}
			if = {
				limit = { has_full_control_of_state = 77 }
				77 = {
					add_building_construction = {
						type = arms_factory
						level = 1
						instant_build = yes
					}
				}
				hidden_effect = {
					add_to_variable = {
						treasury = -5
					}
				}	
			}
			custom_effect_tooltip = SWI_additional_military_facilities_TT
		}
		
		ai_will_do = {
			factor = 10
		}
	}
	
	focus = {
		id = SWI_condemn_factionalism
		icon = anti_establishment2
		
		x = -3
		y = 3
		relative_position_id = SWI_join_the_united_nations
		
		cost = 10
		
		prerequisite = {
			focus = SWI_international_neutrality
		}
		
		mutually_exclusive = {
			focus = SWI_the_swiss_protection_league
		}
		
		available = { }
		
		bypass = { }
		
		completion_reward = {
			log = "[GetDateText]: [Root.GetName]: Focus SWI_condemn_factionalism"
			add_ideas = SWI_defensive_preparations
		}
		
		ai_will_do = {
			factor = 10
		}
	}
	
	focus = {
		id = SWI_the_swiss_protection_league
		icon = alliance
		
		x = -1
		y = 3
		relative_position_id = SWI_join_the_united_nations
		
		cost = 10
		
		prerequisite = {
			focus = SWI_international_neutrality
			focus = SWI_declare_the_end_of_swiss_neutrality
		}
		
		mutually_exclusive = {
			focus = SWI_condemn_factionalism
		}
		mutually_exclusive = {
			focus = SWI_seek_nato_membership
		}
		
		available = { }
		
		bypass = { }
		
		completion_reward = {
			log = "[GetDateText]: [Root.GetName]: Focus SWI_the_swiss_protection_league"
			hidden_effect = {
				news_event = {
					id = switzerland_news.4
					hours = 8
				}
			}
			create_faction = swiss_alliance
		}
		
		ai_will_do = {
			factor = 10
			
			modifier = {
				factor = 0
				is_historical_focus_on = yes
			}
		}
	}
	
	focus = {
		id = SWI_seek_nato_membership
		icon = align_to_nato
		
		x = 1
		y = 3
		relative_position_id = SWI_join_the_united_nations
		
		cost = 10
		
		prerequisite = {
			focus = SWI_declare_the_end_of_swiss_neutrality
		}
		
		mutually_exclusive = {
			focus = SWI_the_swiss_protection_league
		}
		
		available = {
			is_puppet = no
			OR = {
				has_government = democratic
				has_government = neutrality
			}
			USA = {
				has_government = democratic
				OR = {	
					has_idea = NATO_member
					is_faction_leader = yes
				}
			}	
		}
		
		bypass = { }
		
		completion_reward = {
			log = "[GetDateText]: [Root.GetName]: Focus SWI_seek_nato_membership"
			USA = {
				country_event = NATO.14
			}
		}
		
		ai_will_do = {
			factor = 10
			
			modifier = {
				factor = 0
				is_historical_focus_on = yes
			}
		}
	}
	
	focus = {
		id = SWI_economic_relations_in_the_alps
		icon = money
		
		x = 3
		y = 3
		relative_position_id = SWI_join_the_united_nations
		
		cost = 10
		
		prerequisite = {
			focus = SWI_reform_the_bureaucracy
		}
		
		mutually_exclusive = { }
		
		available = { }
		
		bypass = { }
		
		completion_reward = {
			log = "[GetDateText]: [Root.GetName]: Focus SWI_economic_relations_in_the_alps"
			if = {
				limit = { has_full_control_of_state = 74 }
				74 = { add_extra_state_shared_building_slots = 1 }
			}
			if = {
				limit = { has_full_control_of_state = 75 }
				75 = { add_extra_state_shared_building_slots = 1 }
			}
			if = {
				limit = { has_full_control_of_state = 76 }
				76 = { add_extra_state_shared_building_slots = 1 }
			}
			if = {
				limit = { has_full_control_of_state = 77 }
				77 = { add_extra_state_shared_building_slots = 1 }
			}
			#hidden_effect = {
			#	add_opinion_modifier = {
			#		target = AUS
			#		modifier = economic_mission
			#	}
			#}
			#AUS = {
			#	#increase_trade_influence_by_2 = yes
			#	add_opinion_modifier = {
			#		target = SWI
			#		modifier = economic_mission
			#	}
			#}
			AUS = {
				add_opinion_modifier = { target = ROOT modifier = SWI_alps_treaty }
				add_opinion_modifier = { target = ROOT modifier = SWI_alps_treaty_trade }
			}
			ITA = {
				add_opinion_modifier = { target = ROOT modifier = SWI_alps_treaty }
				add_opinion_modifier = { target = ROOT modifier = SWI_alps_treaty_trade }
			}
			FRA = {
				add_opinion_modifier = { target = ROOT modifier = SWI_alps_treaty }
				add_opinion_modifier = { target = ROOT modifier = SWI_alps_treaty_trade }
			}			
		}
		
		ai_will_do = {
			factor = 10
		}
	}
	
	focus = {
		id = SWI_german_trade_deals
		icon = align_to_germany
		
		x = 3
		y = 4
		relative_position_id = SWI_join_the_united_nations
		
		cost = 10
		
		prerequisite = {
			focus = SWI_economic_relations_in_the_alps
		}

		mutually_exclusive = { }
		
		available = { }
		
		bypass = { }
		
		completion_reward = {
			GER = {
				add_opinion_modifier = { target = ROOT modifier = SWI_german_treaty }
				add_opinion_modifier = { target = ROOT modifier = SWI_german_treaty_trade }
			}
		}
	}
	
	focus = {
		id = SWI_european_investment_opportunities
		icon = trade_with_europe
		
		x = -6
		y = 4
		relative_position_id = SWI_join_the_united_nations
		
		cost = 10
		
		prerequisite = {
			focus = SWI_join_schengen
		}
		
		mutually_exclusive = { }
		
		available = { }
		
		bypass = { }
		
		completion_reward = {
			log = "[GetDateText]: [Root.GetName]: Focus SWI_european_investment_opportunities"
			random_owned_state = {
				limit = {
					free_building_slots = {
						building = industrial_complex
						size > 0
						include_locked = yes
					}
				}
				add_extra_state_shared_building_slots = 1
				add_building_construction = {
					type = industrial_complex
					level = 1
					instant_build = yes
				}
			}		
			subtract_from_variable = { treasury = 5 } 
			custom_effect_tooltip = 5_billion_expense_tt
		}
		
		
		ai_will_do = {
			factor = 10
		}
	}
	
	focus = {
		id = SWI_invite_liechtenstein
		icon = major_alliance2
		
		x = -3
		y = 4
		relative_position_id = SWI_join_the_united_nations
		
		cost = 10
		
		prerequisite = {
			focus = SWI_the_swiss_protection_league
		}
		
		mutually_exclusive = { }
		
		available = {
			is_faction_leader = yes
		}
		
		bypass = { }
		
		completion_reward = {
			log = "[GetDateText]: [Root.GetName]: Focus SWI_invite_liechtenstein"
			add_political_power = 150
		}
		
		ai_will_do = {
			factor = 10
		}
	}
	
	focus = {
		id = SWI_invite_austria
		icon = alliance_AUS_SWI
		
		x = -1
		y = 4
		relative_position_id = SWI_join_the_united_nations
		
		cost = 10
		
		prerequisite = {
			focus = SWI_the_swiss_protection_league
		}
		
		mutually_exclusive = { }
		
		available = {
			is_faction_leader = yes
			AUS = {
				is_in_faction = no
				is_puppet = no
			}
		}
		
		bypass = { }
		
		completion_reward = {
			log = "[GetDateText]: [Root.GetName]: Focus SWI_invite_austria"
			AUS = {
				country_event = { id = switzerland.3 days = 1 }
			}
		}
		
		ai_will_do = {
			factor = 10
		}
	}
	
	focus = {
		id = SWI_nato_investments
		icon = industry_military
		
		x = 1
		y = 4
		relative_position_id = SWI_join_the_united_nations
		
		cost = 10
		
		prerequisite = {
			focus = SWI_seek_nato_membership
		}
		
		mutually_exclusive = { }
		
		available = {
			has_idea = NATO_member
		}
		
		bypass = { }
		
		completion_reward = {
			log = "[GetDateText]: [Root.GetName]: Focus SWI_nato_investments"
			random_owned_state = {
				limit = {
					free_building_slots = {
						building = arms_factory
						size > 0
						include_locked = yes
					}
				}
				add_extra_state_shared_building_slots = 1
				add_building_construction = {
					type = arms_factory
					level = 1
					instant_build = yes
				}
			}
		}
		
		ai_will_do = {
			factor = 10
		}
	}
	
	focus = {
		id = SWI_european_arms_exports
		icon = treaty4
		
		x = -6
		y = 5
		relative_position_id = SWI_join_the_united_nations
		
		cost = 10
		
		prerequisite = {
			focus = SWI_european_investment_opportunities
		}
		
		mutually_exclusive = { }
		
		available = { }
		
		bypass = { }
		
		completion_reward = {
			log = "[GetDateText]: [Root.GetName]: Focus SWI_european_arms_exports"
			add_ideas = arms_exports
		}
		
		ai_will_do = {
			factor = 10
		}
	}
	
	focus = {
		id = SWI_adopt_euro
		icon = euro
		
		x = -6
		y = 5
		relative_position_id = SWI_join_the_united_nations
		
		cost = 10
		
		prerequisite = {
			focus = SWI_european_arms_exports
		}

		mutually_exclusive = { }
		
		available = { 
			has_idea = EU_member
		}
		
		bypass = { }
		
		completion_reward = {
			log = "[GetDateText]: [Root.GetName]: Focus SWI_adopt_euro"
			add_ideas = the_euro
		}
	}

	focus = {
		id = SWI_peace_at_switzerland
		icon = treaty3
		
		x = -6
		y = 6
		relative_position_id = SWI_join_the_united_nations
		
		cost = 10
		
		prerequisite = {
			focus = SWI_adopt_euro
		}

		mutually_exclusive = { }
		
		available = { }
		
		bypass = { }
		
		completion_reward = {
			log = "[GetDateText]: [Root.GetName]: Focus SWI_peace_at_switzerland"
			every_country = {
				limit = {
					has_idea = EU_member
					NOT = { has_war_with = SWI }
				}
				diplomatic_relation = {
					country = ROOT
					relation = non_aggression_pact
					active = yes
				}
			}	
		}
	}	
	
	focus = {
		id = SWI_european_tank_license
		icon = europe_tank
		
		x = -4
		y = 5
		relative_position_id = SWI_join_the_united_nations
		
		cost = 10
		
		prerequisite = {
			focus = SWI_european_investment_opportunities
		}

		mutually_exclusive = { }
		
		available = { }
		
		bypass = { }
		
		completion_reward = {
			log = "[GetDateText]: [Root.GetName]: Focus SWI_european_tank_license"
			add_ideas = SWI_european_tanks
			FRA = {
				add_opinion_modifier = { target = ROOT modifier = SWI_european_tanks_opinion }	
			}
			ITA = {
				add_opinion_modifier = { target = ROOT modifier = SWI_european_tanks_opinion }	
			}
			GER = {
				add_opinion_modifier = { target = ROOT modifier = SWI_european_tanks_opinion }	
			}
			ENG = {
				add_opinion_modifier = { target = ROOT modifier = SWI_european_tanks_opinion }	
			}
			SPR = {
				add_opinion_modifier = { target = ROOT modifier = SWI_european_tanks_opinion }	
			}			
		}

		ai_will_do = {
			factor = 5
		}
	}	
	
	focus = {
		id = SWI_the_alpine_republic
		icon = align_to_switzerland
		
		x = -2
		y = 5
		relative_position_id = SWI_join_the_united_nations
		
		cost = 10
		
		prerequisite = {
			focus = SWI_invite_liechtenstein
		}
		prerequisite = {
			focus = SWI_invite_austria
		}
		
		mutually_exclusive = { }
		
		available = {
			is_puppet = no
			is_in_faction_with = AUS
			AUS = {
				OR = {
					is_puppet = no
					is_puppet_of = SWI
				}
			}
		}
		
		bypass = { }
		
		completion_reward = {
			log = "[GetDateText]: [Root.GetName]: Focus SWI_the_alpine_republic"
			news_event = {
				id = switzerland_news.5
				hours = 6
			}
			set_cosmetic_tag = Alpine_Republic
			AUS = { country_event = { id = switzerland.4 hours = 1 } }
		}
		
		ai_will_do = {
			factor = 10
		}
	}
	
	focus = {
		id = SWI_continue_swiss_militarization
		icon = infantry_axis
		
		x = 0
		y = 5
		relative_position_id = SWI_join_the_united_nations
		
		cost = 10
		
		prerequisite = {
			focus = SWI_nato_investments
		}
		
		mutually_exclusive = {
			focus = SWI_the_end_of_switzerland
		}
		
		available = { }
		
		bypass = { }
		
		completion_reward = {
			log = "[GetDateText]: [Root.GetName]: Focus SWI_continue_swiss_militarization"
			random_owned_state = {
				limit = {
					free_building_slots = {
						building = arms_factory
						size > 0
						include_locked = yes
					}
				}
				add_extra_state_shared_building_slots = 1
				add_building_construction = {
					type = arms_factory
					level = 1
					instant_build = yes
				}
			}
			hidden_effect = {
				add_to_variable = {
					treasury = -5
				}
			}
			custom_effect_tooltip = 5_billion_expense_tt
		}
		
		ai_will_do = {
			factor = 10
		}
	}
	
	focus = {
		id = SWI_the_end_of_switzerland
		icon = become_puppet
		
		x = 2
		y = 5
		relative_position_id = SWI_join_the_united_nations
		
		cost = 10
		
		prerequisite = {
			focus = SWI_nato_investments
		}
		
		mutually_exclusive = {
			focus = SWI_continue_swiss_militarization
		}
		
		available = {
			all_state = {
				OR = {
					is_core_of = SWI
					NOT = { is_owned_by = SWI }
				}
			}
			has_full_control_of_state = 72
			has_full_control_of_state = 74
			has_full_control_of_state = 73
			is_in_faction_with = GER
			is_in_faction_with = FRA
			is_in_faction_with = ITA
			OR = {
				is_puppet = no
				is_puppet_of = GER
				is_puppet_of = FRA
				is_puppet_of = ITA
			}
		}
		
		bypass = { }
		
		completion_reward = {
			log = "[GetDateText]: [Root.GetName]: Focus SWI_the_end_of_switzerland"
			custom_effect_tooltip = TT_game_over_warning
			country_event = {
				id = switzerland.6
				days = 1
			}
		}
		
		ai_will_do = {
			factor = 10
			
			modifier = {
				factor = 0
				is_historical_focus_on = yes
			}
		}
	}
	
	focus = {
		id = SWI_additional_defensive_efforts
		icon = defense
		
		x = -2
		y = 6
		relative_position_id = SWI_join_the_united_nations
		
		cost = 10
		
		prerequisite = {
			focus = SWI_the_alpine_republic
			focus = SWI_continue_swiss_militarization
		}
		
		mutually_exclusive = {
			focus = SWI_threaten_liechtenstein
		}
		
		available = {
			has_offensive_war = no
			#Switzerland
			has_full_control_of_state = 72
			has_full_control_of_state = 74
			has_full_control_of_state = 73
			#Austria
			has_full_control_of_state = 75
			has_full_control_of_state = 286
			has_full_control_of_state = 76
		}
		
		bypass = { }
		
		completion_reward = {
			log = "[GetDateText]: [Root.GetName]: Focus SWI_additional_defensive_efforts"
			add_ideas = defensive_preparations
			random_owned_state = {
				limit = {
					free_building_slots = {
						building = arms_factory
						size > 0
						include_locked = yes
					}
				}
				add_extra_state_shared_building_slots = 1
				add_building_construction = {
					type = arms_factory
					level = 1
					instant_build = yes
				}
			}
			hidden_effect = {
				add_to_variable = {
					treasury = -5
				}
			}
			custom_effect_tooltip = 5_billion_expense_tt
		}
		
		ai_will_do = {
			factor = 10
		}
	}
	
	focus = {
		id = SWI_threaten_liechtenstein
		icon = attack_liechtenstein
		
		x = 0
		y = 6
		relative_position_id = SWI_join_the_united_nations
		
		cost = 10
		
		prerequisite = {
			focus = SWI_continue_swiss_militarization
		}
		
		mutually_exclusive = {
			focus = SWI_additional_defensive_efforts
		}
		
		available = {
			is_puppet = no
			OR = {
				has_full_control_of_state = 73
				has_full_control_of_state = 74
				has_full_control_of_state = 286
			}
		}
		
		bypass = { }
		
		completion_reward = {
			log = "[GetDateText]: [Root.GetName]: Focus SWI_threaten_liechtenstein"
			add_named_threat = {
				threat = 5
				name = "Annexation of Liechtenstein"
			}
			if = {
				limit = { has_start_date < 2001.1.1 }
				74 = { add_manpower = 32426 }
			}
			if = {
				limit = { has_start_date > 2016.1.1 }
				74 = { add_manpower = 37810 }
			}
		}
		
		ai_will_do = {
			factor = 10
			
			modifier = {
				factor = 0
				is_historical_focus_on = yes
			}
		}
	}
	
	focus = {
		id = SWI_threaten_austria
		icon = attack_austria
		
		x = 0
		y = 7
		relative_position_id = SWI_join_the_united_nations
		
		cost = 10
		
		prerequisite = {
			focus = SWI_threaten_liechtenstein
		}
		
		mutually_exclusive = { }
		
		available = {
			is_puppet = no
			country_exists = AUS
			AUS = { is_puppet = no }
			NOT = { is_in_faction_with = AUS }
		}
		
		bypass = { }
		
		completion_reward = {
			log = "[GetDateText]: [Root.GetName]: Focus SWI_threaten_austria"
			AUS = { country_event = { id = switzerland.5 hours = 6 } }
		}
		
		ai_will_do = {
			factor = 10
		}
	}
	
	#Mountain Fortress Tree
	
	focus = {
		id = SWI_the_mountain_fortress
		icon = city_fort
		
		x = 3
		y = 1
		relative_position_id = SWI_strengthen_the_government
		
		cost = 10
		
		prerequisite = { 
			focus = SWI_strengthen_the_government
		}
		
		mutually_exclusive = {
			focus = SWI_join_the_united_nations
		}
		
		available = { }
		
		bypass = { }
		
		completion_reward = {
			log = "[GetDateText]: [Root.GetName]: Focus SWI_the_mountain_fortress"
			add_political_power = -75
			add_stability = 0.03
			add_ideas = SWI_defensive_preparations
		}
		
		ai_will_do = {
			factor = 10
			
			modifier = {
				factor = 0
				is_historical_focus_on = yes
			}
		}
	}
	
	focus = {
		id = SWI_guns_for_the_population
		icon = small_arms
		
		x = -1
		y = 1
		relative_position_id = SWI_the_mountain_fortress
		
		cost = 10
		
		prerequisite = { 
			focus = SWI_the_mountain_fortress
		}
		
		mutually_exclusive = { }
		
		available = { }
		
		bypass = { }
		
		completion_reward = {
			log = "[GetDateText]: [Root.GetName]: Focus SWI_guns_for_the_population"
			add_ideas = rifle_production_bonus
		}
		
		ai_will_do = {
			factor = 10
		}
	}
	
	focus = {
		id = SWI_zurich_industrial_project
		icon = industry_civilian
		
		x = 1
		y = 1
		relative_position_id = SWI_the_mountain_fortress
		
		cost = 10
		
		prerequisite = { 
			focus = SWI_the_mountain_fortress
		}
		
		mutually_exclusive = { }
		
		available = { }
		
		bypass = { }
		
		completion_reward = {
			log = "[GetDateText]: [Root.GetName]: Focus SWI_zurich_industrial_project"
			if = {
				limit = {
					74 = {
						free_building_slots = {
							building = industrial_complex
							size > 0
							include_locked = yes
						}
					}
				}
				74 = {
					add_extra_state_shared_building_slots = 1
					add_building_construction = {
						type = industrial_complex
						level = 1
						instant_build = yes
					}
				}
			}
			hidden_effect = {
				add_to_variable = {
					treasury = -5
				}
			}
			custom_effect_tooltip = 5_billion_expense_tt
		}
		
		ai_will_do = {
			factor = 10
		}
	}
	
	focus = {
		id = SWI_strengthen_the_secret_services
		icon = espionage
		
		x = -2
		y = 2
		relative_position_id = SWI_the_mountain_fortress
		
		cost = 10
		
		prerequisite = { 
			focus = SWI_the_mountain_fortress
		}
		prerequisite = { 
			focus = SWI_strengthen_the_fdha
		}
		
		mutually_exclusive = { }
		
		available = { }
		
		bypass = { }
		
		completion_reward = {
			log = "[GetDateText]: [Root.GetName]: Focus SWI_strengthen_the_secret_services"
			add_political_power = 150
		}
		
		ai_will_do = {
			factor = 10
		}
	}
	
	focus = {
		id = SWI_military_investments_1
		icon = industry_military
		
		x = 0
		y = 2
		relative_position_id = SWI_the_mountain_fortress
		
		cost = 10
		
		prerequisite = { 
			focus = SWI_guns_for_the_population
		}
		prerequisite = { 
			focus = SWI_zurich_industrial_project
		}
		
		mutually_exclusive = { }
		
		available = { }
		
		bypass = { }
		
		completion_reward = {
			log = "[GetDateText]: [Root.GetName]: Focus SWI_military_investments_1"
			random_owned_state = {
				limit = {
					free_building_slots = {
						building = arms_factory
						size > 0
						include_locked = yes
					}
				}
				add_extra_state_shared_building_slots = 1
				add_building_construction = {
					type = arms_factory
					level = 1
					instant_build = yes
				}
			}
			hidden_effect = {
				add_to_variable = {
					treasury = -5
				}
			}
			custom_effect_tooltip = 5_billion_expense_tt
		}
		
		ai_will_do = {
			factor = 10
		}
	}
	
	focus = {
		id = SWI_geneva_industrial_project
		icon = industry_civilian
		
		x = 2
		y = 2
		relative_position_id = SWI_the_mountain_fortress
		
		cost = 10
		
		prerequisite = { 
			focus = SWI_zurich_industrial_project
			focus = SWI_the_large_hadron_collider
		}
		
		mutually_exclusive = { }
		
		available = { }
		
		bypass = { }
		
		completion_reward = {
			log = "[GetDateText]: [Root.GetName]: Focus SWI_geneva_industrial_project"
			if = {
				limit = {
					72 = {
						free_building_slots = {
							building = industrial_complex
							size > 0
							include_locked = yes
						}
					}
				}
				72 = {
					add_extra_state_shared_building_slots = 1
					add_building_construction = {
						type = industrial_complex
						level = 1
						instant_build = yes
					}
				}
			}
			hidden_effect = {
				add_to_variable = {
					treasury = -5
				}
			}
			custom_effect_tooltip = 5_billion_expense_tt
		}
		
		ai_will_do = {
			factor = 10
		}
	}
	
	focus = {
		id = SWI_weaken_foreign_influence
		icon = dangerous_laws
		
		x = -1
		y = 3
		relative_position_id = SWI_the_mountain_fortress
		
		cost = 10
		
		prerequisite = { 
			focus = SWI_strengthen_the_secret_services
		}
		
		mutually_exclusive = { }
		
		available = { }
		
		bypass = { }
		
		completion_reward = {
			log = "[GetDateText]: [Root.GetName]: Focus SWI_weaken_foreign_influence"
			add_political_power = 150
			hidden_effect = {
				add_to_variable = { domestic_influence_amount = 20 }
				recalculate_influence = yes
			}
			custom_effect_tooltip = gain_20_domestic_influence_TT
		}
		
		ai_will_do = {
			factor = 10
		}
	}
	
	focus = {
		id = SWI_secure_the_swiss_borders
		icon = military_sphere
		
		x = 1
		y = 3
		relative_position_id = SWI_the_mountain_fortress
		
		cost = 10
		
		prerequisite = { 
			focus = SWI_military_investments_1
		}
		
		mutually_exclusive = { }
		
		available = { }
		
		bypass = { }
		
		completion_reward = {
			log = "[GetDateText]: [Root.GetName]: Focus SWI_secure_the_swiss_borders"
			swap_ideas = {
				remove_idea = SWI_defensive_preparations
				add_idea = SWI_defensive_preparations2
			}
		}
		
		ai_will_do = {
			factor = 10
		}
	}
	
	focus = {
		id = SWI_italian_forts
		icon = military_fort
		
		x = -1
		y = 4
		relative_position_id = SWI_the_mountain_fortress
		
		cost = 20
		
		prerequisite = { 
			focus = SWI_secure_the_swiss_borders
		}
		
		mutually_exclusive = { }
		
		available = { }
		
		bypass = { }
		
		completion_reward = {
			log = "[GetDateText]: [Root.GetName]: Focus SWI_italian_forts"
			72 = {
				add_building_construction = { type = bunker province = 3612 level = 2 instant_build = yes }
			}
			74 = {
				add_building_construction = { type = bunker province = 636 level = 4 instant_build = yes }
				add_building_construction = { type = bunker province = 9587 level = 4 instant_build = yes }
				add_building_construction = { type = bunker province = 3660 level = 4 instant_build = yes }
			}
			73 = {
				add_building_construction = { type = bunker province = 3641 level = 4 instant_build = yes }
				add_building_construction = { type = bunker province = 9600 level = 4 instant_build = yes }
				add_building_construction = { type = bunker province = 658 level = 4 instant_build = yes }
				add_building_construction = { type = bunker province = 3662 level = 4 instant_build = yes }
			}
			hidden_effect = {
				add_to_variable = {
					treasury = -5.6
				}
			}	
			custom_effect_tooltip = SWI_italian_forts_TT	
		}
		
		ai_will_do = {
			factor = 10
		}
	}
	
	focus = {
		id = SWI_german_forts
		icon = military_fort
		
		x = 1
		y = 4
		relative_position_id = SWI_the_mountain_fortress
		
		cost = 20
		
		prerequisite = { 
			focus = SWI_secure_the_swiss_borders
		}
		
		mutually_exclusive = { }
		
		available = { }
		
		bypass = { }
		
		completion_reward = {
			log = "[GetDateText]: [Root.GetName]: Focus SWI_german_forts"
			74 = {
				add_building_construction = { type = bunker province = 9638 level = 2 instant_build = yes }
				add_building_construction = { type = bunker province = 663 level = 4 instant_build = yes }
				add_building_construction = { type = bunker province = 11623 level = 4 instant_build = yes }
				add_building_construction = { type = bunker province = 661 level = 1 instant_build = yes }
			}
			hidden_effect = {
				add_to_variable = {
					treasury = -2.2
				}
			}
			custom_effect_tooltip = SWI_german_forts_TT
		}
		
		ai_will_do = {
			factor = 10
		}
	}
	
	focus = {
		id = SWI_french_forts
		icon = military_fort
		
		x = 3
		y = 4
		relative_position_id = SWI_the_mountain_fortress
		
		cost = 20
		
		prerequisite = { 
			focus = SWI_secure_the_swiss_borders
		}
		
		mutually_exclusive = { }
		
		available = { }
		
		bypass = { }
		
		completion_reward = {
			log = "[GetDateText]: [Root.GetName]: Focus SWI_french_forts"
			72 = {
				add_building_construction = { type = bunker province = 3612 level = 2 instant_build = yes }
				add_building_construction = { type = bunker province = 6666 level = 4 instant_build = yes }
				add_building_construction = { type = bunker province = 9622 level = 4 instant_build = yes }
				add_building_construction = { type = bunker province = 6683 level = 4 instant_build = yes }
			}
			74 = {
				add_building_construction = { type = bunker province = 9638 level = 2 instant_build = yes }
			}
			hidden_effect = {
				add_to_variable = {
					treasury = -3.2
				}
			}
			custom_effect_tooltip = SWI_french_forts_TT
		}
		
		ai_will_do = {
			factor = 10
		}
	}
	
	focus = {
		id = SWI_military_investments_2
		icon = industry_military
		
		x = 1
		y = 5
		relative_position_id = SWI_the_mountain_fortress
		
		cost = 15
		
		prerequisite = { 
			focus = SWI_italian_forts
		}
		prerequisite = { 
			focus = SWI_german_forts
		}
		prerequisite = { 
			focus = SWI_french_forts
		}
		
		mutually_exclusive = { }
		
		available = { }
		
		bypass = { }
		
		completion_reward = {
			log = "[GetDateText]: [Root.GetName]: Focus SWI_military_investments_2"
			random_owned_state = {
				limit = {
					free_building_slots = {
						building = arms_factory
						size > 0
						include_locked = yes
					}
				}
				add_extra_state_shared_building_slots = 1
				add_building_construction = {
					type = arms_factory
					level = 1
					instant_build = yes
				}
			}
			hidden_effect = {
				add_to_variable = {
					treasury = -5
				}
			}
			custom_effect_tooltip = 5_billion_expense_tt
		}
		
		ai_will_do = {
			factor = 10
		}
	}
	
	focus = {
		id = SWI_military_investments_3
		icon = industry_military
		
		x = 1
		y = 6
		relative_position_id = SWI_the_mountain_fortress
		
		cost = 20
		
		prerequisite = { 
			focus = SWI_military_investments_2
		}
		
		mutually_exclusive = { }
		
		available = { }
		
		bypass = { }
		
		completion_reward = {
			log = "[GetDateText]: [Root.GetName]: Focus SWI_military_investments_3"
			random_owned_state = {
				limit = {
					free_building_slots = {
						building = arms_factory
						size > 0
						include_locked = yes
					}
				}
				add_extra_state_shared_building_slots = 1
				add_building_construction = {
					type = arms_factory
					level = 1
					instant_build = yes
				}
			}
			random_owned_state = {
				limit = {
					free_building_slots = {
						building = arms_factory
						size > 0
						include_locked = yes
					}
				}
				add_extra_state_shared_building_slots = 1
				add_building_construction = {
					type = arms_factory
					level = 1
					instant_build = yes
				}
			}
			hidden_effect = {
				add_to_variable = {
					treasury = -10
				}
			}
			custom_effect_tooltip = 10_billion_expense_tt
		}
		
		ai_will_do = {
			factor = 10
		}
	}
	
	#CERN Project Tree
	
	focus = {
		id = SWI_the_cern_project
		icon = research
		
		x = 7
		y = 0
		relative_position_id = SWI_strengthen_the_government
		
		cost = 30
		
		prerequisite = { }
		
		mutually_exclusive = { }
		
		available = { }
		
		bypass = { }
		
		completion_reward = {
			log = "[GetDateText]: [Root.GetName]: Focus SWI_the_cern_project"
			add_research_slot = 1
			add_ideas = scientific_advances
		}
		
		ai_will_do = {
			factor = 10
		}
	}
	
	focus = {
		id = SWI_construct_power_plants
		icon = powerplant
		
		x = 0
		y = 1
		relative_position_id = SWI_the_cern_project
		
		cost = 10
		
		prerequisite = { 
			focus = SWI_the_cern_project
		}
		
		mutually_exclusive = { }
		
		available = { }
		
		bypass = { }
		
		completion_reward = {
			log = "[GetDateText]: [Root.GetName]: Focus SWI_construct_power_plants"
			72 = {
				add_extra_state_shared_building_slots = 1
				add_building_construction = {
					type = industrial_complex
					level = 1
					instant_build = yes
				}
			}
			74 = {
				add_extra_state_shared_building_slots = 1
				add_building_construction = {
					type = industrial_complex
					level = 1
					instant_build = yes
				}
			}
			73 = {
				add_extra_state_shared_building_slots = 1
				add_building_construction = {
					type = industrial_complex
					level = 1
					instant_build = yes
				}
			}
			hidden_effect = {
				add_to_variable = {
					treasury = -10
				}
			}
			custom_effect_tooltip = 10_billion_expense_tt
		}
		
		ai_will_do = {
			factor = 10
		}
	}
	
	focus = {
		id = SWI_the_large_hadron_collider
		icon = tech_sharing
		
		x = -1
		y = 2
		relative_position_id = SWI_the_cern_project
		
		cost = 25
		
		prerequisite = { 
			focus = SWI_the_cern_project
		}
		
		mutually_exclusive = { }
		
		available = { }
		
		bypass = { }
		
		completion_reward = {
			log = "[GetDateText]: [Root.GetName]: Focus SWI_the_large_hadron_collider"
			swap_ideas = {
				remove_idea = scientific_advances
				add_idea = scientific_advances2
			}
		}
		
		ai_will_do = {
			factor = 10
		}
	}
	
	focus = {
		id = SWI_establish_a_nuclear_arsenal
		icon = nuclear_bomb
		
		x = 0
		y = 3
		relative_position_id = SWI_the_cern_project
		
		cost = 10
		
		prerequisite = { 
			focus = SWI_the_large_hadron_collider
		}
		prerequisite = { 
			focus = SWI_construct_power_plants
		}
		
		mutually_exclusive = { }
		
		available = {
			OR = {
				has_war = yes
				threat > 0.6
			}
		}
		
		bypass = { }
		
		completion_reward = {
			log = "[GetDateText]: [Root.GetName]: Focus SWI_establish_a_nuclear_arsenal"
			add_tech_bonus = {
				name = nuke_bonus
				bonus = 0.5
				category = nuclear
			}
		}
		
		ai_will_do = {
			factor = 10
		}
	}
	
	#Military Expansion Tree
	
	focus = {
		id = SWI_military_expansion
		icon = infantry_axis2
		
		x = 10
		y = 0
		relative_position_id = SWI_strengthen_the_government
		
		cost = 10
		
		prerequisite = { }
		
		mutually_exclusive = { }
		
		available = { }
		
		bypass = { }
		
		completion_reward = {
			log = "[GetDateText]: [Root.GetName]: Focus SWI_military_expansion"
			army_experience = 10
		}
		
		ai_will_do = {
			factor = 10
		}
	}
	
	focus = {
		id = SWI_the_swiss_army
		icon = infantry_axis
		
		x = -1
		y = 1
		relative_position_id = SWI_military_expansion
		
		cost = 10
		
		prerequisite = { 
			focus = SWI_military_expansion
		}
		
		mutually_exclusive = { }
		
		available = { }
		
		bypass = { }
		
		completion_reward = {
			log = "[GetDateText]: [Root.GetName]: Focus SWI_the_swiss_army"
			army_experience = 10
		}
		
		ai_will_do = {
			factor = 10
		}
	}
	
	focus = {
		id = SWI_the_swiss_air_force
		icon = air_force
		
		x = 1
		y = 1
		relative_position_id = SWI_military_expansion
		
		cost = 10
		
		prerequisite = { 
			focus = SWI_military_expansion
		}
		
		mutually_exclusive = { }
		
		available = { }
		
		bypass = { }
		
		completion_reward = {
			log = "[GetDateText]: [Root.GetName]: Focus SWI_the_swiss_air_force"
			air_experience = 10
		}
		
		ai_will_do = {
			factor = 10
		}
	}
	
	focus = {
		id = SWI_infantry_equipment
		icon = small_arms2
		
		x = -2
		y = 2
		relative_position_id = SWI_military_expansion
		
		cost = 10
		
		prerequisite = { 
			focus = SWI_the_swiss_army
		}
		
		mutually_exclusive = { }
		
		available = { }
		
		bypass = { }
		
		completion_reward = {
			log = "[GetDateText]: [Root.GetName]: Focus SWI_infantry_equipment"
			add_tech_bonus = {
				name = special_forces_bonus
				bonus = 0.25
				category = Cat_INF_WEP
			}
		}
		
		ai_will_do = {
			factor = 10
		}
	}
	
	focus = {
		id = SWI_armored_equipment
		icon = tanks
		
		x = 0
		y = 2
		relative_position_id = SWI_military_expansion
		
		cost = 10
		
		prerequisite = { 
			focus = SWI_the_swiss_army
		}
		
		mutually_exclusive = { }
		
		available = { }
		
		bypass = { }
		
		completion_reward = {
			log = "[GetDateText]: [Root.GetName]: Focus SWI_armored_equipment"
			add_tech_bonus = {
				name = special_forces_bonus
				bonus = 0.25
				category = Cat_ARMOR
			}
		}
		
		ai_will_do = {
			factor = 10
		}
	}
	
	focus = {
		id = SWI_fighter_equipment
		icon = modern_fighter
		
		x = 2
		y = 2
		relative_position_id = SWI_military_expansion
		
		cost = 10
		
		prerequisite = { 
			focus = SWI_the_swiss_air_force
		}
		
		mutually_exclusive = { }
		
		available = { }
		
		bypass = { }
		
		completion_reward = {
			log = "[GetDateText]: [Root.GetName]: Focus SWI_fighter_equipment"
			add_tech_bonus = {
				name = fighter_bonus
				bonus = 0.25
				category = CAT_FIXED_WING
			}
		}
		
		ai_will_do = {
			factor = 10
		}
	}
	
	focus = {
		id = SWI_land_doctrine
		icon = army_doctrine
		
		x = -1
		y = 3
		relative_position_id = SWI_military_expansion
		
		cost = 10
		
		prerequisite = { 
			focus = SWI_the_swiss_army
		}
		
		mutually_exclusive = { }
		
		available = { }
		
		bypass = { }
		
		completion_reward = {
			log = "[GetDateText]: [Root.GetName]: Focus SWI_land_doctrine"
			add_tech_bonus = {
				name = land_doc_bonus
				bonus = 0.4
				uses = 3
				category = land_doctrine
			}
		}
		
		ai_will_do = {
			factor = 10
		}
	}
	
	focus = {
		id = SWI_air_doctrine
		icon = air_doctrine
		
		x = 1
		y = 3
		relative_position_id = SWI_military_expansion
		
		cost = 10
		
		prerequisite = { 
			focus = SWI_the_swiss_air_force
		}
		
		mutually_exclusive = { }
		
		available = { }
		
		bypass = { }
		
		completion_reward = {
			log = "[GetDateText]: [Root.GetName]: Focus SWI_air_doctrine"
			add_tech_bonus = {
				name = air_doc_bonus
				bonus = 0.35
				uses = 2
				category = air_doctrine
			}
		}
		
		ai_will_do = {
			factor = 10
		}
	}
	
	focus = {
		id = SWI_northern_air_bases
		icon = air_production
		
		x = 3
		y = 3
		relative_position_id = SWI_military_expansion
		
		cost = 10
		
		prerequisite = { 
			focus = SWI_fighter_equipment
		}
		
		mutually_exclusive = { }
		
		available = {
			has_full_control_of_state = 74
		}
		
		bypass = { }
		
		completion_reward = {
			log = "[GetDateText]: [Root.GetName]: Focus SWI_northern_air_bases"
			74 = {
				add_building_construction = {
					type = air_base
					level = 3
					instant_build = yes
				}
			}
		}
		
		ai_will_do = {
			factor = 10
		}
	}
	
	focus = {
		id = SWI_artillery_production
		icon = artillery2
		
		x = -2
		y = 4
		relative_position_id = SWI_military_expansion
		
		cost = 10
		
		prerequisite = { 
			focus = SWI_infantry_equipment
		}
		
		mutually_exclusive = { }
		
		available = { }
		
		bypass = { }
		
		completion_reward = {
			log = "[GetDateText]: [Root.GetName]: Focus SWI_artillery_production"
			add_tech_bonus = {
				name = special_forces_bonus
				bonus = 0.25
				category = Cat_ARTY
			}
		}
		
		ai_will_do = {
			factor = 10
		}
	}
	
	focus = {
		id = SWI_the_glorious_navy_of_switzerland
		icon = navy2
		
		x = 0
		y = 4
		relative_position_id = SWI_military_expansion
		
		cost = 10
		
		prerequisite = { 
			focus = SWI_land_doctrine
		}
		prerequisite = { 
			focus = SWI_air_doctrine
		}
		
		mutually_exclusive = { }
		
		available = {
			any_owned_state = {
				is_coastal = yes
			}
		}
		
		bypass = { }
		
		completion_reward = {
			log = "[GetDateText]: [Root.GetName]: Focus SWI_the_glorious_navy_of_switzerland"
			navy_experience = 135
		}
		
		ai_will_do = {
			factor = 10
		}
	}
	
	focus = {
		id = SWI_bomber_equipment
		icon = modern_bomber
		
		x = 2
		y = 4
		relative_position_id = SWI_military_expansion
		
		cost = 10
		
		prerequisite = { 
			focus = SWI_fighter_equipment
		}
		
		mutually_exclusive = { }
		
		available = { }
		
		bypass = { }
		
		completion_reward = {
			log = "[GetDateText]: [Root.GetName]: Focus SWI_bomber_equipment"
			add_tech_bonus = {
				name = fighter_bonus
				bonus = 0.3
				category = Cat_STR_BOMBER
			}
		}
		
		ai_will_do = {
			factor = 10
		}
	}
	
	focus = {
		id = SWI_naval_doctrine
		icon = naval_doctrine
		
		x = -1
		y = 5
		relative_position_id = SWI_military_expansion
		
		cost = 10
		
		prerequisite = { 
			focus = SWI_the_glorious_navy_of_switzerland
		}
		
		mutually_exclusive = { }
		
		available = { }
		
		bypass = { }
		
		completion_reward = {
			log = "[GetDateText]: [Root.GetName]: Focus SWI_naval_doctrine"
			add_tech_bonus = {
				name = naval_doc_bonus
				bonus = 0.6
				uses = 6
				category = Cat_naval_doctrine
			}
		}
		
		ai_will_do = {
			factor = 10
		}
	}
	
	focus = {
		id = SWI_swiss_aircraft_carriers
		icon = carriers
		
		x = 1
		y = 5
		relative_position_id = SWI_military_expansion
		
		cost = 10
		
		prerequisite = { 
			focus = SWI_the_glorious_navy_of_switzerland
		}
		
		mutually_exclusive = { }
		
		available = { }
		
		bypass = { }
		
		completion_reward = {
			log = "[GetDateText]: [Root.GetName]: Focus SWI_swiss_aircraft_carriers"
			add_tech_bonus = {
				name = carrier_bonus
				bonus = 0.5
				uses = 2
				category = Cat_CARRIER
			}
		}
		
		ai_will_do = {
			factor = 10
		}
	}
	
	focus = {
		id = SWI_western_air_bases
		icon = air_production
		
		x = 3
		y = 5
		relative_position_id = SWI_military_expansion
		
		cost = 10
		
		prerequisite = { 
			focus = SWI_northern_air_bases
		}
		
		mutually_exclusive = { }
		
		available = {
			has_full_control_of_state = 72
		}
		
		bypass = { }
		
		completion_reward = {
			log = "[GetDateText]: [Root.GetName]: Focus SWI_western_air_bases"
			72 = {
				add_building_construction = {
					type = air_base
					level = 3
					instant_build = yes
				}
			}
		}
		
		ai_will_do = {
			factor = 10
		}
	}
	
	focus = {
		id = SWI_southern_air_bases
		icon = air_production
		
		x = 3
		y = 6
		relative_position_id = SWI_military_expansion
		
		cost = 10
		
		prerequisite = { 
			focus = SWI_western_air_bases
		}
		
		mutually_exclusive = { }
		
		available = {
			has_full_control_of_state = 73
		}
		
		bypass = { }
		
		completion_reward = {
			log = "[GetDateText]: [Root.GetName]: Focus SWI_southern_air_bases"
			73 = {
				add_building_construction = {
					type = air_base
					level = 3
					instant_build = yes
				}
			}
		}
		
		ai_will_do = {
			factor = 10
		}
	}


##############################
###	Start of EU Focus Tree ###	x = 15 y = 12
##############################

shared_focus = EU001
	
############################	
### End of EU Focus Tree ###	
############################
	
}