ideas = {
	country = {


		#Delete this when mtg is done
		mtg_instacon = {

			modifier = {
				industrial_capacity_dockyard = 500
			}
		}

		#African Union
		AU_member = {
			on_add = { log = "[GetDateText]: [Root.GetName]: add idea AU_member" }
			picture = AU_member
			allowed = {
				is_african_nation = yes
			}
			allowed_civil_war = {
				no_jihadist_government = yes
			}
			cancel = {
				jihadist_government = yes
			}


			modifier = {
				political_power_gain = 0.15
				stability_factor = 0.05
			}
		}

		#European Union
		EU_member = {
			on_add = {
				log = "[GetDateText]: [Root.GetName]: add idea EU_member"
				add_to_array = { global.EU_member = THIS }
			}
			on_remove = {
				log = "[GetDateText]: [Root.GetName]: remove idea EU_member"
				remove_from_array = { global.EU_member = THIS }
			}

			allowed = {
				OR = {
					original_tag = POR
					original_tag = SPR
					original_tag = IRE
					original_tag = ENG
					original_tag = FRA
					original_tag = BEL
					original_tag = ICE
					original_tag = HOL
					original_tag = GER
					original_tag = SWI
					original_tag = AUS
					original_tag = DEN
					original_tag = ITA
					original_tag = NOR
					original_tag = MLT
					#original_tag = CZE
					original_tag = POL
					original_tag = SWE
					original_tag = SLV
					original_tag = SLO
					original_tag = HUN
					original_tag = CRO
					original_tag = BOS
					#original_tag = YUG
					original_tag = SER
					#original_tag = MTN
					original_tag = ALB
					#original_tag = MCD
					original_tag = GRE
					original_tag = BUL
					original_tag = TUR
					original_tag = FIN
					original_tag = EST
					original_tag = LAT
					original_tag = LIT
					original_tag = BLR
					original_tag = UKR
					#original_tag = MOL
					original_tag = ROM
					original_tag = CYP

				}
			}



			modifier = {
				political_power_factor = -0.2
				war_support_factor = -0.05
				trade_opinion_factor = 0.1
				stability_factor = 0.03
				consumer_goods_factor = -0.03
			}
		}

		un_member = {
			on_add = { log = "[GetDateText]: [Root.GetName]: add idea un_member" }



			modifier = {
				political_power_gain = 0.25
			}
		}

		the_euro = {
			on_add = { log = "[GetDateText]: [Root.GetName]: add idea the_euro" }
			picture = the_euro

			allowed = { always = no }


			modifier = {
				economic_cycles_cost_factor = 0.5
				trade_opinion_factor = 0.2
				consumer_goods_factor = -0.01
			}
		}

		#Shanghai Cooperation Organization
		sco_member = {
			on_add = { log = "[GetDateText]: [Root.GetName]: add idea sco_member" }

			modifier = {
				political_power_gain = 0.2
				trade_opinion_factor = 0.2
			}
		}

		sco_observer = {
			on_add = { log = "[GetDateText]: [Root.GetName]: add idea sco_observer" }

			picture = sco_member

			modifier = {
				political_power_gain = 0.1
				trade_opinion_factor = 0.1
			}
		}

		sco_member_econ = {
			on_add = { log = "[GetDateText]: [Root.GetName]: add idea sco_member_econ" }

			picture = sco_member

			name = sco_member

			modifier = {
				political_power_gain = 0.2
				trade_opinion_factor = 0.2
				production_speed_buildings_factor = 0.1
				research_speed_factor = 0.1
				generate_wargoal_tension = 0.05
			}
		}

		sco_member_pol = {
			on_add = { log = "[GetDateText]: [Root.GetName]: add idea sco_member_pol" }

			picture = sco_member

			name = sco_member

			modifier = {
				political_power_gain = 0.2
				trade_opinion_factor = 0.2
				political_power_factor = 0.1
				corruption_cost_factor = -0.1
				foreign_subversive_activites = -0.1
				communism_drift = 0.02
			}
		}

		sco_member_mil = {
			on_add = { log = "[GetDateText]: [Root.GetName]: add idea sco_mil" }

			picture = sco_member

			name = sco_member

			modifier = {
				political_power_gain = 0.2
				trade_opinion_factor = 0.2
				experience_gain_army = 0.05
				max_planning = 0.1
				command_power_gain = 0.1
				max_command_power = 10
				stability_factor = -0.02
			}
		}

		#North Atlanic Treaty Organization
		NATO_member = {
			on_add = { log = "[GetDateText]: [Root.GetName]: add idea NATO_member" }

			picture = NATO_member

			allowed = {
				OR = {
					if = {
						limit = { USA = { has_idea = NATO_member } }
						NOT = { has_war_with = USA }
					}
					if = {
						limit = { GER = { has_idea = NATO_member } }
						NOT = { has_war_with = GER }
					}
					if = {
						limit = { ENG = { has_idea = NATO_member } }
						NOT = { has_war_with = ENG }
					}
					if = {
						limit = { FRA = { has_idea = NATO_member } }
						NOT = { has_war_with = FRA }
					}
					if = {
						limit = { ITA = { has_idea = NATO_member } }
						NOT = { has_war_with = ITA }
					}
					if = {
						limit = { SPR = { has_idea = NATO_member } }
						NOT = { has_war_with = SPR }
					}
					if = {
						limit = { POL = { has_idea = NATO_member } }
						NOT = { has_war_with = POL }
					}
				}
			}

			allowed_civil_war = {
				has_government = democratic
			}

			rule = {
				can_create_factions = no
			}

			modifier = {
				ai_get_ally_desire_factor = -1000 #We are in NATO, and don't want other allies
				join_faction_tension = 1.00
			}
		}

		#The permanent members of the United Nations Security Council
		p5_member = {
			on_add = { log = "[GetDateText]: [Root.GetName]: add idea p5_member" }

			allowed = {
				OR = {
					tag = USA
					tag = ENG
					tag = SOV
					tag = CHI
					tag = FRA
					has_country_flag = reformed_council
				}
			}

			modifier = {
				political_power_gain = 0.5
			}
		}

		#Group of Seven
		g7_member = {
			on_add = { log = "[GetDateText]: [Root.GetName]: add idea g7_member" }

			allowed = {
				OR = {
					original_tag = USA
					original_tag = CAN
					original_tag = ENG
					original_tag = FRA
					original_tag = ITA
					original_tag = GER
					original_tag = JAP
				}
			}



			modifier = {
				political_power_gain = 0.1
				#stability_factor = -0.05
			}
		}

		#Commonwealth
		commonwealth_of_nations_member = {
			on_add = { log = "[GetDateText]: [Root.GetName]: add idea commonwealth_of_nations_member" }
			picture = commonwealth_member
			allowed = {
				always = no
			}
			modifier = {
				political_power_gain = 0.05
				justify_war_goal_time = 0.15
			}
		}

		#GUAM Organization
		idea_GUAM_member_state = {
			on_add = { log = "[GetDateText]: [Root.GetName]: add idea idea_GUAM_member_state" }
			picture = GUAM
			allowed = { always = no }
			modifier = {
				political_power_factor = 0.15
				trade_opinion_factor = 0.10
			}
		}
		idea_GUAM_member_state_2 = {
			on_add = { log = "[GetDateText]: [Root.GetName]: add idea idea_GUAM_member_state_2" }
			picture = GUAM
			allowed = { always = no }
			modifier = {
				political_power_factor = 0.20
				trade_opinion_factor = 0.20
				war_support_factor = 0.05
				stability_factor = 0.05
			}
		}

		##GCC Member
		idea_gcc_member_state = {
			on_add = { log = "[GetDateText]: [Root.GetName]: add idea idea_gcc_member_state" }
			picture = gcc_member
			allowed_civil_war = {
				no_jihadist_government = yes
			}
			cancel = {
				jihadist_government = yes
			}
			rule = {
				can_create_factions = no
			}
			modifier = {
				political_power_factor = 0.10
				trade_opinion_factor = 0.10
				local_resources_factor = 0.10
				ai_get_ally_desire_factor = -1000
			}
		}

		#Economic Community of West African States
		ecowas_member_state = {
			on_add = { log = "[GetDateText]: [Root.GetName]: add idea ecowas_member_state" }
			picture = ECOWAS
			allowed = { always = no }
			modifier = {
				political_power_gain = 0.10
			}
		}
	}
}