ideas = {

	Vehicle_Company = {
		designer = yes
		BRA_avibras_vehicle_company = {
			allowed = { original_tag = BRA }
			on_add = { log = "[GetDateText]: [Root.GetName]: add idea BRA_avibras_vehicle_company" }
			picture = Avibras_BRA
			cost = 150

			removal_cost = 10
			research_bonus = {
				Cat_ARMOR = 0.217
			}

			traits = {
				Cat_ARMOR_7

			}
			ai_will_do = {
				factor = 1
			}
		}
	}

	Infantry_Weapon_Company = {

		designer = yes

		BRA_avibras_infantry_weapon_company = {
			allowed = { original_tag = BRA }
			on_add = { log = "[GetDateText]: [Root.GetName]: add idea BRA_avibras_infantry_weapon_company" }

			picture = Avibras_BRA
			cost = 150

			removal_cost = 10

			research_bonus = {
				Cat_L_DRONE = 0.217
			}

			traits = {
				Cat_L_DRONE_7

			}
			ai_will_do = {
				factor = 1
			}

		}
		BRA_imbel_infantry_weapon_company = {
			allowed = { original_tag = BRA }
			on_add = { log = "[GetDateText]: [Root.GetName]: add idea BRA_imbel_infantry_weapon_company" }

			picture = IMBEL_BRA
			cost = 150

			removal_cost = 10

			research_bonus = {
				Cat_INF_WEP = 0.186
			}

			traits = {
				Cat_INF_WEP_6

			}
			ai_will_do = {
				factor = 1
			}
		}
	}

	Helicopter_Company = {

		designer = yes

		BRA_helibras_helicopter_company = {
			allowed = { original_tag = BRA }
			on_add = { log = "[GetDateText]: [Root.GetName]: add idea BRA_helibras_helicopter_company" }

			picture = Helibras_BRA
			cost = 150

			removal_cost = 10

			research_bonus = {
				Cat_HELI = 0.186
			}

			traits = {
				Cat_HELI_6

			}
			ai_will_do = {
				factor = 1
			}
		}
	}

	Aircraft_Company = {

		designer = yes

		BRA_embraer_aircraft_company = {
			allowed = { original_tag = BRA }
			on_add = { log = "[GetDateText]: [Root.GetName]: add idea BRA_embraer_aircraft_company" }
			picture = Embraer_BRA
			cost = 150

			removal_cost = 10

			research_bonus = {
				CAT_FIXED_WING = 0.155
			}

			traits = {
				CAT_FIXED_WING_5

			}
			ai_will_do = {
				factor = 1
			}
		}
	}

	Ship_Company = {

		designer = yes

		BRA_arsenal_do_marinha_ship_company = {
			allowed = {
				NOT = { has_dlc = "Man the Guns" }
				original_tag = BRA
			}
			on_add = { log = "[GetDateText]: [Root.GetName]: add idea BRA_arsenal_do_marinha_ship_company" }

			picture = Arsenal_do_Marinha_BRA

			cost = 150

			removal_cost = 10

			research_bonus = {
				Cat_NAVAL_EQP = 0.124
			}

			traits = {
				Cat_NAVAL_EQP_4

			}
			ai_will_do = {
				factor = 1
			}
		}
		BRA_arsenal_do_marinha_ship_company_mtg = {
			allowed = {
				has_dlc = "Man the Guns"
				original_tag = BRA
			}
			on_add = { log = "[GetDateText]: [Root.GetName]: add idea BRA_arsenal_do_marinha_ship_company" }

			picture = Arsenal_do_Marinha_BRA
			name = BRA_arsenal_do_marinha_ship_company
			cost = 150

			removal_cost = 10

			research_bonus = {
				Cat_NAVAL_EQP = 0.124
			}

			traits = {
				Cat_NAVAL_EQP_4_MTG

			}
			ai_will_do = {
				factor = 1
			}
		}
	}

}
