ideas = {

	Infantry_Weapon_Company = {

		designer = yes

		BRM_burma_defence_industries_infantry_weapon_company = {
			allowed = { original_tag = BRM }
			on_add = { log = "[GetDateText]: [Root.GetName]: add idea BRM_burma_defence_industries_infantry_weapon_company" }

			picture = Burma_Defence_Industries_BRM

			cost = 150

			removal_cost = 10

			research_bonus = {
				Cat_INF = 0.062
			}

			traits = {
				Cat_INF_2

			}
			ai_will_do = {
				factor = 1
			}
		}
	}

	Vehicle_Company = {

		designer = yes

		BRM_burma_defence_industries_vehicle_company = {
			allowed = { original_tag = BRM }
			on_add = { log = "[GetDateText]: [Root.GetName]: add idea BRM_burma_defence_industries_vehicle_company" }

			picture = Burma_Defence_Industries_BRM
			cost = 150
			removal_cost = 10
			research_bonus = {
				Cat_AFV = 0.062
			}

			traits = {
				Cat_AFV_2

			}
			ai_will_do = {
				factor = 1
			}
		}
	}
}