ideas = {
	Ship_Company = {
		designer = yes
		Generic_Ship_Company = {
			allowed = {
				NOT = { has_dlc = "Man the Guns" }
			}
			on_add = { log = "[GetDateText]: [Root.GetName]: add idea Generic_Ship_Company" }
			name = Generic_Ship_Company
			picture = Generic_Ship_Company
			cost = 150
			removal_cost = 10

			research_bonus = {
				Cat_NAVAL_EQP = 0.06
			}

			traits = { Cat_NAVAL_EQP_4 }

			ai_will_do = {
				factor = 0.1
			}
		}

		generic_mtg_ship_company = {
			allowed = { has_dlc = "Man the Guns" }
			on_add = { log = "[GetDateText]: [Root.GetName]: add idea Generic_Ship_Company" }
			name = Generic_Ship_Company
			picture = Generic_Ship_Company
			cost = 150
			removal_cost = 10

			research_bonus = {
				Cat_NAVAL_EQP = 0.06
			}

			traits = { Cat_NAVAL_EQP_4_MTG }

			ai_will_do = {
				factor = 0.1
			}
		}
	}

	Submarine_Company = {
		designer = yes
		Generic_Submarine_Company = {
			allowed = { NOT = { has_dlc = "Man the Guns" } }
			on_add = { log = "[GetDateText]: [Root.GetName]: add idea Generic_Submarine_Company" }
			picture = Generic_Submarine_Company
			cost = 150
			removal_cost = 10

			research_bonus = {
				Cat_D_SUB = 0.015
			}

			traits = {
				Cat_D_SUB_1
			}

			ai_will_do = {
				factor = 0.1
			}
		}
		Generic_Submarine_Company_mtg = {
			allowed = { has_dlc = "Man the Guns" }
			on_add = { log = "[GetDateText]: [Root.GetName]: add idea Generic_Submarine_Company" }
			picture = Generic_Submarine_Company
			name = Generic_Submarine_Company
			cost = 150
			removal_cost = 10

			research_bonus = {
				Cat_D_SUB = 0.015
			}

			traits = {
				Cat_D_SUB_1_MTG
			}

			ai_will_do = {
				factor = 0.1
			}
		}
	}
	Vehicle_Company = {

		designer = yes

		Generic_Vehicle_Company = {
			on_add = { log = "[GetDateText]: [Root.GetName]: add idea Generic_Vehicle_Company" }

			picture = Generic_Vehicle_Company

			allowed = {
				NOT = {
					or = {
						has_available_idea_with_traits = { idea = Cat_ARMOR_2 limit = 0 }
						has_available_idea_with_traits = { idea = Cat_ARMOR_3 limit = 0 }
						has_available_idea_with_traits = { idea = Cat_ARMOR_4 limit = 0 }
						has_available_idea_with_traits = { idea = Cat_ARMOR_5 limit = 0 }
						has_available_idea_with_traits = { idea = Cat_ARMOR_6 limit = 0 }
						has_available_idea_with_traits = { idea = Cat_ARMOR_7 limit = 0 }
						has_available_idea_with_traits = { idea = Cat_ARMOR_8 limit = 0 }
						has_available_idea_with_traits = { idea = Cat_ARMOR_9 limit = 0 }
						has_available_idea_with_traits = { idea = Cat_ARMOR_10 limit = 0 }

						has_available_idea_with_traits = { idea = Cat_AFV_1 limit = 0 }
						has_available_idea_with_traits = { idea = Cat_AFV_2 limit = 0 }
						has_available_idea_with_traits = { idea = Cat_AFV_3 limit = 0 }
						has_available_idea_with_traits = { idea = Cat_AFV_4 limit = 0 }
						has_available_idea_with_traits = { idea = Cat_AFV_5 limit = 0 }
						has_available_idea_with_traits = { idea = Cat_AFV_6 limit = 0 }
						has_available_idea_with_traits = { idea = Cat_AFV_7 limit = 0 }
						has_available_idea_with_traits = { idea = Cat_AFV_8 limit = 0 }
						has_available_idea_with_traits = { idea = Cat_AFV_9 limit = 0 }
						has_available_idea_with_traits = { idea = Cat_AFV_10 limit = 0 }

						has_available_idea_with_traits = { idea = CAT_TANKS_1 limit = 0 }
						has_available_idea_with_traits = { idea = CAT_TANKS_2 limit = 0 }
						has_available_idea_with_traits = { idea = CAT_TANKS_3 limit = 0 }
						has_available_idea_with_traits = { idea = CAT_TANKS_4 limit = 0 }
						has_available_idea_with_traits = { idea = CAT_TANKS_5 limit = 0 }
						has_available_idea_with_traits = { idea = CAT_TANKS_6 limit = 0 }
						has_available_idea_with_traits = { idea = CAT_TANKS_7 limit = 0 }
						has_available_idea_with_traits = { idea = CAT_TANKS_8 limit = 0 }
						has_available_idea_with_traits = { idea = CAT_TANKS_9 limit = 0 }
						has_available_idea_with_traits = { idea = CAT_TANKS_10 limit = 0 }

						has_available_idea_with_traits = { idea = Cat_ARTILLERY_1 limit = 0 }
						has_available_idea_with_traits = { idea = Cat_ARTILLERY_2 limit = 0 }
						has_available_idea_with_traits = { idea = Cat_ARTILLERY_3 limit = 0 }
						has_available_idea_with_traits = { idea = Cat_ARTILLERY_4 limit = 0 }
						has_available_idea_with_traits = { idea = Cat_ARTILLERY_5 limit = 0 }
						has_available_idea_with_traits = { idea = Cat_ARTILLERY_6 limit = 0 }
						has_available_idea_with_traits = { idea = Cat_ARTILLERY_7 limit = 0 }
						has_available_idea_with_traits = { idea = Cat_ARTILLERY_8 limit = 0 }
						has_available_idea_with_traits = { idea = Cat_ARTILLERY_9 limit = 0 }
						has_available_idea_with_traits = { idea = Cat_ARTILLERY_10 limit = 0 }

					}
				}
			}
			cost = 150
			removal_cost = 10

			research_bonus = {
				Cat_ARMOR = 0.015
			}

			traits = {
				Cat_ARMOR_1
			}

			ai_will_do = {
				factor = 0.1
			}
		}
	}
	Infantry_Weapon_Company = {

		designer = yes

		Generic_Infantry_Weapon_Company = {
			on_add = { log = "[GetDateText]: [Root.GetName]: add idea Generic_Infantry_Weapon_Company" }

			picture = Generic_Infantry_Weapon_Company

			allowed = {
				NOT = {
					or = {
						has_available_idea_with_traits = { idea = Cat_INF_2 limit = 0 }
						has_available_idea_with_traits = { idea = Cat_INF_3 limit = 0 }
						has_available_idea_with_traits = { idea = Cat_INF_4 limit = 0 }
						has_available_idea_with_traits = { idea = Cat_INF_5 limit = 0 }
						has_available_idea_with_traits = { idea = Cat_INF_6 limit = 0 }
						has_available_idea_with_traits = { idea = Cat_INF_7 limit = 0 }
						has_available_idea_with_traits = { idea = Cat_INF_8 limit = 0 }
						has_available_idea_with_traits = { idea = Cat_INF_9 limit = 0 }
						has_available_idea_with_traits = { idea = Cat_INF_10 limit = 0 }

						has_available_idea_with_traits = { idea = Cat_AA_1 limit = 0 }
						has_available_idea_with_traits = { idea = Cat_AA_2 limit = 0 }
						has_available_idea_with_traits = { idea = Cat_AA_3 limit = 0 }
						has_available_idea_with_traits = { idea = Cat_AA_4 limit = 0 }
						has_available_idea_with_traits = { idea = Cat_AA_5 limit = 0 }
						has_available_idea_with_traits = { idea = Cat_AA_6 limit = 0 }
						has_available_idea_with_traits = { idea = Cat_AA_7 limit = 0 }
						has_available_idea_with_traits = { idea = Cat_AA_8 limit = 0 }
						has_available_idea_with_traits = { idea = Cat_AA_9 limit = 0 }
						has_available_idea_with_traits = { idea = Cat_AA_10 limit = 0 }

						has_available_idea_with_traits = { idea = Cat_AT_1 limit = 0 }
						has_available_idea_with_traits = { idea = Cat_AT_2 limit = 0 }
						has_available_idea_with_traits = { idea = Cat_AT_3 limit = 0 }
						has_available_idea_with_traits = { idea = Cat_AT_4 limit = 0 }
						has_available_idea_with_traits = { idea = Cat_AT_5 limit = 0 }
						has_available_idea_with_traits = { idea = Cat_AT_6 limit = 0 }
						has_available_idea_with_traits = { idea = Cat_AT_7 limit = 0 }
						has_available_idea_with_traits = { idea = Cat_AT_8 limit = 0 }
						has_available_idea_with_traits = { idea = Cat_AT_9 limit = 0 }
						has_available_idea_with_traits = { idea = Cat_AT_10 limit = 0 }

						has_available_idea_with_traits = { idea = Cat_INF_WEP_1 limit = 0 }
						has_available_idea_with_traits = { idea = Cat_INF_WEP_2 limit = 0 }
						has_available_idea_with_traits = { idea = Cat_INF_WEP_3 limit = 0 }
						has_available_idea_with_traits = { idea = Cat_INF_WEP_4 limit = 0 }
						has_available_idea_with_traits = { idea = Cat_INF_WEP_5 limit = 0 }
						has_available_idea_with_traits = { idea = Cat_INF_WEP_6 limit = 0 }
						has_available_idea_with_traits = { idea = Cat_INF_WEP_7 limit = 0 }
						has_available_idea_with_traits = { idea = Cat_INF_WEP_8 limit = 0 }
						has_available_idea_with_traits = { idea = Cat_INF_WEP_9 limit = 0 }
						has_available_idea_with_traits = { idea = Cat_INF_WEP_10 limit = 0 }


					}
				}
			}
			cost = 150
			removal_cost = 10

			research_bonus = {
				Cat_INF = 0.015
			}

			traits = {
				Cat_INF_1
			}

			ai_will_do = {
				factor = 0.1
			}
		}
	}
	Helicopter_Company = {

		designer = yes

		Generic_Helicopter_Company = {
			on_add = { log = "[GetDateText]: [Root.GetName]: add idea Generic_Helicopter_Company" }

			picture = Generic_Helicopter_Company

			allowed = {
				NOT = {
					or = {
						has_available_idea_with_traits = { idea = Cat_HELI_2 limit = 0 }
						has_available_idea_with_traits = { idea = Cat_HELI_3 limit = 0 }
						has_available_idea_with_traits = { idea = Cat_HELI_4 limit = 0 }
						has_available_idea_with_traits = { idea = Cat_HELI_5 limit = 0 }
						has_available_idea_with_traits = { idea = Cat_HELI_6 limit = 0 }
						has_available_idea_with_traits = { idea = Cat_HELI_7 limit = 0 }
						has_available_idea_with_traits = { idea = Cat_HELI_8 limit = 0 }
						has_available_idea_with_traits = { idea = Cat_HELI_9 limit = 0 }
						has_available_idea_with_traits = { idea = Cat_HELI_10 limit = 0 }

					}
				}
			}
			cost = 150
			removal_cost = 10

			research_bonus = {
				Cat_HELI = 0.015
			}

			traits = {
				Cat_HELI_1
			}

			ai_will_do = {
				factor = 0.1
			}
		}
	}
	Aircraft_Company = {

		designer = yes

		Generic_Aircraft_Company = {
			on_add = { log = "[GetDateText]: [Root.GetName]: add idea Generic_Aircraft_Company" }

			picture = Generic_Aircraft_Company

			allowed = {
				NOT = {
					or = {
						has_available_idea_with_traits = { idea = CAT_FIXED_WING_1 limit = 0 }
						has_available_idea_with_traits = { idea = CAT_FIXED_WING_2 limit = 0 }
						has_available_idea_with_traits = { idea = CAT_FIXED_WING_3 limit = 0 }
						has_available_idea_with_traits = { idea = CAT_FIXED_WING_4 limit = 0 }
						has_available_idea_with_traits = { idea = CAT_FIXED_WING_5 limit = 0 }
						has_available_idea_with_traits = { idea = CAT_FIXED_WING_6 limit = 0 }
						has_available_idea_with_traits = { idea = CAT_FIXED_WING_7 limit = 0 }
						has_available_idea_with_traits = { idea = CAT_FIXED_WING_8 limit = 0 }
						has_available_idea_with_traits = { idea = CAT_FIXED_WING_9 limit = 0 }
						has_available_idea_with_traits = { idea = CAT_FIXED_WING_10 limit = 0 }

						has_available_idea_with_traits = { idea = Cat_H_AIR_1 limit = 0 }
						has_available_idea_with_traits = { idea = Cat_H_AIR_2 limit = 0 }
						has_available_idea_with_traits = { idea = Cat_H_AIR_3 limit = 0 }
						has_available_idea_with_traits = { idea = Cat_H_AIR_4 limit = 0 }
						has_available_idea_with_traits = { idea = Cat_H_AIR_5 limit = 0 }
						has_available_idea_with_traits = { idea = Cat_H_AIR_6 limit = 0 }
						has_available_idea_with_traits = { idea = Cat_H_AIR_7 limit = 0 }
						has_available_idea_with_traits = { idea = Cat_H_AIR_8 limit = 0 }
						has_available_idea_with_traits = { idea = Cat_H_AIR_9 limit = 0 }
						has_available_idea_with_traits = { idea = Cat_H_AIR_10 limit = 0 }

						has_available_idea_with_traits = { idea = Cat_FIGHTER_1 limit = 0 }
						has_available_idea_with_traits = { idea = Cat_FIGHTER_2 limit = 0 }
						has_available_idea_with_traits = { idea = Cat_FIGHTER_3 limit = 0 }
						has_available_idea_with_traits = { idea = Cat_FIGHTER_4 limit = 0 }
						has_available_idea_with_traits = { idea = Cat_FIGHTER_5 limit = 0 }
						has_available_idea_with_traits = { idea = Cat_FIGHTER_6 limit = 0 }
						has_available_idea_with_traits = { idea = Cat_FIGHTER_7 limit = 0 }
						has_available_idea_with_traits = { idea = Cat_FIGHTER_8 limit = 0 }
						has_available_idea_with_traits = { idea = Cat_FIGHTER_9 limit = 0 }
						has_available_idea_with_traits = { idea = Cat_FIGHTER_10 limit = 0 }

						has_available_idea_with_traits = { idea = Cat_L_Fighter_1 limit = 0 }
						has_available_idea_with_traits = { idea = Cat_L_Fighter_2 limit = 0 }
						has_available_idea_with_traits = { idea = Cat_L_Fighter_3 limit = 0 }
						has_available_idea_with_traits = { idea = Cat_L_Fighter_4 limit = 0 }
						has_available_idea_with_traits = { idea = Cat_L_Fighter_5 limit = 0 }
						has_available_idea_with_traits = { idea = Cat_L_Fighter_6 limit = 0 }
						has_available_idea_with_traits = { idea = Cat_L_Fighter_7 limit = 0 }
						has_available_idea_with_traits = { idea = Cat_L_Fighter_8 limit = 0 }
						has_available_idea_with_traits = { idea = Cat_L_Fighter_9 limit = 0 }
						has_available_idea_with_traits = { idea = Cat_L_Fighter_10 limit = 0 }

					}
				}
			}
			cost = 150
			removal_cost = 10

			research_bonus = {
				CAT_FIXED_WING = 0.015
			}

			traits = {
				CAT_FIXED_WING_1
			}

			ai_will_do = {
				factor = 0.1
			}
		}
	}

}