ideas = {
	Infantry_Weapon_Company = {
		designer = yes
		RAJ_ordnance_factories_organization_infantry_weapon_company = {
			allowed = { original_tag = RAJ }
			on_add = { log = "[GetDateText]: [Root.GetName]: add idea RAJ_ordnance_factories_organization_infantry_weapon_company" }
			picture = Ordnance_Factories_Organization_RAJ
			cost = 150
			removal_cost = 10
			research_bonus = {
				Cat_INF_WEP = 0.186
			}

			traits = { Cat_INF_WEP_6 }
			ai_will_do = {
				factor = 1
			}
		}
	}

	Vehicle_Company = {
		designer = yes
		RAJ_ordnance_factories_organization_vehicle_company = {
			allowed = { original_tag = RAJ }
			on_add = { log = "[GetDateText]: [Root.GetName]: add idea RAJ_ordnance_factories_organization_vehicle_company" }
			picture = Ordnance_Factories_Organization_RAJ
			cost = 150
			removal_cost = 10
			research_bonus = {
				Cat_ARMOR = 0.186
			}

			traits = { Cat_ARMOR_6 }
			ai_will_do = {
				factor = 1
			}
		}

		RAJ_tata_motors_vehicle_company = {
			allowed = { original_tag = RAJ }
			on_add = { log = "[GetDateText]: [Root.GetName]: add idea RAJ_tata_motors_vehicle_company" }
			picture = Tata_Motors_RAJ
			cost = 150
			removal_cost = 10
			research_bonus = {
				Cat_AFV = 0.186
			}

			traits = { Cat_AFV_6 }
			ai_will_do = {
				factor = 1
			}
		}
	}

	Aircraft_Company = {
		designer = yes
		RAJ_hindustan_aeronautics_aircraft_company = {
			allowed = { original_tag = RAJ }
			on_add = { log = "[GetDateText]: [Root.GetName]: add idea RAJ_hindustan_aeronautics_aircraft_company" }
			picture = Hindustan_Aeronautics_RAJ
			cost = 150
			removal_cost = 10
			research_bonus = {
				CAT_FIXED_WING = 0.217
			}

			traits = { CAT_FIXED_WING_7 }
			ai_will_do = {
				factor = 1
			}
		}
	}

	Helicopter_Company = {
		designer = yes
		RAJ_hindustan_aeronautics_helicopter_company = {
			allowed = { original_tag = RAJ }
			on_add = { log = "[GetDateText]: [Root.GetName]: add idea RAJ_hindustan_aeronautics_helicopter_company" }
			picture = Hindustan_Aeronautics_RAJ
			cost = 150
			removal_cost = 10
			research_bonus = {
				Cat_HELI = 0.217
			}

			traits = { Cat_HELI_7 }
			ai_will_do = {
				factor = 1
			}
		}
	}

	Ship_Company = {
		designer = yes
		RAJ_cochin_shipyard_ship_company = {
			allowed = { original_tag = RAJ NOT = { has_dlc = "Man the Guns" } }
			on_add = { log = "[GetDateText]: [Root.GetName]: add idea RAJ_cochin_shipyard_ship_company" }
			picture = Cochin_Shipyard_RAJ
			cost = 150
			removal_cost = 10
			research_bonus = {
				Cat_CARRIER = 0.156
			}

			traits = { Cat_CARRIER_5 }
			ai_will_do = {
				factor = 1
			}
		}
		RAJ_cochin_shipyard_ship_company_mtg = {
			allowed = { original_tag = RAJ has_dlc = "Man the Guns" }
			on_add = { log = "[GetDateText]: [Root.GetName]: add idea RAJ_cochin_shipyard_ship_company" }
			picture = Cochin_Shipyard_RAJ
			name = RAJ_cochin_shipyard_ship_company
			cost = 150
			removal_cost = 10
			research_bonus = {
				Cat_CARRIER = 0.156
			}

			traits = { Cat_CARRIER_5_MTG }
			ai_will_do = {
				factor = 1
			}
		}

		RAJ_mazagon_dock_limited_ship_company = {
			allowed = { original_tag = RAJ NOT = { has_dlc = "Man the Guns" } }
			on_add = { log = "[GetDateText]: [Root.GetName]: add idea RAJ_mazagon_dock_limited_ship_company" }
			picture = Mazagon_Dock_Limited_RAJ
			cost = 150
			removal_cost = 10
			research_bonus = {
				Cat_NAVAL_EQP = 0.217
			}

			traits = { Cat_NAVAL_EQP_7 }
			ai_will_do = {
				factor = 1
			}
		}
		RAJ_mazagon_dock_limited_ship_company_mtg = {
			allowed = { original_tag = RAJ has_dlc = "Man the Guns" }
			on_add = { log = "[GetDateText]: [Root.GetName]: add idea RAJ_mazagon_dock_limited_ship_company" }
			picture = Mazagon_Dock_Limited_RAJ
			name = RAJ_mazagon_dock_limited_ship_company
			cost = 150
			removal_cost = 10
			research_bonus = {
				Cat_NAVAL_EQP = 0.217
			}

			traits = { Cat_NAVAL_EQP_7_MTG }
			ai_will_do = {
				factor = 1
			}
		}

		RAJ_goa_shipyard_ship_company = {
			allowed = { original_tag = RAJ has_dlc = "Man the Guns" }
			on_add = { log = "[GetDateText]: [Root.GetName]: add idea RAJ_goa_shipyard_ship_company" }
			picture = Goa_Shipyard_RAJ
			cost = 150
			removal_cost = 10
			research_bonus = {
				Cat_TRANS_SHIP = 0.217
			}

			traits = { Cat_TRANS_SHIP_7 }
			ai_will_do = {
				factor = 1
			}
		}
	}

	Submarine_Company = {
		designer = yes
		RAJ_mazagon_dock_limited_submarine_company = {
			allowed = { original_tag = RAJ NOT = { has_dlc = "Man the Guns" } }
			on_add = { log = "[GetDateText]: [Root.GetName]: add idea RAJ_mazagon_dock_limited_submarine_company" }
			picture = Mazagon_Dock_Limited_RAJ
			cost = 150
			removal_cost = 10
			research_bonus = {
				Cat_D_SUB = 0.217
			}

			traits = { Cat_D_SUB_7 }
			ai_will_do = {
				factor = 1
			}
		}
		RAJ_mazagon_dock_limited_submarine_company_mtg = {
			allowed = { original_tag = RAJ has_dlc = "Man the Guns" }
			on_add = { log = "[GetDateText]: [Root.GetName]: add idea RAJ_mazagon_dock_limited_submarine_company" }
			picture = Mazagon_Dock_Limited_RAJ
			name = RAJ_mazagon_dock_limited_submarine_company
			cost = 150
			removal_cost = 10
			research_bonus = {
				Cat_D_SUB = 0.217
			}

			traits = { Cat_D_SUB_7_MTG }
			ai_will_do = {
				factor = 1
			}
		}
	}
}
