	#Invite Foreign Investors Branch
	shared_focus = {
		id = ETH_invite_foreign_investors
		icon = concessions2
		x = 2
		y = 0

		cost = 5

		available = {
			NOT = { has_war_with = ERI }
		}

		completion_reward = {
			log = "[GetDateText]: [Root.GetName]: Focus ETH_invite_foreign_investors"
			generic_grant_1_percent_influence_of_ITA = yes
			generic_grant_1_percent_influence_of_USA = yes
			generic_grant_1_percent_influence_of_CHI = yes
			generic_grant_1_percent_influence_of_RAJ = yes
			decrease_domestic_influence_3_percent = yes
			#States
			capital_scope = {
				add_building_construction = {
					type = industrial_complex
					level = 1
					instant_build = yes
				}
				add_building_construction = {
					type = arms_factory
					level = 1
					instant_build = yes
				}
				add_extra_state_shared_building_slots = 2
			}
		}

		ai_will_do = {
			factor = 1
		}
	}

	shared_focus = {
		id = ETH_invite_coca_cola
		icon = ethiopia_coca_cola

		x = -2
		y = 1
		relative_position_id = ETH_invite_foreign_investors

		cost = 5

		prerequisite = { focus = ETH_invite_foreign_investors }

		search_filters = { FOCUS_FILTER_INDUSTRY FOCUS_FILTER_POLITICAL }

		available = {
			OR = {
				is_subject = no
				is_puppet_of = USA
			}
			NOT = { has_war_with = USA }
		}
		cancel = {
			has_war_with = USA
		}
		bypass = {
			OR = {
				NOT = { country_exists = USA }
				is_subject = yes
			}
		}

		completion_reward = {
			log = "[GetDateText]: [Root.GetName]: Focus ETH_invite_coca_cola"
			generic_grant_2_percent_influence_of_USA = yes
			add_popularity = { ideology = democratic popularity = 0.05 }
			recalculate_party = yes
			random_owned_state = {
				add_extra_state_shared_building_slots = 1
				add_building_construction = {
					type = industrial_complex
					level = 1
					instant_build = yes
				}
			}
		}

		ai_will_do = {
			factor = 1
		}
	}

	shared_focus = {
		id = ETH_invite_karuturi_global
		icon = ethiopia_karuturi_global

		x = 0
		y = 1
		relative_position_id = ETH_invite_foreign_investors

		cost = 5

		prerequisite = { focus = ETH_invite_foreign_investors }
		search_filters = {FOCUS_FILTER_INDUSTRY FOCUS_FILTER_POLITICAL}

		available = {
			OR = {
				is_subject = no
				is_puppet_of = RAJ
			}
			NOT = { has_war_with = RAJ }
		}
		cancel = {
			has_war_with = RAJ
		}
		bypass = {
			OR = {
				NOT = { country_exists = RAJ }
				is_subject = yes
			}
		}

		completion_reward = {
			log = "[GetDateText]: [Root.GetName]: Focus ETH_invite_karuturi_global"
			generic_grant_2_percent_influence_of_RAJ = yes
			add_popularity = { ideology = neutrality popularity = 0.05 }
			recalculate_party = yes
			random_owned_state = {
				add_extra_state_shared_building_slots = 2
				add_building_construction = {
					type = industrial_complex
					level = 1
					instant_build = yes
				}
			}
		}

		ai_will_do = {
			factor = 1
		}
	}

	shared_focus = {
		id = ETH_invite_lifan_industry
		icon = ethiopia_lifan

		x = 2
		y = 1
		relative_position_id = ETH_invite_foreign_investors

		cost = 5

		prerequisite = { focus = ETH_invite_foreign_investors }
		search_filters = {FOCUS_FILTER_INDUSTRY FOCUS_FILTER_POLITICAL}

		available = {
			OR = {
				is_subject = no
				is_puppet_of = CHI
			}
			NOT = { has_war_with = CHI }

		}
		cancel = {
			has_war_with = CHI
		}
		bypass = {
			OR = {
				NOT = { country_exists = CHI }
				is_subject = yes
			}
		}

		completion_reward = {
			log = "[GetDateText]: [Root.GetName]: Focus ETH_invite_lifan_industry"
			generic_grant_2_percent_influence_of_CHI = yes
			add_popularity = { ideology = communism popularity = 0.05 }
			recalculate_party = yes
			random_owned_state = {
				add_extra_state_shared_building_slots = 1
				add_building_construction = {
					type = industrial_complex
					level = 1
					instant_build = yes
				}
			}
		}

		ai_will_do = {
			factor = 1
		}
	}

	shared_focus = {
		id = ETH_american_industrial_investments
		icon = production2

		x = -2
		y = 2
		relative_position_id = ETH_invite_foreign_investors

		cost = 10

		prerequisite = { focus = ETH_invite_coca_cola }
		search_filters = {FOCUS_FILTER_INDUSTRY FOCUS_FILTER_POLITICAL}

		available = {
			OR = {
				is_subject = no
				is_puppet_of = USA
			}
			NOT = { has_war_with = USA }
			OR = {
				has_elections = yes
				has_opinion = { target = USA value > 25 }
			}
		}
		cancel = {
			NOT = {
				OR = {
					is_subject = no
					is_puppet_of = USA
				}
				OR = {
					has_elections = yes
					has_opinion = { target = USA value > 25 }
				}
			}
			has_war_with = USA
		}
		bypass = {
			NOT = { country_exists = USA }
		}

		completion_reward = {
			log = "[GetDateText]: [Root.GetName]: Focus ETH_american_industrial_investments"
			generic_grant_1_percent_influence_of_USA = yes
			random_owned_state = {
				limit = {
					free_building_slots = {
						building = industrial_complex
						size > 0
						include_locked = yes
					}
				}
				add_extra_state_shared_building_slots = 1
				add_building_construction = {
					type = industrial_complex
					level = 1
					instant_build = yes
				}
			}
			add_popularity = {
				ideology = democratic
				popularity = 0.1
			}
			recalculate_party = yes
		}

		ai_will_do = {
			factor = 1
		}
	}

	shared_focus = {
		id = ETH_request_international_loans
		icon = generic_banks

		x = 0
		y = 2
		relative_position_id = ETH_invite_foreign_investors

		cost = 5

		prerequisite = {
			focus = ETH_invite_coca_cola
			focus = ETH_invite_karuturi_global
			focus = ETH_invite_lifan_industry
		}
		search_filters = {FOCUS_FILTER_EXPENDITURE FOCUS_FILTER_INTERNAL_FACTION}

		available = {
			NOT = { has_war_with = ERI } #War With Eritrea Must Be Over
			NOT = { has_idea = bankrupcy } #Can't request loans when bankrupt
		}
		cancel = {
			has_idea = bankrupcy
		}

		completion_reward = {
			log = "[GetDateText]: [Root.GetName]: Focus ETH_request_international_loans"
			increase_biggest_influencer_by_1_percent = yes
			increase_second_influencer_by_1_percent = yes
			increase_third_influencer_by_1_percent = yes
			decrease_international_bankers_opinion = yes #International Bankers won't like that!
			add_to_variable = { debt = 25 }
			add_to_variable = { treasury = 25 }
			custom_effect_tooltip = ETH_request_loans_TT
		}

		ai_will_do = {
			factor = 1
		}
	}

	shared_focus = {
		id = ETH_homegrown_companies
		icon = central_planned_economy

		x = 0
		y = 3
		relative_position_id = ETH_invite_foreign_investors

		cost = 10

		prerequisite = { focus = ETH_request_international_loans }
		search_filters = {FOCUS_FILTER_POLITICAL}

		available = {
			NOT = { has_idea = bankrupcy }
		}
		cancel = {
			has_idea = bankrupcy
		}

		completion_reward = {
			log = "[GetDateText]: [Root.GetName]: Focus ETH_homegrown_companies"
			subtract_from_variable = { treasury = 3.0 }
			custom_effect_tooltip = 3_billion_expense_tt
			add_research_slot = 1
		}

		ai_will_do = {
			factor = 1
		}
	}

	shared_focus = {
		id = ETH_support_messobo_cement
		icon = construction

		x = -2
		y = 3
		relative_position_id = ETH_invite_foreign_investors

		cost = 10

		prerequisite = { focus = ETH_request_international_loans }
		search_filters = {FOCUS_FILTER_INDUSTRY}

		available = {
			any_owned_state = {
				free_building_slots = {
					building = infrastructure
					size > 3
				}
			}
		}

		completion_reward = {
			log = "[GetDateText]: [Root.GetName]: Focus ETH_support_messobo_cement"
			subtract_from_variable = {
				var = treasury
				value = 8
				tooltip = 8_billion_expense_tt
			}
			add_ideas = ETH_idea_messebo
			random_owned_state = {
				limit = {
					free_building_slots = {
						building = infrastructure
						size > 3
					}
				}
				add_building_construction = {
					type = infrastructure
					level = 3
					instant_build = yes
				}
			}
			random_owned_state = {
				limit = {
					free_building_slots = {
						building = infrastructure
						size > 3
					}
				}
				add_building_construction = {
					type = infrastructure
					level = 3
					instant_build = yes
				}
			}
			random_owned_state = {
				limit = {
					free_building_slots = {
						building = infrastructure
						size > 3
					}
				}
				add_building_construction = {
					type = infrastructure
					level = 3
					instant_build = yes
				}
			}
		}

		ai_will_do = {
			factor = 1
		}
	}

	shared_focus = {
		id = ETH_fund_ethio_agri_ceft
		icon = agriculture

		x = -2
		y = 4
		relative_position_id = ETH_invite_foreign_investors

		cost = 10

		prerequisite = { focus = ETH_homegrown_companies }
		search_filters = {FOCUS_FILTER_MANPOWER FOCUS_FILTER_INTERNAL_FACTION}

		completion_reward = {
			log = "[GetDateText]: [Root.GetName]: Focus ETH_fund_ethio_agri_ceft"
			add_ideas = ETH_agricultural_investments
			increase_farmers_opinion = yes
		}

		ai_will_do = {
			factor = 1
		}
	}

	shared_focus = {
		id = ETH_fund_ethiopian_airlines
		icon = ethiopia_airline

		x = 0
		y = 4
		relative_position_id = ETH_invite_foreign_investors

		cost = 10

		prerequisite = { focus = ETH_homegrown_companies }
		search_filters = { FOCUS_FILTER_INDUSTRY }

		completion_reward = {
			log = "[GetDateText]: [Root.GetName]: Focus ETH_fund_ethiopian_airlines"
			add_ideas = ETH_aircraft_investments
			capital_scope = {
				add_building_construction = {
					type = air_base
					level = 2
				}
			}
			subtract_from_variable = {
				var = treasury
				value = 2
				tooltip = 2_billion_expense_tt
			}
		}

		ai_will_do = {
			factor = 1
		}
	}

	shared_focus = {
		id = ETH_fund_marathon_motors_engineering
		icon = ethiopia_maraton_motors

		x = 2
		y = 4
		relative_position_id = ETH_invite_foreign_investors

		cost = 10

		prerequisite = { focus = ETH_homegrown_companies }
		search_filters = {FOCUS_FILTER_INDUSTRY}

		completion_reward = {
			log = "[GetDateText]: [Root.GetName]: Focus ETH_fund_marathon_motors_engineering"
			add_ideas = ETH_motorization_investments
			random_owned_state = {
				limit = {
					free_building_slots = {
						building = industrial_complex
						size > 0
						include_locked = yes
					}
				}
				add_building_construction = {
					type = industrial_complex
					level = 1
					instant_build = yes
				}
				add_extra_state_shared_building_slots = 1
			}
			subtract_from_variable = {
				var = treasury
				value = 3
				tooltip = 3_billion_expense_tt
			}
		}

		ai_will_do = {
			factor = 1
		}
	}

	shared_focus = {
		id = ETH_industrial_buildup_1
		icon = treaty

		x = 0
		y = 5
		relative_position_id = ETH_invite_foreign_investors

		cost = 10

		prerequisite = { focus = ETH_fund_ethio_agri_ceft }
		prerequisite = { focus = ETH_fund_ethiopian_airlines }
		prerequisite = { focus = ETH_fund_marathon_motors_engineering }

		search_filters = {FOCUS_FILTER_INDUSTRY}

		available = { }

		bypass = { }

		completion_reward = {
			log = "[GetDateText]: [Root.GetName]: Focus ETH_industrial_buildup_1"
			random_owned_state = {
				limit = {
					free_building_slots = {
						building = industrial_complex
						size > 0
						include_locked = yes
					}
				}
				add_extra_state_shared_building_slots = 1
				add_building_construction = {
					type = industrial_complex
					level = 1
					instant_build = yes
				}
			}
			random_owned_state = {
				limit = {
					free_building_slots = {
						building = industrial_complex
						size > 0
						include_locked = yes
					}
				}
				add_extra_state_shared_building_slots = 1
				add_building_construction = {
					type = industrial_complex
					level = 1
					instant_build = yes
				}
			}
			random_owned_state = {
				add_building_construction = {
					type = infrastructure
					level = 1
					instant_build = yes
				}
			}
			hidden_effect = {
				add_to_variable = {
					treasury = -10
				}
			}
			custom_effect_tooltip = 10_billion_expense_tt
		}

		ai_will_do = {
			factor = 1
		}
	}

	shared_focus = {
		id = ETH_industrial_buildup_2
		icon = industry_civilian

		x = -1
		y = 6
		relative_position_id = ETH_invite_foreign_investors

		cost = 10

		prerequisite = {
			focus = ETH_industrial_buildup_1
		}



		search_filters = {FOCUS_FILTER_INDUSTRY}

		available = { }

		bypass = { }

	completion_reward = {
		log = "[GetDateText]: [Root.GetName]: Focus ETH_industrial_buildup_2"
			random_owned_state = {
				limit = {
					free_building_slots = {
						building = industrial_complex
						size > 0
						include_locked = yes
					}
				}
				add_extra_state_shared_building_slots = 1
				add_building_construction = {
					type = industrial_complex
					level = 1
					instant_build = yes
				}
			}
			hidden_effect = {
				add_to_variable = {
					treasury = -5
				}
			}
			custom_effect_tooltip = 5_billion_expense_tt
		}

		ai_will_do = {
			factor = 1
		}
	}

	shared_focus = {
		id = ETH_military_buildup_1
		icon = industry_military

		x = 1
		y = 6
		relative_position_id = ETH_invite_foreign_investors

		cost = 10

		prerequisite = {
			focus = ETH_industrial_buildup_1
		}



		search_filters = {FOCUS_FILTER_INDUSTRY}

		available = { }

		bypass = { }

	completion_reward = {
		log = "[GetDateText]: [Root.GetName]: Focus ETH_military_buildup_1"
			random_owned_state = {
				limit = {
					free_building_slots = {
						building = arms_factory
						size > 0
						include_locked = yes
					}
				}
				add_extra_state_shared_building_slots = 2
				add_building_construction = {
					type = arms_factory
					level = 2
					instant_build = yes
				}
			}
			hidden_effect = {
				add_to_variable = {
					treasury = -10
				}
			}
			custom_effect_tooltip = 10_billion_expense_tt
		}

		ai_will_do = {
			factor = 1
		}
	}

	shared_focus = {
		id = ETH_industrial_buildup_3
		icon = industry_civilian

		x = -1
		y = 7
		relative_position_id = ETH_invite_foreign_investors

		cost = 10

		prerequisite = {
			focus = ETH_industrial_buildup_2
		}



		search_filters = {FOCUS_FILTER_INDUSTRY}

		available = { }

		bypass = { }

	completion_reward = {
		log = "[GetDateText]: [Root.GetName]: Focus ETH_industrial_buildup_3"
			random_owned_state = {
				limit = {
					free_building_slots = {
						building = industrial_complex
						size > 0
						include_locked = yes
					}
				}
				add_extra_state_shared_building_slots = 1
				add_building_construction = {
					type = industrial_complex
					level = 1
					instant_build = yes
				}
			}
			hidden_effect = {
				add_to_variable = {
					treasury = -5
				}
			}
			custom_effect_tooltip = 5_billion_expense_tt
		}

		ai_will_do = {
			factor = 1
		}
	}

	shared_focus = {
		id = ETH_military_buildup_2
		icon = industry_military

		x = 1
		y = 7
		relative_position_id = ETH_invite_foreign_investors

		cost = 10

		prerequisite = {
			focus = ETH_military_buildup_1
		}



		search_filters = {FOCUS_FILTER_INDUSTRY}

		available = { }

		bypass = { }

	completion_reward = {
		log = "[GetDateText]: [Root.GetName]: Focus ETH_military_buildup_2"
			random_owned_state = {
				limit = {
					free_building_slots = {
						building = arms_factory
						size > 0
						include_locked = yes
					}
				}
				add_extra_state_shared_building_slots = 1
				add_building_construction = {
					type = arms_factory
					level = 1
					instant_build = yes
				}
			}
			hidden_effect = {
				add_to_variable = {
					treasury = -5
				}
			}
			custom_effect_tooltip = 5_billion_expense_tt
		}

		ai_will_do = {
			factor = 1
		}
	}

	shared_focus = {
		id = ETH_industrial_buildup_4
		icon = industry_civilian

		x = 0
		y = 8
		relative_position_id = ETH_invite_foreign_investors

		cost = 10

		prerequisite = {
			focus = ETH_industrial_buildup_3
		}
		prerequisite = {
			focus = ETH_military_buildup_2
		}

		search_filters = {FOCUS_FILTER_INDUSTRY}

	completion_reward = {
		log = "[GetDateText]: [Root.GetName]: Focus ETH_industrial_buildup_4"
			random_owned_state = {
				limit = {
					free_building_slots = {
						building = industrial_complex
						size > 0
						include_locked = yes
					}
				}
				add_extra_state_shared_building_slots = 1
				add_building_construction = {
					type = industrial_complex
					level = 1
					instant_build = yes
				}
			}
			random_owned_state = {
				limit = {
					free_building_slots = {
						building = industrial_complex
						size > 0
						include_locked = yes
					}
				}
				add_extra_state_shared_building_slots = 1
				add_building_construction = {
					type = industrial_complex
					level = 1
					instant_build = yes
				}
			}
			hidden_effect = {
				add_to_variable = {
					treasury = -10
				}
			}
			custom_effect_tooltip = 10_billion_expense_tt
		}

		ai_will_do = {
			factor = 1
		}
	}

	#International Diplomacy Branch

	shared_focus = {
		id = ETH_international_diplomacy
		icon = global_community

		x = 8
		y = 0

		cost = 10

		prerequisite = { }



		search_filters = {FOCUS_FILTER_POLITICAL}

		available = { }

		bypass = { }

	completion_reward = {
		log = "[GetDateText]: [Root.GetName]: Focus ETH_international_diplomacy"
			add_political_power = 150
		}

		ai_will_do = {
			factor = 1
		}
	}

	shared_focus = {
		id = ETH_african_economic_relationships
		icon = trade

		x = -2
		y = 1
		relative_position_id = ETH_international_diplomacy

		cost = 10

		prerequisite = {
			focus = ETH_international_diplomacy
		}



		search_filters = {FOCUS_FILTER_POLITICAL}

		available = {
			#has_idea = african_union_member
		}

		bypass = { }

	completion_reward = {
		log = "[GetDateText]: [Root.GetName]: Focus ETH_african_economic_relationships"
			every_country = {
				limit = {
					NOT = { original_tag = ETH }
					NOT = { has_war_with = ETH }
					OR = {
						is_puppet = no
						is_puppet_of = ETH
					}
				}
				add_opinion_modifier = { target = ROOT modifier = global_trade }
			}
			add_political_power = 50
		}

		ai_will_do = {
			factor = 1
		}
	}

	shared_focus = {
		id = ETH_european_economic_relationships
		icon = trade_with_europe

		x = 1
		y = 1
		relative_position_id = ETH_international_diplomacy

		cost = 10

		prerequisite = {
			focus = ETH_international_diplomacy
		}



		available = {
			is_puppet = no
		}

		bypass = { }

	completion_reward = {
		log = "[GetDateText]: [Root.GetName]: Focus ETH_european_economic_relationships"
			ENG = { country_event = { id = ethiopia.2 hours = 8 } }
			FRA = { country_event = { id = ethiopia.3 hours = 8 } }
			GER = { country_event = { id = ethiopia.4 hours = 8 } }
		}

		ai_will_do = {
			factor = 1
		}
	}

	shared_focus = {
		id = ETH_italian_ethiopian_friendship
		icon = align_to_italy

		x = 3
		y = 1
		relative_position_id = ETH_international_diplomacy

		cost = 10

		prerequisite = {
			focus = ETH_international_diplomacy
		}



		available = {
			NOT = { has_completed_focus = ETH_glorify_the_italo_ethiopian_wars }
		}

		bypass = { }

		completion_reward = {
			log = "[GetDateText]: [Root.GetName]: Focus ETH_italian_ethiopian_friendship"
			add_opinion_modifier = { target = ITA modifier = has_expressed_loyalty }
			reverse_add_opinion_modifier = { target = ITA modifier = has_expressed_loyalty }
			generic_grant_1_percent_influence_of_ITA = yes
		}

		ai_will_do = {
			factor = 1
		}
	}

	shared_focus = {
		id = ETH_request_chinese_investments
		icon = chinese_rmb

		x = -3
		y = 2
		relative_position_id = ETH_international_diplomacy

		cost = 10

		prerequisite = {
			focus = ETH_invite_lifan_industry
		}
		prerequisite = {
			focus = ETH_african_economic_relationships
		}



		available = {
			NOT = { has_war_with = CHI }
		}

		bypass = { }

		completion_reward = {
		log = "[GetDateText]: [Root.GetName]: Focus ETH_request_chinese_investments"
			unlock_decision_category_tooltip = ETH_chi_investments_category
			CHI = { country_event = { id = ethiopia.1 hours = 6 } }
		}

		ai_will_do = {
			factor = 1
		}
	}

	shared_focus = {
		id = ETH_african_union_commitment
		icon = align_to_africa

		x = -1
		y = 2
		relative_position_id = ETH_international_diplomacy

		cost = 10

		prerequisite = {
			focus = ETH_african_economic_relationships
		}



		available = {
			#has_idea = african_union_member
		}

		bypass = { }

	completion_reward = {
		log = "[GetDateText]: [Root.GetName]: Focus ETH_african_union_commitment"
			every_country = {
				limit = { capital_scope = { is_on_continent = africa } }
				add_opinion_modifier = { target = ETH modifier = declaration_of_friendship }
			}
		}

		ai_will_do = {
			factor = 1
		}
	}

	shared_focus = {
		id = ETH_request_european_investments
		icon = improve_relations_green

		x = 1
		y = 2
		relative_position_id = ETH_international_diplomacy

		cost = 10

		prerequisite = {
			focus = ETH_european_economic_relationships
		}



		available = { }

		bypass = { }

	completion_reward = {
		log = "[GetDateText]: [Root.GetName]: Focus ETH_request_european_investments"
			ENG = { country_event = { id = ethiopia.2 hours = 6 } }
			FRA = { country_event = { id = ethiopia.3 hours = 6 } }
			GER = { country_event = { id = ethiopia.4 hours = 6 } }
			unlock_decision_category_tooltip = ETH_european_investments_category
		}

		ai_will_do = {
			factor = 1
		}
	}

	shared_focus = {
		id = ETH_befriend_france
		icon = align_to_france

		x = 3
		y = 2
		relative_position_id = ETH_international_diplomacy

		cost = 10

		prerequisite = {
			focus = ETH_italian_ethiopian_friendship
		}



		available = {
			NOT = { has_war_with = FRA }
			OR = {
				is_puppet = no
				is_puppet_of = FRA
			}
		}

		bypass = { }

	completion_reward = {
		log = "[GetDateText]: [Root.GetName]: Focus ETH_befriend_france"
			FRA = {
				add_opinion_modifier = {
					target = ETH
					modifier = has_expressed_loyalty
				}
			}
		}

		ai_will_do = {
			factor = 1
		}
	}

	shared_focus = {
		id = ETH_establish_connections_with_tongji
		icon = construction3

		x = -3
		y = 3
		relative_position_id = ETH_international_diplomacy

		cost = 10

		prerequisite = {
			focus = ETH_request_chinese_investments
		}



		search_filters = {FOCUS_FILTER_INDUSTRY}

		available = {
			NOT = { has_war_with = CHI }
		}

		bypass = { }

	completion_reward = {
		log = "[GetDateText]: [Root.GetName]: Focus ETH_establish_connections_with_tongji"
			add_ideas = ETH_idea_cscec
	}

		ai_will_do = {
			factor = 1
		}
	}

	shared_focus = {
		id = ETH_expand_the_diplomatic_corps
		icon = diplomacy

		x = -1
		y = 3
		relative_position_id = ETH_international_diplomacy

		cost = 10

		prerequisite = {
			focus = ETH_african_union_commitment
		}



		search_filters = {FOCUS_FILTER_POLITICAL}

		available = {
			is_puppet = no
		}

		bypass = { }

	completion_reward = {
		log = "[GetDateText]: [Root.GetName]: Focus ETH_expand_the_diplomatic_corps"
			add_ideas = ETH_diplomacy_corps
		}

		ai_will_do = {
			factor = 1
		}
	}

	shared_focus = {
		id = ETH_anti_corruption_measurements
		icon = forceful_treaty

		x = 1
		y = 3
		relative_position_id = ETH_international_diplomacy

		cost = 10

		prerequisite = {
			focus = ETH_request_european_investments
		}



		search_filters = {FOCUS_FILTER_CORRUPTION}

		available = { }

		bypass = { }

	completion_reward = {
		log = "[GetDateText]: [Root.GetName]: Focus ETH_anti_corruption_measurements"
			if = {
				limit = { has_idea = paralyzing_corruption }
				swap_ideas = { remove_idea = paralyzing_corruption add_idea = crippling_corruption }
			}
			else_if = {
				limit = { has_idea = crippling_corruption }
				swap_ideas = { remove_idea = crippling_corruption add_idea = rampant_corruption }
			}
			else_if = {
				limit = { has_idea = rampant_corruption }
				swap_ideas = { remove_idea = rampant_corruption add_idea = unrestrained_corruption }
			}
			else_if = {
				limit = { has_idea = unrestrained_corruption }
				swap_ideas = { remove_idea = unrestrained_corruption add_idea = systematic_corruption }
			}
			else_if = {
				limit = { has_idea = systematic_corruption }
				swap_ideas = { remove_idea = systematic_corruption add_idea = widespread_corruption }
			}
			else_if = {
				limit = { has_idea = widespread_corruption }
				swap_ideas = { remove_idea = widespread_corruption add_idea = medium_corruption }
			}
			else_if = {
				limit = { has_idea = medium_corruption }
				swap_ideas = { remove_idea = medium_corruption add_idea = modest_corruption }
			}
		}

		ai_will_do = {
			factor = 1
		}
	}

	shared_focus = {
		id = ETH_the_new_african_union_headquarters
		icon = align_to_africa

		x = -2
		y = 4
		relative_position_id = ETH_international_diplomacy

		cost = 10

		prerequisite = {
			focus = ETH_expand_the_diplomatic_corps
		}
		prerequisite = {
			focus = ETH_establish_connections_with_tongji
		}



		search_filters = {FOCUS_FILTER_POLITICAL FOCUS_FILTER_STABILITY}

		available = {
			has_idea = AU_member
			has_completed_focus = ETH_endorse_the_african_union
		}

		bypass = { }

	completion_reward = {
		log = "[GetDateText]: [Root.GetName]: Focus ETH_the_new_african_union_headquarters"
			add_stability = 0.05
			add_political_power = 150
		}

		ai_will_do = {
			factor = 1
		}
	}

	shared_focus = {
		id = ETH_stabilize_the_food_supply
		icon = concessions2

		x = 1
		y = 4
		relative_position_id = ETH_international_diplomacy

		cost = 10

		prerequisite = {
			focus = ETH_anti_corruption_measurements
		}

		search_filters = {FOCUS_FILTER_INTERNAL_FACTION FOCUS_FILTER_MANPOWER FOCUS_FILTER_POLITICAL FOCUS_FILTER_STABILITY}

		completion_reward = {
			log = "[GetDateText]: [Root.GetName]: Focus ETH_stabilize_the_food_supply"
			if = {
				limit = { has_idea = ETH_looming_famine }
				swap_ideas = {
					remove_idea = ETH_looming_famine
					add_idea = ETH_idea_stabilized_food_supply
				}
			}
			else_if = {
				limit = { has_idea = ETH_idea_famine_strikes }
				swap_ideas = {
					remove_idea = ETH_idea_famine_strikes
					add_idea = ETH_idea_stabilized_food_supply
				}
			}
			custom_effect_tooltip = ETH_stabilize_the_food_supply_TT
			increase_farmers_opinion = yes
		}

		ai_will_do = {
			factor = 1
		}
	}

	shared_focus = {
		id = ETH_local_relationships
		icon = military_deal

		x = -3
		y = 5
		relative_position_id = ETH_international_diplomacy

		cost = 10

		prerequisite = {
			focus = ETH_the_new_african_union_headquarters
			focus = ETH_establish_connections_with_tongji
		}

		mutually_exclusive = {
			#focus = ETH_african_alliance_initiative
		}

		search_filters = {FOCUS_FILTER_STABILITY FOCUS_FILTER_WAR_SUPPORT}

		available = {
			is_in_faction = no
			OR = {
				has_completed_focus = ETH_the_new_african_union_headquarters
				has_completed_focus = ETH_restore_the_pdre
				has_completed_focus = ETH_invite_zera_yacob
			}
		}

		bypass = { }

	completion_reward = {
		log = "[GetDateText]: [Root.GetName]: Focus ETH_local_relationships"
			set_rule = { can_create_factions = yes }
			add_war_support = 0.05
			army_experience = 50
			add_stability = 0.05
		}

		ai_will_do = {
			factor = 1
		}
	}

	#shared_focus = {
		#id = ETH_african_alliance_initiative
		#icon = alliance

		#x = -1
		#y = 5
		#relative_position_id = ETH_international_diplomacy

		#cost = 10

		#prerequisite = {
			#focus = ETH_the_new_african_union_headquarters
		#}

		#mutually_exclusive = {
			#focus = ETH_local_relationships
		#}

		#available = {
			#is_in_faction = no
		#}

		#bypass = { }

		#completion_reward = {
			#country_event = { id = ethiopia.5 hours = 12 }
		#}

		#ai_will_do = {
			#factor = 1

			#modifier = {
				#factor = 0
				#is_historical_focus_on = yes
			#}
		#}
	#}

	shared_focus = {
		id = ETH_invite_european_armament_companies
		icon = industry_military

		x = 1
		y = 5
		relative_position_id = ETH_international_diplomacy

		cost = 10

		prerequisite = {
			focus = ETH_stabilize_the_food_supply
		}

		search_filters = {FOCUS_FILTER_INDUSTRY}

		available = {
			NOT = { has_war_with = ENG }
			NOT = { has_war_with = FRA }
			NOT = { has_war_with = GER }
			NOT = { has_war_with = ITA }
		}

		bypass = { }

	completion_reward = {
		log = "[GetDateText]: [Root.GetName]: Focus ETH_invite_european_armament_companies"
			add_ideas = military_industry_project
		}

		ai_will_do = {
			factor = 1
		}
	}

	#Oromo Crisis

	#Defense of Ethiopia

	shared_focus = {
		id = ETH_defense_of_ethiopia
		icon = defense

		x = 14
		y = 0

		cost = 5

	completion_reward = {
		log = "[GetDateText]: [Root.GetName]: Focus ETH_defense_of_ethiopia"
			add_ideas = defensive_preparations
		}

		ai_will_do = {
			factor = 1
		}
	}

	shared_focus = {
		id = ETH_expand_the_endf
		icon = ethiopia_endf

		x = -1
		y = 1
		relative_position_id = ETH_defense_of_ethiopia

		cost = 10

		prerequisite = {
			focus = ETH_defense_of_ethiopia
		}

	completion_reward = {
		log = "[GetDateText]: [Root.GetName]: Focus ETH_expand_the_endf"
			army_experience = 15
			add_ideas = rifle_production_bonus
		}

		ai_will_do = {
			factor = 1
		}
	}

	shared_focus = {
		id = ETH_expand_the_etaf
		icon = air_force

		x = 1
		y = 1
		relative_position_id = ETH_defense_of_ethiopia

		cost = 10

		prerequisite = {
			focus = ETH_defense_of_ethiopia
		}

	completion_reward = {
		log = "[GetDateText]: [Root.GetName]: Focus ETH_expand_the_etaf"
			air_experience = 10
		}

		ai_will_do = {
			factor = 1
		}
	}

	shared_focus = {
		id = ETH_secure_the_eritrean_border
		icon = military_fort

		x = 4
		y = 1
		relative_position_id = ETH_defense_of_ethiopia

		cost = 10

		prerequisite = {
			focus = ETH_defense_of_ethiopia
		}

		available = {
			is_neighbor_of = ERI
			OR = {
				NOT = { has_war_with = ERI }
				has_defensive_war_with = ERI
			}
			has_full_control_of_state = 231
		}

		bypass = { }

	completion_reward = {
		log = "[GetDateText]: [Root.GetName]: Focus ETH_secure_the_eritrean_border"
			231 = {
				add_building_construction = { type = bunker province = 520 level = 3 instant_build = yes }
				add_building_construction = { type = bunker province = 533 level = 3 instant_build = yes }
				add_building_construction = { type = bunker province = 518 level = 3 instant_build = yes }
				add_building_construction = { type = bunker province = 510 level = 3 instant_build = yes }
			}
		}

		ai_will_do = {
			factor = 1
		}
	}

	shared_focus = {
		id = ETH_fund_homicho
		icon = small_arms2

		x = -1
		y = 2
		relative_position_id = ETH_defense_of_ethiopia

		cost = 10

		prerequisite = {
			focus = ETH_expand_the_endf
		}

		available = { }

		bypass = { }

	completion_reward = {
		log = "[GetDateText]: [Root.GetName]: Focus ETH_fund_homicho"
			swap_ideas = {
				remove_idea = rifle_production_bonus
				add_idea = rifle_production_bonus2
			}
		}

		ai_will_do = {
			factor = 1
		}
	}

	shared_focus = {
		id = ETH_air_training_program
		icon = air_defense

		x = 1
		y = 2
		relative_position_id = ETH_defense_of_ethiopia

		cost = 10

		prerequisite = {
			focus = ETH_expand_the_etaf
		}

	completion_reward = {
		log = "[GetDateText]: [Root.GetName]: Focus ETH_air_training_program"
			air_experience = 15
		}

		ai_will_do = {
			factor = 1
		}
	}

	shared_focus = {
		id = ETH_secure_the_somali_border
		icon = military_fort

		x = 3
		y = 2
		relative_position_id = ETH_defense_of_ethiopia

		cost = 10

		prerequisite = {
			focus = ETH_secure_the_eritrean_border
		}

		available = {
			is_neighbor_of = SOM
			OR = {
				NOT = { has_war_with = SOM }
				has_defensive_war_with = SOM
			}
			has_full_control_of_state = 236
		}

		bypass = { }

	completion_reward = {
		log = "[GetDateText]: [Root.GetName]: Focus ETH_secure_the_somali_border"
			236 = {
				add_building_construction = { type = bunker province = 8062 level = 3 instant_build = yes }
				add_building_construction = { type = bunker province = 4995 level = 3 instant_build = yes }
				add_building_construction = { type = bunker province = 208 level = 3 instant_build = yes }
				add_building_construction = { type = bunker province = 12812 level = 3 instant_build = yes }
				add_building_construction = { type = bunker province = 12757 level = 3 instant_build = yes }
			}
		}

		ai_will_do = {
			factor = 1
		}
	}

	shared_focus = {
		id = ETH_secure_the_kenyan_border
		icon = military_fort

		x = 5
		y = 2
		relative_position_id = ETH_defense_of_ethiopia

		cost = 10

		prerequisite = {
			focus = ETH_secure_the_eritrean_border
		}

		available = {
			is_neighbor_of = KEN
			OR = {
				NOT = { has_war_with = KEN }
				has_defensive_war_with = KEN
			}
			has_full_control_of_state = 234
			has_full_control_of_state = 235
			has_full_control_of_state = 236
		}

	completion_reward = {
		log = "[GetDateText]: [Root.GetName]: Focus ETH_secure_the_kenyan_border"
			235 = {
				add_building_construction = { type = bunker province = 8019 level = 3 instant_build = yes }
			}
			234 = {
				add_building_construction = { type = bunker province = 163 level = 3 instant_build = yes }
			}
			236 = {
				add_building_construction = { type = bunker province = 8062 level = 3 instant_build = yes }
			}
		}

		ai_will_do = {
			factor = 1
		}
	}

	shared_focus = {
		id = ETH_modern_officer_corps
		icon = gentleman_officers

		x = -2
		y = 3
		relative_position_id = ETH_defense_of_ethiopia

		cost = 10

		prerequisite = {
			focus = ETH_fund_homicho
		}

		available = {
			OR = {
				has_completed_focus = ETH_guarantee_freedom_of_religion
				has_completed_focus = ETH_imperial_nostalgia
			}
		}

		bypass = { }

	completion_reward = {
		log = "[GetDateText]: [Root.GetName]: Focus ETH_modern_officer_corps"
			add_ideas = commander_skill_bonus
		}

		ai_will_do = {
			factor = 1
		}
	}

	shared_focus = {
		id = ETH_expand_the_military
		icon = entente

		x = 0
		y = 3
		relative_position_id = ETH_defense_of_ethiopia

		cost = 10

		prerequisite = {
			focus = ETH_air_training_program
		}
		prerequisite = {
			focus = ETH_fund_homicho
		}

		search_filters = {FOCUS_FILTER_MANPOWER}

		available = { }

		bypass = { }

	completion_reward = {
		log = "[GetDateText]: [Root.GetName]: Focus ETH_expand_the_military"
			add_ideas = additional_recruits2
		}

		ai_will_do = {
			factor = 1
		}
	}

	shared_focus = {
		id = ETH_aircraft_production
		icon = air_production

		x = 2
		y = 3
		relative_position_id = ETH_defense_of_ethiopia

		cost = 10

		prerequisite = {
			focus = ETH_air_training_program
		}

	completion_reward = {
		log = "[GetDateText]: [Root.GetName]: Focus ETH_aircraft_production"
			add_ideas = fighter_production_bonus
		}

		ai_will_do = {
			factor = 1
		}
	}

	shared_focus = {
		id = ETH_secure_the_sudanese_border
		icon = military_fort

		x = 4
		y = 3
		relative_position_id = ETH_defense_of_ethiopia

		cost = 10

		prerequisite = {
			focus = ETH_secure_the_eritrean_border
		}

		available = {
			is_neighbor_of = SUD
			OR = {
				NOT = { has_war_with = SUD }
				has_defensive_war_with = SUD
			}
			has_full_control_of_state = 231
			has_full_control_of_state = 232
			has_full_control_of_state = 233
			has_full_control_of_state = 235
		}

		bypass = { }

	completion_reward = {
		log = "[GetDateText]: [Root.GetName]: Focus ETH_secure_the_sudanese_border"
			231 = {
				add_building_construction = { type = bunker province = 520 level = 3 instant_build = yes }
			}
			232 = {
				add_building_construction = { type = bunker province = 2040 level = 3 instant_build = yes }
				add_building_construction = { type = bunker province = 471 level = 3 instant_build = yes }
				add_building_construction = { type = bunker province = 396 level = 3 instant_build = yes }
				add_building_construction = { type = bunker province = 352 level = 3 instant_build = yes }
			}
			233 = {
				add_building_construction = { type = bunker province = 2009 level = 3 instant_build = yes }
			}
			235 = {
				add_building_construction = { type = bunker province = 315 level = 3 instant_build = yes }
				add_building_construction = { type = bunker province = 7912 level = 3 instant_build = yes }
				add_building_construction = { type = bunker province = 8019 level = 3 instant_build = yes }
			}
		}

		ai_will_do = {
			factor = 1
		}
	}

	shared_focus = {
		id = ETH_study_foreign_armor_designs
		icon = license_production

		x = -1
		y = 4
		relative_position_id = ETH_defense_of_ethiopia

		cost = 10

		prerequisite = {
			focus = ETH_fund_homicho
		}

		search_filters = {FOCUS_FILTER_RESEARCH}

		available = {
			if = {
				limit = { is_subject = yes }
				OVERLORD = {
					has_opinion = { target = ETH value > 0 }
				}
			}
			else = {
				num_of_military_factories > 5
			}
		}

		completion_reward = {
			log = "[GetDateText]: [Root.GetName]: Focus ETH_study_foreign_armor_designs"
			add_tech_bonus = {
				name = Cat_TANKS
				bonus = 0.7
				category = Cat_TANKS
			}
		}

		ai_will_do = {
			factor = 1
		}
	}

	shared_focus = {
		id = ETH_study_foreign_aircraft_designs
		icon = bombers

		x = 1
		y = 4
		relative_position_id = ETH_defense_of_ethiopia

		cost = 10

		prerequisite = { focus = ETH_air_training_program }

		search_filters = {FOCUS_FILTER_RESEARCH}

		available = {
			if = {
				limit = { is_subject = yes }
				OVERLORD = {
					has_opinion = { target = ETH value > 0 }
				}
			}
			else = {
				num_of_military_factories > 5
			}
		}

		completion_reward = {
			log = "[GetDateText]: [Root.GetName]: Focus ETH_study_foreign_aircraft_designs"
			add_tech_bonus = {
				name = ETH_study_foreign_aircraft_designs
				bonus = 0.4
				uses = 2
				category = Cat_FIXED_WING
			}
		}

		ai_will_do = {
			factor = 1
		}
	}

	shared_focus = {
		id = ETH_request_chinese_military_assistance
		icon = align_to_china

		x = -1
		y = 5
		relative_position_id = ETH_defense_of_ethiopia

		cost = 10

		prerequisite = {
			focus = ETH_study_foreign_aircraft_designs
			focus = ETH_study_foreign_armor_designs
		}

		mutually_exclusive = {
			focus = ETH_request_american_military_assistance
		}

		available = { }

		bypass = { }

	completion_reward = {
		log = "[GetDateText]: [Root.GetName]: Focus ETH_request_chinese_military_assistance"
			CHI = {
				add_opinion_modifier = {
					target = ETH
					modifier = has_expressed_loyalty
				}
			}
			every_country = {
				limit = {
					NOT = { original_tag = CHI }
					is_in_faction_with = CHI
				}
				add_opinion_modifier = {
					target = ETH
					modifier = political_outreach
				}
			}
			news_event = {
				id = ethiopia_news.1
				hours = 6
			}
		}

		ai_will_do = {
			factor = 1
		}
	}

	shared_focus = {
		id = ETH_request_american_military_assistance
		icon = align_to_america

		x = 1
		y = 5
		relative_position_id = ETH_defense_of_ethiopia

		cost = 10

		prerequisite = {
			focus = ETH_study_foreign_aircraft_designs
			focus = ETH_study_foreign_armor_designs
		}

		mutually_exclusive = {
			focus = ETH_request_chinese_military_assistance
		}

		available = { }

		bypass = { }

	completion_reward = {
		log = "[GetDateText]: [Root.GetName]: Focus ETH_request_american_military_assistance"
			USA = {
				add_opinion_modifier = {
					target = ETH
					modifier = has_expressed_loyalty
				}
			}
			every_country = {
				limit = {
					NOT = { original_tag = USA }
					is_in_faction_with = USA
				}
				add_opinion_modifier = {
					target = ETH
					modifier = political_outreach
				}
			}
			news_event = {
				id = ethiopia_news.2
				hours = 6
			}
		}

		ai_will_do = {
			factor = 1

			modifier = {
				factor = 0
				is_historical_focus_on = yes
			}
		}
	}

	shared_focus = {
		id = ETH_modernize_the_military
		icon = army_logistics

		x = 0
		y = 6
		relative_position_id = ETH_defense_of_ethiopia

		cost = 10

		prerequisite = {
			focus = ETH_request_american_military_assistance
			focus = ETH_request_chinese_military_assistance
		}

		available = { }

		bypass = { }

	completion_reward = {
		log = "[GetDateText]: [Root.GetName]: Focus ETH_modernize_the_military"
			add_ideas = army_morale_bonus
		}

		ai_will_do = {
			factor = 1
		}
	}

	shared_focus = {
		id = ETH_land_doctrine
		icon = army_doctrine

		x = -1
		y = 7
		relative_position_id = ETH_defense_of_ethiopia

		cost = 10

		prerequisite = {
			focus = ETH_modernize_the_military
		}

		search_filters = {FOCUS_FILTER_RESEARCH}

		available = { }

		bypass = { }

	completion_reward = {
		log = "[GetDateText]: [Root.GetName]: Focus ETH_land_doctrine"
			add_tech_bonus = {
				name = land_doc_bonus
				bonus = 0.35
				uses = 2
				category = land_doctrine
			}
		}

		ai_will_do = {
			factor = 1
		}
	}

	shared_focus = {
		id = ETH_air_doctrine
		icon = air_doctrine

		x = 1
		y = 7
		relative_position_id = ETH_defense_of_ethiopia

		cost = 10

		prerequisite = {
			focus = ETH_modernize_the_military
		}

		search_filters = {FOCUS_FILTER_RESEARCH}

		available = { }

		bypass = { }

	completion_reward = {
		log = "[GetDateText]: [Root.GetName]: Focus ETH_air_doctrine"
			add_tech_bonus = {
				name = air_doc_bonus
				bonus = 0.5
				uses = 1
				category = air_doctrine
			}
		}

		ai_will_do = {
			factor = 1
		}
	}

	#Future of Ethiopia

	shared_focus = {
		id = ETH_the_future_of_ethiopia
		icon = ethiopia_eth

		x = 26
		y = 0

		cost = 10

		prerequisite = { }



		search_filters = {FOCUS_FILTER_POLITICAL}

		available = { }

		bypass = { }

	completion_reward = {
		log = "[GetDateText]: [Root.GetName]: Focus ETH_the_future_of_ethiopia"
			#TODO add_ideas = government_expansion2 #There are no advisors as of yet. Revisit
			add_political_power = 100
		}

		ai_will_do = {
			factor = 1
		}
	}

	##Monarchist

	shared_focus = {
		id = ETH_legacy_of_abyssinia
		icon = monarchism2

		x = -4
		y = 1
		relative_position_id = ETH_the_future_of_ethiopia

		cost = 10

		prerequisite = {
			focus = ETH_the_future_of_ethiopia
		}

		mutually_exclusive = {
			focus = ETH_strengthen_the_republic
		}
		mutually_exclusive = {
			focus = ETH_declare_mengistu_innocent
		}

		search_filters = {FOCUS_FILTER_POLITICAL}

		available = { }

		bypass = { }

	completion_reward = {
		log = "[GetDateText]: [Root.GetName]: Focus ETH_legacy_of_abyssinia"
			add_popularity = {
				ideology = nationalist
				popularity = 0.15
			}
			add_to_variable = { Monarchist_pop = 0.15 }
			recalculate_party = yes
			add_ideas = { ETH_idea_monarchist }
		}

		ai_will_do = {
			factor = 1

			modifier = {
				factor = 0
				is_historical_focus_on = yes
			}
		}
	}

	shared_focus = {
		id = ETH_endorse_the_monarchists
		icon = monarchism

		x = -1
		y = 1
		relative_position_id = ETH_legacy_of_abyssinia

		cost = 10

		prerequisite = {
			focus = ETH_legacy_of_abyssinia
		}

		search_filters = {FOCUS_FILTER_POLITICAL}



		available = { }

		bypass = { }

	completion_reward = {
		log = "[GetDateText]: [Root.GetName]: Focus ETH_endorse_the_monarchists"
			add_popularity = {
				ideology = nationalist
				popularity = 0.1
			}
			add_to_variable = { Monarchist_pop = 0.1 }
			recalculate_party = yes
		}

		ai_will_do = {
			factor = 1
		}
	}

	shared_focus = {
		id = ETH_glorify_the_italo_ethiopian_wars
		icon = ethiopia_italy_war

		x = 1
		y = 1
		relative_position_id = ETH_legacy_of_abyssinia

		cost = 10

		prerequisite = {
			focus = ETH_legacy_of_abyssinia
		}



		search_filters = {FOCUS_FILTER_POLITICAL FOCUS_FILTER_WAR_SUPPORT}

		available = {
			NOT = { has_completed_focus = ETH_italian_ethiopian_friendship }
		}

		bypass = { }

	completion_reward = {
		log = "[GetDateText]: [Root.GetName]: Focus ETH_glorify_the_italo_ethiopian_wars"
			add_popularity = {
				ideology = nationalist
				popularity = 0.1
			}
			add_to_variable = { Monarchist_pop = 0.1 }
			recalculate_party = yes
			add_war_support = 0.05
			#swap_ideas = { #No Advisors
				#	remove_idea = government_expansion2
				#	add_idea = government_expansion4
				#}
		}

		ai_will_do = {
			factor = 1
		}
	}

	shared_focus = {
		id = ETH_restore_the_throne
		icon = ethiopia_royal_symbol

		x = 0
		y = 2
		relative_position_id = ETH_legacy_of_abyssinia

		cost = 10

		prerequisite = {
			focus = ETH_endorse_the_monarchists
			focus = ETH_glorify_the_italo_ethiopian_wars
		}
		search_filters = { FOCUS_FILTER_POLITICAL }

		available = {
			nationalist > 0.45
		}

		bypass = { }

	completion_reward = {
		log = "[GetDateText]: [Root.GetName]: Focus ETH_restore_the_throne"
			set_politics = {
				ruling_party = nationalist
				elections_allowed = no
			}
			set_country_flag = col_leader_Monarchist
			hidden_effect = {
				create_country_leader = {
					name = "Crown Council of Ethiopia"
					picture = "Portrait_Regency_Council_Ethiopia.dds"
					ideology = Monarchist
				}
			}
		}

		ai_will_do = {
			factor = 1
		}
	}

	shared_focus = {
		id = ETH_befriend_jamaica
		icon = improve_relations_cyan

		x = -2
		y = 3
		relative_position_id = ETH_legacy_of_abyssinia

		cost = 10

		prerequisite = {
			focus = ETH_restore_the_throne
		}

		available = {
			country_exists = JAM
			is_puppet = no
			OR = {
				JAM = { is_puppet = no }
				JAM = { is_puppet_of = ETH }
			}
		}

		bypass = { }

		completion_reward = {
		log = "[GetDateText]: [Root.GetName]: Focus ETH_befriend_jamaica"
			JAM = {
				add_opinion_modifier = {
					target = ETH
					modifier = has_expressed_loyalty
				}
			}
		}

		ai_will_do = {
			factor = 1
		}
	}

	shared_focus = {
		id = ETH_invite_zera_yacob
		icon = monarchism2

		x = 0
		y = 3
		relative_position_id = ETH_legacy_of_abyssinia

		cost = 10

		prerequisite = {
			focus = ETH_restore_the_throne
		}

		search_filters = {FOCUS_FILTER_POLITICAL}

		completion_reward = {
		log = "[GetDateText]: [Root.GetName]: Focus ETH_invite_zera_yacob"
			custom_effect_tooltip = ETH_zera_yacob_returns_TT
			hidden_effect = {
				clear_array = ruling_party
				clear_array = gov_coalition_array
				add_to_array = { ruling_party = 23 }
				update_government_coalition_strength = yes
				update_party_name = yes
				set_coalition_drift = yes
				set_variable = { Monarchist_leader = 0 }
			}
			set_politics = {
				ruling_party = nationalist
				elections_allowed = no
			}
			news_event = { id = ethiopia_news.3 days = 2 }
		}

		ai_will_do = {
			factor = 1
		}
	}

	shared_focus = {
		id = ETH_weaken_the_parliament
		icon = anti_establishment2

		x = -1
		y = 4
		relative_position_id = ETH_legacy_of_abyssinia

		cost = 10

		prerequisite = {
			focus = ETH_invite_zera_yacob
		}

		search_filters = {FOCUS_FILTER_INTERNAL_FACTION FOCUS_FILTER_POLITICAL}

		completion_reward = {
			log = "[GetDateText]: [Root.GetName]: Focus ETH_weaken_the_parliament"
			add_popularity = {
				ideology = nationalist
				popularity = 0.05
			}
			add_to_variable = { party_pop_array^23 = 0.05 }
			recalculate_party = yes
			add_political_power = 200
			increase_oligarchs_opinion = yes
		}

		ai_will_do = {
			factor = 1
		}
	}

	shared_focus = {
		id = ETH_imperial_nostalgia
		icon = monarchism

		x = 1
		y = 4
		relative_position_id = ETH_legacy_of_abyssinia

		cost = 10

		prerequisite = {
			focus = ETH_invite_zera_yacob
		}

		search_filters = {FOCUS_FILTER_POLITICAL}

		completion_reward = {
			log = "[GetDateText]: [Root.GetName]: Focus ETH_imperial_nostalgia"
			add_popularity = {
				ideology = nationalist
				popularity = 0.05
			}
			add_to_variable = { Monarchist_pop = 0.05 }
			recalculate_party = yes
			add_ideas = army_organization_bonus
		}

		ai_will_do = {
			factor = 1
		}
	}

	shared_focus = {
		id = ETH_imperial_guard
		icon = army_reform

		x = 2
		y = 5
		relative_position_id = ETH_legacy_of_abyssinia

		cost = 10

		prerequisite = {
			focus = ETH_imperial_nostalgia
		}

		completion_reward = {
			log = "[GetDateText]: [Root.GetName]: Focus ETH_imperial_guard"
			hidden_effect = {
				load_oob = "ETH_imperial_guard_oob"
			}
			custom_effect_tooltip = ETH_imperial_guard_TT
		}

		ai_will_do = {
			factor = 1
		}
	}

	shared_focus = {
		id = ETH_reclaim_eritrea
		icon = attack_eritrea

		x = 0
		y = 5
		relative_position_id = ETH_legacy_of_abyssinia

		cost = 10

		prerequisite = {
			focus = ETH_weaken_the_parliament
		}
		prerequisite = {
			focus = ETH_imperial_nostalgia
		}

		search_filters = {FOCUS_FILTER_ANNEXATION}

		available = {
			NOT = {
				ERI = {
					NOT = { is_puppet_of = ETH }
				}
			}
			country_exists = ERI
		}

		bypass = { NOT = { country_exists = ERI } }

		completion_reward = {
		log = "[GetDateText]: [Root.GetName]: Focus ETH_reclaim_eritrea"
			create_wargoal = {
				target = ERI
				type = annex_everything
			}
		}

		ai_will_do = {
			factor = 1
		}
	}

	##Democratic

	shared_focus = {
		id = ETH_strengthen_the_republic
		icon = democracy

		x = 0
		y = 1
		relative_position_id = ETH_the_future_of_ethiopia

		cost = 10

		prerequisite = {
			focus = ETH_the_future_of_ethiopia
		}

		mutually_exclusive = {
			focus = ETH_legacy_of_abyssinia
		}
		mutually_exclusive = {
			focus = ETH_declare_mengistu_innocent
		}

		search_filters = {FOCUS_FILTER_WAR_SUPPORT}

		available = { }

		bypass = { }

		completion_reward = {
			log = "[GetDateText]: [Root.GetName]: Focus ETH_strengthen_the_republic"
			add_war_support = 0.05
			increase_oligarchs_opinion = yes
		}

		ai_will_do = {
			factor = 1
		}
	}

	shared_focus = {
		id = ETH_guarantee_freedom_of_speech
		icon = liberal_press

		x = -1
		y = 1
		relative_position_id = ETH_strengthen_the_republic

		cost = 10

		prerequisite = {
			focus = ETH_strengthen_the_republic
		}

		search_filters = {FOCUS_FILTER_POLITICAL}

		available = {
			has_completed_focus = ETH_expand_the_diplomatic_corps
		}

		bypass = { }

		completion_reward = {
			log = "[GetDateText]: [Root.GetName]: Focus ETH_guarantee_freedom_of_speech"
			swap_ideas = {
				remove_idea = political_power_bonus
				add_idea = political_power_bonus2
			}
		}

		ai_will_do = {
			factor = 1
		}
	}

	shared_focus = {
		id = ETH_healthcare_program
		icon = generic_healthcare

		x = 1
		y = 1
		relative_position_id = ETH_strengthen_the_republic

		cost = 10

		prerequisite = {
			focus = ETH_strengthen_the_republic
		}

		search_filters = {FOCUS_FILTER_EXPENDITURE}

		available = { }

		bypass = { }

		completion_reward = {
			log = "[GetDateText]: [Root.GetName]: Focus ETH_healthcare_program"
			increase_healthcare_budget = yes
		}

		ai_will_do = {
			factor = 1
		}
	}

	shared_focus = {
		id = ETH_guarantee_freedom_of_religion
		icon = religious_partnership_catholic_sunni

		x = -1
		y = 2
		relative_position_id = ETH_strengthen_the_republic

		cost = 10

		prerequisite = {
			focus = ETH_guarantee_freedom_of_speech
		}

		search_filters = {FOCUS_FILTER_POLITICAL FOCUS_FILTER_STABILITY FOCUS_FILTER_WAR_SUPPORT}

		available = {
		}

		bypass = { }

		completion_reward = {
		log = "[GetDateText]: [Root.GetName]: Focus ETH_guarantee_freedom_of_religion"
			add_stability = 0.01
			add_political_power = 50
			add_war_support = 0.05
		}

		ai_will_do = {
			factor = 1
		}
	}

	shared_focus = {
		id = ETH_education_program
		icon = research3

		x = 1
		y = 2
		relative_position_id = ETH_strengthen_the_republic

		cost = 10

		prerequisite = {
			focus = ETH_healthcare_program
		}

		search_filters = {FOCUS_FILTER_EXPENDITURE FOCUS_FILTER_RESEARCH}

		available = { }

		bypass = { }

		completion_reward = {
			log = "[GetDateText]: [Root.GetName]: Focus ETH_education_program"
			add_ideas = scientific_advances
			add_research_slot = 1
			increase_education_budget = yes
		}

		ai_will_do = {
			factor = 1
		}
	}

	shared_focus = {
		id = ETH_endorse_the_african_union
		icon = align_to_africa

		x = 0
		y = 3
		relative_position_id = ETH_strengthen_the_republic

		cost = 10

		prerequisite = {
			focus = ETH_strengthen_the_republic
		}

		search_filters = {FOCUS_FILTER_POLITICAL}

		available = { }

		bypass = { }

	completion_reward = {
		log = "[GetDateText]: [Root.GetName]: Focus ETH_endorse_the_african_union"
			every_country = {
				limit = {
					capital_scope = { is_on_continent = africa }
					is_puppet = no
					NOT = { has_war_with = ETH }
					NOT = { original_tag = ETH }
					NOT = { original_tag = ERI }
				}
				add_opinion_modifier = {
					target = ETH
					modifier = has_expressed_loyalty
				}
			}
			add_political_power = 100
		}

		ai_will_do = {
			factor = 1
		}
	}

	shared_focus = {
		id = ETH_reckless_industrial_expansion
		icon = industry_civilian

		x = -1
		y = 4
		relative_position_id = ETH_strengthen_the_republic

		cost = 10

		prerequisite = {
			focus = ETH_endorse_the_african_union
			focus = ETH_invite_zera_yacob
		}

		mutually_exclusive = {
			focus = ETH_secure_agricultural_production
		}

		available = { }

		bypass = { }

		completion_reward = {
			log = "[GetDateText]: [Root.GetName]: Focus ETH_reckless_industrial_expansion"
			231 = {
				add_extra_state_shared_building_slots = 3
			}
			232 = {
				add_extra_state_shared_building_slots = 3
			}
			233 = {
				add_extra_state_shared_building_slots = 3
			}
			234 = {
				add_extra_state_shared_building_slots = 3
			}
			235 = {
				add_extra_state_shared_building_slots = 3
			}
			236 = {
				add_extra_state_shared_building_slots = 3
			}
		}

		ai_will_do = {
			factor = 1
		}
	}

	shared_focus = {
		id = ETH_secure_agricultural_production
		icon = agriculture

		x = 1
		y = 4
		relative_position_id = ETH_strengthen_the_republic

		cost = 10

		prerequisite = {
			focus = ETH_endorse_the_african_union
			focus = ETH_national_communism
		}

		mutually_exclusive = {
			focus = ETH_reckless_industrial_expansion
		}

		search_filters = {FOCUS_FILTER_STABILITY}

		available = { }

		bypass = { }

		completion_reward = {
		log = "[GetDateText]: [Root.GetName]: Focus ETH_secure_agricultural_production"
			add_stability = 0.05
		}

		ai_will_do = {
			factor = 1
		}
	}

	##Communist
	shared_focus = {
		id = ETH_declare_mengistu_innocent
		icon = communism11

		x = 4
		y = 1
		relative_position_id = ETH_the_future_of_ethiopia

		cost = 10

		prerequisite = { focus = ETH_the_future_of_ethiopia }
		mutually_exclusive = { focus = ETH_legacy_of_abyssinia }
		mutually_exclusive = { focus = ETH_strengthen_the_republic }

		search_filters = {FOCUS_FILTER_POLITICAL}

		completion_reward = {
			log = "[GetDateText]: [Root.GetName]: Focus ETH_declare_mengistu_innocent"
			news_event = {
				id = ethiopia_news.4
				hours = 6
			}
			add_popularity = {
				ideology = communism
				popularity = 0.15
			}
			add_to_variable = { party_pop_array^4 = 0.15 }
			add_to_variable = { party_pop_array^5 = -0.15 }
			recalculate_party = yes
		}

		ai_will_do = {
			factor = 1

			modifier = {
				factor = 0
				is_historical_focus_on = yes
			}
		}
	}

	shared_focus = {
		id = ETH_condemn_the_pretenders
		icon = anti_monarchism2

		x = -1
		y = 1
		relative_position_id = ETH_declare_mengistu_innocent

		cost = 10

		prerequisite = {
			focus = ETH_declare_mengistu_innocent
		}

		search_filters = {FOCUS_FILTER_POLITICAL}

		completion_reward = {
			log = "[GetDateText]: [Root.GetName]: Focus ETH_condemn_the_pretenders"
			add_popularity = {
				ideology = communism
				popularity = 0.05
			}
			add_to_variable = { Communist-State_pop = 0.05 }
			add_to_variable = { party_pop_array^5 = -0.05 }
			recalculate_party = yes
		}

		ai_will_do = {
			factor = 1
		}
	}

	shared_focus = {
		id = ETH_return_of_mengistu
		icon = communism9

		x = 1
		y = 1
		relative_position_id = ETH_declare_mengistu_innocent

		cost = 10

		prerequisite = {
			focus = ETH_declare_mengistu_innocent
		}



		search_filters = {FOCUS_FILTER_POLITICAL}

		available = { }

		bypass = { }

	completion_reward = {
		log = "[GetDateText]: [Root.GetName]: Focus ETH_return_of_mengistu"
			add_popularity = {
				ideology = communism
				popularity = 0.15
			}
			add_to_variable = { party_pop_array^4 = 0.15 }
			add_to_variable = { party_pop_array^5 = -0.15 }
			recalculate_party = yes
			news_event = {
				id = ethiopia_news.5
				hours = 6
			}
			create_country_leader = {
				name = "Mengistu Haile Mariam"
				ideology = Communist-State
				picture = "Portrait_Mengistu_Haile_Mariam.dds"
			}
		}

		ai_will_do = {
			factor = 1
		}
	}

	shared_focus = {
		id = ETH_restore_the_pdre
		icon = communism3

		x = 0
		y = 2
		relative_position_id = ETH_declare_mengistu_innocent

		cost = 10

		prerequisite = {
			focus = ETH_condemn_the_pretenders
		}
		prerequisite = {
			focus = ETH_return_of_mengistu
		}



		search_filters = {FOCUS_FILTER_POLITICAL}

		available = { }

		bypass = { }

	completion_reward = {
		log = "[GetDateText]: [Root.GetName]: Focus ETH_restore_the_pdre"
			add_popularity = {
				ideology = communism
				popularity = 0.15
			}
			add_to_variable = { party_pop_array^4 = 0.15 }
			recalculate_party = yes
			hidden_effect = {
				clear_array = ruling_party
				clear_array = gov_coalition_array
				add_to_array = { ruling_party = 4 }
				update_government_coalition_strength = yes
				update_party_name = yes
				set_coalition_drift = yes
				set_variable = { Communist-State_leader = 0 }
			}
			set_politics = {
				ruling_party = communism
				elections_allowed = no
			}
			news_event = {
				id = ethiopia_news.6
				hours = 6
			}
		}

		ai_will_do = {
			factor = 1
		}
	}

	shared_focus = {
		id = ETH_national_communism
		icon = ethiopian_communism

		x = -1
		y = 3
		relative_position_id = ETH_declare_mengistu_innocent

		cost = 10

		prerequisite = {
			focus = ETH_restore_the_pdre
		}

		mutually_exclusive = {
			focus = ETH_align_to_china
		}

		search_filters = {FOCUS_FILTER_MANPOWER FOCUS_FILTER_POLITICAL}

		available = { }

		bypass = { }

	completion_reward = {
		log = "[GetDateText]: [Root.GetName]: Focus ETH_national_communism"
			add_popularity = {
				ideology = communism
				popularity = 0.05
			}
			add_to_variable = { Communist-State_pop = 0.05 }
			recalculate_party = yes
			set_rule = { can_create_factions = yes }
			add_ideas = communist_militias
		}

		ai_will_do = {
			factor = 1
		}
	}

	shared_focus = {
		id = ETH_align_to_china
		icon = peoples_republic_of_china

		x = 1
		y = 3
		relative_position_id = ETH_declare_mengistu_innocent

		cost = 10

		prerequisite = {
			focus = ETH_restore_the_pdre
		}

		mutually_exclusive = {
			focus = ETH_national_communism
		}

		available = {
			has_completed_focus = ETH_request_chinese_military_assistance
			has_completed_focus = ETH_establish_connections_with_tongji
		}

		bypass = { }

	completion_reward = {
		log = "[GetDateText]: [Root.GetName]: Focus ETH_align_to_china"
			CHI = {
				add_opinion_modifier = {
					target = ETH
					modifier = has_expressed_loyalty
				}
			}
		}

		ai_will_do = {
			factor = 1
		}
	}

	shared_focus = {
		id = ETH_pan_african_communism
		icon = ethiopia_african_communism

		x = -1
		y = 4
		relative_position_id = ETH_declare_mengistu_innocent

		cost = 10

		prerequisite = { focus = ETH_national_communism }
		available = { }

		bypass = { }

		completion_reward = {
			log = "[GetDateText]: [Root.GetName]: Focus ETH_pan_african_communism"
			every_country = {
				limit = {
					is_in_africa = yes
					NOT = { has_government = communism }
					is_puppet = no
				}
				add_popularity = { ideology = communism popularity = 0.15 }
				add_to_variable = { party_pop_array^4 = 0.15 } #Communist-State
				recalculate_party = yes
			}
		}

			ai_will_do = {
				factor = 1
			}
	}

