	shared_focus = {
		id = GCC_the_gcc
		icon = gcc

		x = 32
		y = 9
		offset = {
			x = -25
			y = -2
			trigger = {
				OR = {
					tag = JOR
					tag = IRQ
					tag = YEM
					tag = MOR
					tag = EGY
				}
			}
		}

		cost = 10

		cancel_if_invalid = yes
		available_if_capitulated = no

		search_filters = {FOCUS_FILTER_POLITICAL}

		available = {
			has_idea = idea_gcc_member_state
			custom_trigger_tooltip = {
				tooltip = gcc_dominant_member_tt
				has_country_flag = gcc_dominant_member
			}
			custom_trigger_tooltip = {
				tooltip = gcc_unity_greater_0_tt
				check_variable = { global.gcc_unity > 0 }
			}
		}

		bypass = {
			custom_trigger_tooltip = {
				tooltip = gcc_focus_completed_tt
				has_global_flag = GCC_the_gcc_completed
			}
			has_idea = idea_gcc_member_state
		}

		completion_reward = {
			add_political_power = 25
			set_global_flag = GCC_the_gcc_completed
			log = "[GetDateText]: [This.GetName]: focus GCC_the_gcc executed"
		}

		ai_will_do = {
			base = 10
		}
	}

	shared_focus = {
		id = GCC_economic_union
		icon = money

		x = -4
		y = 1
		relative_position_id = GCC_the_gcc

		cost = 10

		cancel_if_invalid = yes
		available_if_capitulated = no
		prerequisite = { focus = GCC_the_gcc }

		available = {
			has_idea = idea_gcc_member_state
			custom_trigger_tooltip = {
				tooltip = gcc_dominant_member_tt
				has_country_flag = gcc_dominant_member
			}
			custom_trigger_tooltip = {
				tooltip = gcc_unity_greater_0_tt
				check_variable = { global.gcc_unity > 0 }
			}
		}

		bypass = {
			custom_trigger_tooltip = {
				tooltip = gcc_focus_completed_tt
				has_global_flag = GCC_economic_union_completed
			}
			has_idea = idea_gcc_member_state
		}

		completion_reward = {
			every_country = {
				limit = { has_idea = idea_gcc_member_state }
				if = {
					limit = { NOT = { original_tag = BHR } BHR = { has_idea = idea_gcc_member_state }}
					add_opinion_modifier = {
						target = BHR
						modifier = large_commercial_relations
					}
				}
				if = {
					limit = { NOT = { original_tag = EGY } EGY = { has_idea = idea_gcc_member_state }}
					add_opinion_modifier = {
						target = EGY
						modifier = large_commercial_relations
					}
				}
				if = {
					limit = { NOT = { original_tag = JOR } JOR = { has_idea = idea_gcc_member_state }}
					add_opinion_modifier = {
						target = JOR
						modifier = large_commercial_relations
					}
				}
				if = {
					limit = { NOT = { original_tag = KUW } KUW = { has_idea = idea_gcc_member_state }}
					add_opinion_modifier = {
						target = KUW
						modifier = large_commercial_relations
					}
				}
				if = {
					limit = { NOT = { original_tag = IRQ } IRQ = { has_idea = idea_gcc_member_state }}
					add_opinion_modifier = {
						target = IRQ
						modifier = large_commercial_relations
					}
				}
				if = {
					limit = { NOT = { original_tag = MOR } MOR = { has_idea = idea_gcc_member_state }}
					add_opinion_modifier = {
						target = MOR
						modifier = large_commercial_relations
					}
				}
				if = {
					limit = { NOT = { original_tag = OMA } OMA = { has_idea = idea_gcc_member_state }}
					add_opinion_modifier = {
						target = OMA
						modifier = large_commercial_relations
					}
				}
				if = {
					limit = { NOT = { original_tag = QAT } QAT = { has_idea = idea_gcc_member_state }}
					add_opinion_modifier = {
						target = QAT
						modifier = large_commercial_relations
					}
				}
				if = {
					limit = { NOT = { original_tag = SAU } SAU = { has_idea = idea_gcc_member_state }}
					add_opinion_modifier = {
						target = SAU
						modifier = large_commercial_relations
					}
				}
				if = {
					limit = { NOT = { original_tag = UAE } UAE = { has_idea = idea_gcc_member_state }}
					add_opinion_modifier = {
						target = UAE
						modifier = large_commercial_relations
					}
				}
				if = {
					limit = { NOT = { original_tag = YEM } YEM = { has_idea = idea_gcc_member_state }}
					add_opinion_modifier = {
						target = YEM
						modifier = large_commercial_relations
					}
				}
			}
			set_global_flag = GCC_economic_union_completed
			log = "[GetDateText]: [This.GetName]: focus GCC_economic_union executed"
		}

		ai_will_do = {
			base = 1
		}
	}

	shared_focus = {
		id = GCC_intra_gcc_trade
		icon = trade

		x = -6
		y = 2
		relative_position_id = GCC_the_gcc

		cost = 10

		cancel_if_invalid = yes
		available_if_capitulated = no
		prerequisite = { focus = GCC_economic_union }

		search_filters = {FOCUS_FILTER_INTERNAL_FACTION}

		available = {
			has_idea = idea_gcc_member_state
			custom_trigger_tooltip = {
				tooltip = gcc_dominant_member_tt
				has_country_flag = gcc_dominant_member
			}
			custom_trigger_tooltip = {
				tooltip = gcc_unity_greater_20_tt
				check_variable = { global.gcc_unity > 20 }
			}
		}

		bypass = {
			custom_trigger_tooltip = {
				tooltip = gcc_focus_completed_tt
				has_global_flag = GCC_intra_gcc_trade_completed
			}
			has_idea = idea_gcc_member_state
		}

		completion_reward = {
			every_country = {
				limit = { has_idea = idea_gcc_member_state }
				if = {
					limit = { NOT = { original_tag = BHR } BHR = { has_idea = idea_gcc_member_state }}
					add_opinion_modifier = {
						target = BHR
						modifier = improve_trade
					}
				}
				if = {
					limit = { NOT = { original_tag = EGY } EGY = { has_idea = idea_gcc_member_state }}
					add_opinion_modifier = {
						target = EGY
						modifier = improve_trade
					}
				}
				if = {
					limit = { NOT = { original_tag = JOR } JOR = { has_idea = idea_gcc_member_state }}
					add_opinion_modifier = {
						target = JOR
						modifier = improve_trade
					}
				}
				if = {
					limit = { NOT = { original_tag = KUW } KUW = { has_idea = idea_gcc_member_state }}
					add_opinion_modifier = {
						target = KUW
						modifier = improve_trade
					}
				}
				if = {
					limit = { NOT = { original_tag = IRQ } IRQ = { has_idea = idea_gcc_member_state }}
					add_opinion_modifier = {
						target = IRQ
						modifier = improve_trade
					}
				}
				if = {
					limit = { NOT = { original_tag = MOR } MOR = { has_idea = idea_gcc_member_state }}
					add_opinion_modifier = {
						target = MOR
						modifier = improve_trade
					}
				}
				if = {
					limit = { NOT = { original_tag = OMA } OMA = { has_idea = idea_gcc_member_state }}
					add_opinion_modifier = {
						target = OMA
						modifier = improve_trade
					}
				}
				if = {
					limit = { NOT = { original_tag = QAT } QAT = { has_idea = idea_gcc_member_state }}
					add_opinion_modifier = {
						target = QAT
						modifier = improve_trade
					}
				}
				if = {
					limit = { NOT = { original_tag = SAU } SAU = { has_idea = idea_gcc_member_state }}
					add_opinion_modifier = {
						target = SAU
						modifier = improve_trade
					}
				}
				if = {
					limit = { NOT = { original_tag = UAE } UAE = { has_idea = idea_gcc_member_state }}
					add_opinion_modifier = {
						target = UAE
						modifier = improve_trade
					}
				}
				if = {
					limit = { NOT = { original_tag = YEM } YEM = { has_idea = idea_gcc_member_state }}
					add_opinion_modifier = {
						target = YEM
						modifier = improve_trade
					}
				}
			}
			custom_effect_tooltip = GCC_unity_increase_2_tt
			add_to_variable = { global.gcc_unity = 2 }
			clamp_variable = {
				var = global.gcc_unity
				min = 0
				max = 100
			}
			increase_small_medium_business_owners_opinion = yes
			set_global_flag = GCC_intra_gcc_trade_completed
			log = "[GetDateText]: [This.GetName]: focus GCC_intra_gcc_trade executed"
		}

		ai_will_do = {
			base = 1
		}
	}

	shared_focus = {
		id = GCC_standardize_regulations
		icon = research3

		x = -6
		y = 3
		relative_position_id = GCC_the_gcc

		cost = 20

		cancel_if_invalid = yes
		available_if_capitulated = no
		prerequisite = { focus = GCC_intra_gcc_trade }

		search_filters = {FOCUS_FILTER_RESEARCH}

		available = {
			has_idea = idea_gcc_member_state
			custom_trigger_tooltip = {
				tooltip = gcc_dominant_member_tt
				has_country_flag = gcc_dominant_member
			}
			custom_trigger_tooltip = {
				tooltip = gcc_unity_greater_50_tt
				check_variable = { global.gcc_unity > 50 }
			}
			custom_trigger_tooltip = {
				tooltip = gcc_no_veto_tt
				NOT = {
					any_of_scopes = {
						array = global.gcc_member_state
						has_idea = GCC_veto
					}
				}
			}
		}

		bypass = {
			custom_trigger_tooltip = {
				tooltip = gcc_focus_completed_tt
				has_global_flag = GCC_standardize_regulations_completed
			}
			has_idea = idea_gcc_member_state
		}

		select_effect = {
			every_other_country = {
				limit = { has_idea = idea_gcc_member_state }
				country_event = { id = gcc.1 days = 7 }
			}
		}

		completion_reward = {
			set_global_flag = GCC_standardize_regulations_completed
			every_country = {
				limit = { has_idea = idea_gcc_member_state }
				add_to_tech_sharing_group = GCC_Tech_Share
			}
			custom_effect_tooltip = GCC_unity_increase_5_tt
			add_to_variable = { global.gcc_unity = 5 }
			clamp_variable = {
				var = global.gcc_unity
				min = 0
				max = 100
			}
			log = "[GetDateText]: [This.GetName]: focus GCC_standardize_regulations executed"
		}

		ai_will_do = {
			base = 1
		}
	}

	shared_focus = {
		id = GCC_common_market
		icon = consumer_goods

		x = -4
		y = 2
		relative_position_id = GCC_the_gcc

		cost = 15

		cancel_if_invalid = yes
		available_if_capitulated = no
		prerequisite = { focus = GCC_economic_union }

		search_filters = {FOCUS_FILTER_INFLUENCE FOCUS_FILTER_INTERNAL_FACTION}

		available = {
			has_idea = idea_gcc_member_state
			custom_trigger_tooltip = {
				tooltip = gcc_dominant_member_tt
				has_country_flag = gcc_dominant_member
			}
			custom_trigger_tooltip = {
				tooltip = gcc_unity_greater_20_tt
				check_variable = { global.gcc_unity > 20 }
			}
			custom_trigger_tooltip = {
				tooltip = gcc_no_veto_tt
				NOT = {
					any_of_scopes = {
						array = global.gcc_member_state
						has_idea = GCC_veto
					}
				}
			}
		}

		bypass = {
			custom_trigger_tooltip = {
				tooltip = gcc_focus_completed_tt
				has_global_flag = GCC_common_market_completed
			}
			has_idea = idea_gcc_member_state
		}

		select_effect = {
			every_other_country = {
				limit = { has_idea = idea_gcc_member_state }
				country_event = { id = gcc.2 days = 7 }
			}
		}

		completion_reward = {
			set_global_flag = GCC_common_market_completed
			every_country = {
				limit = { has_idea = idea_gcc_member_state }
				if = {
					limit = { NOT = { original_tag = BHR } BHR = { has_idea = idea_gcc_member_state }}
					add_opinion_modifier = {
						target = BHR
						modifier = common_market
					}
				}
				if = {
					limit = { NOT = { original_tag = EGY } EGY = { has_idea = idea_gcc_member_state }}
					add_opinion_modifier = {
						target = EGY
						modifier = common_market
					}
				}
				if = {
					limit = { NOT = { original_tag = JOR } JOR = { has_idea = idea_gcc_member_state }}
					add_opinion_modifier = {
						target = JOR
						modifier = common_market
					}
				}
				if = {
					limit = { NOT = { original_tag = KUW } KUW = { has_idea = idea_gcc_member_state }}
					add_opinion_modifier = {
						target = KUW
						modifier = common_market
					}
				}
				if = {
					limit = { NOT = { original_tag = IRQ } IRQ = { has_idea = idea_gcc_member_state }}
					add_opinion_modifier = {
						target = IRQ
						modifier = common_market
					}
				}
				if = {
					limit = { NOT = { original_tag = MOR } MOR = { has_idea = idea_gcc_member_state }}
					add_opinion_modifier = {
						target = MOR
						modifier = common_market
					}
				}
				if = {
					limit = { NOT = { original_tag = OMA } OMA = { has_idea = idea_gcc_member_state }}
					add_opinion_modifier = {
						target = OMA
						modifier = common_market
					}
				}
				if = {
					limit = { NOT = { original_tag = QAT } QAT = { has_idea = idea_gcc_member_state }}
					add_opinion_modifier = {
						target = QAT
						modifier = common_market
					}
				}
				if = {
					limit = { NOT = { original_tag = SAU } SAU = { has_idea = idea_gcc_member_state }}
					add_opinion_modifier = {
						target = SAU
						modifier = common_market
					}
				}
				if = {
					limit = { NOT = { original_tag = UAE } UAE = { has_idea = idea_gcc_member_state }}
					add_opinion_modifier = {
						target = UAE
						modifier = common_market
					}
				}
				if = {
					limit = { NOT = { original_tag = YEM } YEM = { has_idea = idea_gcc_member_state }}
					add_opinion_modifier = {
						target = YEM
						modifier = common_market
					}
				}
			}
			every_other_country = {
				limit = { has_idea = idea_gcc_member_state }
				generic_grant_2_percent_influence_of_ROOT = yes
			}
			custom_effect_tooltip = GCC_unity_increase_5_tt
			add_to_variable = { global.gcc_unity = 5 }
			clamp_variable = {
				var = global.gcc_unity
				min = 0
				max = 100
			}
			increase_small_medium_business_owners_opinion = yes
			log = "[GetDateText]: [This.GetName]: focus GCC_common_market executed"
		}

		ai_will_do = {
			base = 1
		}
	}

	shared_focus = {
		id = GCC_monetary_union
		icon = generic_banks

		x = -4
		y = 3
		relative_position_id = GCC_the_gcc

		cost = 20

		cancel_if_invalid = yes
		available_if_capitulated = no
		prerequisite = { focus = GCC_common_market }

		search_filters = {FOCUS_FILTER_INDUSTRY FOCUS_FILTER_INFLUENCE}

		available = {
			has_idea = idea_gcc_member_state
			custom_trigger_tooltip = {
				tooltip = gcc_dominant_member_tt
				has_country_flag = gcc_dominant_member
			}
			custom_trigger_tooltip = {
				tooltip = gcc_unity_greater_50_tt
				check_variable = { global.gcc_unity > 50 }
			}
			custom_trigger_tooltip = {
				tooltip = gcc_no_veto_tt
				NOT = {
					any_of_scopes = {
						array = global.gcc_member_state
						has_idea = GCC_veto
					}
				}
			}
		}

		bypass = {
			custom_trigger_tooltip = {
				tooltip = gcc_focus_completed_tt
				has_global_flag = GCC_monetary_union_completed
			}
			has_idea = idea_gcc_member_state
		}

		select_effect = {
			every_other_country = {
				limit = { has_idea = idea_gcc_member_state }
				country_event = { id = gcc.3 days = 7 }
			}
		}

		completion_reward = {
			set_global_flag = GCC_monetary_union_completed
			every_country = {
				limit = { has_idea = idea_gcc_member_state }
				add_ideas = { khaleeji }
			}
			every_other_country = {
				limit = { has_idea = idea_gcc_member_state }
				generic_grant_2_percent_influence_of_ROOT = yes
			}
			custom_effect_tooltip = GCC_unity_increase_10_tt
			add_to_variable = { global.gcc_unity = 10 }
			clamp_variable = {
				var = global.gcc_unity
				min = 0
				max = 100
			}
			every_country = { news_event = { id = gcc.14 }}
			log = "[GetDateText]: [This.GetName]: focus GCC_monetary_union executed"
		}

		ai_will_do = {
			base = 1
		}
	}

	shared_focus = {
		id = GCC_cross_border_transit_systems
		icon = infrastructure

		x = -2
		y = 2
		relative_position_id = GCC_the_gcc

		cost = 10

		cancel_if_invalid = yes
		available_if_capitulated = no
		prerequisite = { focus = GCC_economic_union }

		search_filters = {FOCUS_FILTER_INFLUENCE FOCUS_FILTER_INTERNAL_FACTION}

		available = {
			has_idea = idea_gcc_member_state
			custom_trigger_tooltip = {
				tooltip = gcc_dominant_member_tt
				has_country_flag = gcc_dominant_member
			}
			custom_trigger_tooltip = {
				tooltip = gcc_unity_greater_20_tt
				check_variable = { global.gcc_unity > 20 }
			}
			custom_trigger_tooltip = {
				tooltip = GCC_cross_border_transit_systems_tt
				if = {
					limit = { SAU = {has_idea = idea_gcc_member_state}}
					174 = { infrastructure > 5 }
					175 = { infrastructure > 5 }
				}
				if = {
					limit = { BHR = {has_idea = idea_gcc_member_state}}
					423 = { infrastructure > 5 }
				}
				if = {
					limit = { KUW = {has_idea = idea_gcc_member_state}}
					172 = { infrastructure > 5 }
				}
				if = {
					limit = { OMA = {has_idea = idea_gcc_member_state}}
					182 = { infrastructure > 5 }
					183 = { infrastructure > 5 }
				}
				if = {
					limit = { QAT = {has_idea = idea_gcc_member_state}}
					181 = { infrastructure > 5 }
				}
				if = {
					limit = { UAE = {has_idea = idea_gcc_member_state}}
					179 = { infrastructure > 5 }
					180 = { infrastructure > 5 }
				}
				if = {
					limit = { IRQ = {has_idea = idea_gcc_member_state}}
					168 = { infrastructure > 5 }
					171 = { infrastructure > 5 }
				}
				if = {
					limit = { JOR = {has_idea = idea_gcc_member_state}}
					211 = { infrastructure > 5 }
					212 = { infrastructure > 5 }
				}
			}
		}

		bypass = {
			custom_trigger_tooltip = {
				tooltip = gcc_focus_completed_tt
				has_global_flag = GCC_cross_border_transit_systems_completed
			}
			has_idea = idea_gcc_member_state
		}

		completion_reward = {
			set_global_flag = GCC_cross_border_transit_systems_completed
			every_other_country = {
				limit = { has_idea = idea_gcc_member_state }
				generic_grant_2_percent_influence_of_ROOT = yes
			}
			custom_effect_tooltip = GCC_unity_increase_2_tt
			add_to_variable = { global.gcc_unity = 2 }
			clamp_variable = {
				var = global.gcc_unity
				min = 0
				max = 100
			}
			increase_small_medium_business_owners_opinion = yes
			log = "[GetDateText]: [This.GetName]: focus GCC_cross_border_transit_systems executed"
		}

		ai_will_do = {
			base = 1
		}
	}

	shared_focus = {
		id = GCC_military_union
		icon = military_mission

		x = 0
		y = 1
		relative_position_id = GCC_the_gcc

		cost = 10

		cancel_if_invalid = yes
		available_if_capitulated = no
		prerequisite = { focus = GCC_the_gcc }

		available = {
			has_idea = idea_gcc_member_state
			custom_trigger_tooltip = {
				tooltip = gcc_dominant_member_tt
				has_country_flag = gcc_dominant_member
			}
			custom_trigger_tooltip = {
				tooltip = gcc_unity_greater_0_tt
				check_variable = { global.gcc_unity > 0 }
			}
		}

		bypass = {
			custom_trigger_tooltip = {
				tooltip = gcc_focus_completed_tt
				has_global_flag = GCC_military_union_completed
			}
			has_idea = idea_gcc_member_state
		}

		completion_reward = {
			set_global_flag = GCC_military_union_completed
			every_country = {
				limit = { has_idea = idea_gcc_member_state }
				army_experience = 10
				navy_experience = 10
				air_experience = 10
			}
			log = "[GetDateText]: [This.GetName]: focus GCC_military_union executed"
		}

		ai_will_do = {
			base = 10
		}
	}

	shared_focus = {
		id = GCC_joint_defense_agreement
		icon = military_sphere

		x = 0
		y = 2
		relative_position_id = GCC_the_gcc

		cost = 10

		cancel_if_invalid = yes
		available_if_capitulated = no
		prerequisite = { focus = GCC_military_union }

		available = {
			has_idea = idea_gcc_member_state
			custom_trigger_tooltip = {
				tooltip = gcc_dominant_member_tt
				has_country_flag = gcc_dominant_member
			}
			custom_trigger_tooltip = {
				tooltip = gcc_unity_greater_40_tt
				check_variable = { global.gcc_unity > 40 }
			}
			custom_trigger_tooltip = {
				tooltip = gcc_no_veto_tt
				NOT = {
					any_of_scopes = {
						array = global.gcc_member_state
						has_idea = GCC_veto
					}
				}
			}
		}

		bypass = {
			custom_trigger_tooltip = {
				tooltip = gcc_focus_completed_tt
				has_global_flag = GCC_joint_defense_agreement_completed
			}
			has_idea = idea_gcc_member_state
		}

		select_effect = {
			every_other_country = {
				limit = { has_idea = idea_gcc_member_state }
				country_event = { id = gcc.4  days = 7 }
			}
		}

		completion_reward = {
			set_global_flag = GCC_joint_defense_agreement_completed
			every_country = {
				limit = { has_idea = idea_gcc_member_state }
				if = {
					limit = { NOT = { original_tag = BHR } BHR = { has_idea = idea_gcc_member_state }}
					give_guarantee = BHR
				}
				if = {
					limit = { NOT = { original_tag = EGY } EGY = { has_idea = idea_gcc_member_state }}
					give_guarantee = EGY
				}
				if = {
					limit = { NOT = { original_tag = JOR } JOR = { has_idea = idea_gcc_member_state }}
					give_guarantee = JOR
				}
				if = {
					limit = { NOT = { original_tag = KUW } KUW = { has_idea = idea_gcc_member_state }}
					give_guarantee = KUW
				}
				if = {
					limit = { NOT = { original_tag = IRQ } IRQ = { has_idea = idea_gcc_member_state }}
					give_guarantee = IRQ
				}
				if = {
					limit = { NOT = { original_tag = MOR } MOR = { has_idea = idea_gcc_member_state }}
					give_guarantee = MOR
				}
				if = {
					limit = { NOT = { original_tag = OMA } OMA = { has_idea = idea_gcc_member_state }}
					give_guarantee = OMA
				}
				if = {
					limit = { NOT = { original_tag = QAT } QAT = { has_idea = idea_gcc_member_state }}
					give_guarantee = QAT
				}
				if = {
					limit = { NOT = { original_tag = SAU } SAU = { has_idea = idea_gcc_member_state }}
					give_guarantee = SAU
				}
				if = {
					limit = { NOT = { original_tag = UAE } UAE = { has_idea = idea_gcc_member_state }}
					give_guarantee = UAE
				}
				if = {
					limit = { NOT = { original_tag = YEM } YEM = { has_idea = idea_gcc_member_state }}
					give_guarantee = YEM
				}
			}
			custom_effect_tooltip = GCC_unity_increase_5_tt
			add_to_variable = { global.gcc_unity = 5 }
			clamp_variable = {
				var = global.gcc_unity
				min = 0
				max = 100
			}
			if = {
				limit = { has_start_date < 2016.01.01 }
				every_country = { news_event = { id = gcc.15 }}
			}
			log = "[GetDateText]: [This.GetName]: focus GCC_joint_defense_agreement executed"
		}

		ai_will_do = {
			base = 10
		}
	}

	shared_focus = {
		id = GCC_gulf_academy
		icon = military_academy

		x = -1
		y = 3
		relative_position_id = GCC_the_gcc

		cost = 15

		cancel_if_invalid = yes
		available_if_capitulated = no
		prerequisite = { focus = GCC_joint_defense_agreement }

		search_filters = {FOCUS_FILTER_MILITARY_LAWS}

		available = {
			has_idea = idea_gcc_member_state
			custom_trigger_tooltip = {
				tooltip = gcc_dominant_member_tt
				has_country_flag = gcc_dominant_member
			}
			custom_trigger_tooltip = {
				tooltip = gcc_unity_greater_50_tt
				check_variable = { global.gcc_unity > 50 }
			}
			custom_trigger_tooltip = {
				tooltip = gcc_no_veto_tt
				NOT = {
					any_of_scopes = {
						array = global.gcc_member_state
						has_idea = GCC_veto
					}
				}
			}
		}

		select_effect = {
			every_other_country = {
				limit = { has_idea = idea_gcc_member_state }
				country_event = { id = gcc.6  days = 7 }
			}
		}

		bypass = {
			custom_trigger_tooltip = {
				tooltip = gcc_focus_completed_tt
				has_global_flag = GCC_gulf_academy_completed
			}
			has_idea = idea_gcc_member_state
		}

		completion_reward = {
			set_global_flag = GCC_gulf_academy_completed
			every_country = {
				limit  = { has_idea = idea_gcc_member_state }
				if = {
					limit = { has_idea = officer_baptism_by_fire }
					swap_ideas = {
						remove_idea = officer_baptism_by_fire
						add_idea = officer_military_academy
					}
				}
				if = {
					limit = { has_idea = officer_basic_training }
					swap_ideas = {
						remove_idea = officer_basic_training
						add_idea = officer_military_academy
					}
				}
				if = {
					limit = { has_idea = officer_advanced_training }
					swap_ideas = {
						remove_idea = officer_advanced_training
						add_idea = officer_military_academy
					}
				}
				if = {
					limit = { has_idea = officer_military_school }
					swap_ideas = {
						remove_idea = officer_military_school
						add_idea = officer_military_academy
					}
				}
			}
			custom_effect_tooltip = GCC_unity_increase_5_tt
			add_to_variable = { global.gcc_unity = 5 }
			clamp_variable = {
				var = global.gcc_unity
				min = 0
				max = 100
			}
			log = "[GetDateText]: [This.GetName]: focus GCC_gulf_academy executed"
		}

		ai_will_do = {
			base = 10
		}
	}

	shared_focus = {
		id = GCC_limited_unified_command
		icon = gentleman_officers

		x = 1
		y = 3
		relative_position_id = GCC_the_gcc

		cost = 15

		cancel_if_invalid = yes
		available_if_capitulated = no
		prerequisite = { focus = GCC_joint_defense_agreement }

		available = {
			has_idea = idea_gcc_member_state
			custom_trigger_tooltip = {
				tooltip = gcc_dominant_member_tt
				has_country_flag = gcc_dominant_member
			}
			custom_trigger_tooltip = {
				tooltip = gcc_unity_greater_50_tt
				check_variable = { global.gcc_unity > 50 }
			}
			custom_trigger_tooltip = {
				tooltip = gcc_no_veto_tt
				NOT = {
					any_of_scopes = {
						array = global.gcc_member_state
						has_idea = GCC_veto
					}
				}
			}
		}

		select_effect = {
			every_other_country = {
				limit = { has_idea = idea_gcc_member_state }
				country_event = { id = gcc.7  days = 7 }
			}
		}

		bypass = {
			custom_trigger_tooltip = {
				tooltip = gcc_focus_completed_tt
				has_global_flag = GCC_limited_unified_command_completed
			}
			has_idea = idea_gcc_member_state
		}

		completion_reward = {
			set_global_flag = GCC_limited_unified_command_completed
			custom_effect_tooltip = GCC_limited_unified_command_tt
			hidden_effect = {
				every_other_country = {
					limit = { has_idea = idea_gcc_member_state }
					add_ai_strategy = { type = alliance id = ROOT value = 1200 }
				}
			}
			custom_effect_tooltip = GCC_unity_increase_5_tt
			add_to_variable = { global.gcc_unity = 5 }
			clamp_variable = {
				var = global.gcc_unity
				min = 0
				max = 100
			}
			log = "[GetDateText]: [This.GetName]: focus GCC_limited_unified_command executed"
		}

		ai_will_do = {
			base = 10
		}
	}

	shared_focus = {
		id = GCC_joint_military_ventures
		icon = small_arms3

		x = -1
		y = 4
		relative_position_id = GCC_the_gcc

		cost = 10

		cancel_if_invalid = yes
		available_if_capitulated = no
		prerequisite = { focus = GCC_gulf_academy }
		prerequisite = { focus = GCC_limited_unified_command }

		search_filters = {FOCUS_FILTER_INDUSTRY}

		available = {
			has_idea = idea_gcc_member_state
			custom_trigger_tooltip = {
				tooltip = gcc_dominant_member_tt
				has_country_flag = gcc_dominant_member
			}
			custom_trigger_tooltip = {
				tooltip = gcc_unity_greater_60_tt
				check_variable = { global.gcc_unity > 60 }
			}
			custom_trigger_tooltip = {
				tooltip = gcc_no_veto_tt
				NOT = {
					any_of_scopes = {
						array = global.gcc_member_state
						has_idea = GCC_veto
					}
				}
			}
		}

		bypass = {
			custom_trigger_tooltip = {
				tooltip = gcc_focus_completed_tt
				has_global_flag = GCC_joint_military_ventures_completed
			}
			has_idea = idea_gcc_member_state
		}

		completion_reward = {
			set_global_flag = GCC_joint_military_ventures_completed
			every_country = {
				limit = { has_idea = idea_gcc_member_state }
				add_ideas = joint_gcc_ventures
			}
			custom_effect_tooltip = GCC_unity_increase_5_tt
			add_to_variable = { global.gcc_unity = 5 }
			clamp_variable = {
				var = global.gcc_unity
				min = 0
				max = 100
			}
			log = "[GetDateText]: [This.GetName]: focus GCC_joint_military_ventures executed"
		}

		ai_will_do = {
			base = 1
		}
	}

	shared_focus = {
		id = GCC_a_robust_alliance
		icon = alliance

		x = 1
		y = 4
		relative_position_id = GCC_the_gcc

		cost = 20

		cancel_if_invalid = yes
		available_if_capitulated = no
		prerequisite = { focus = GCC_gulf_academy }
		prerequisite = { focus = GCC_limited_unified_command }

		available = {
			has_idea = idea_gcc_member_state
			custom_trigger_tooltip = {
				tooltip = gcc_dominant_member_tt
				has_country_flag = gcc_dominant_member
			}
			custom_trigger_tooltip = {
				tooltip = gcc_unity_greater_80_tt
				check_variable = { global.gcc_unity > 80 }
			}
			custom_trigger_tooltip = {
				tooltip = gcc_no_veto_tt
				NOT = {
					any_of_scopes = {
						array = global.gcc_member_state
						has_idea = GCC_veto
					}
				}
			}
		}

		select_effect = {
			every_other_country = {
				limit = { has_idea = idea_gcc_member_state }
				country_event = { id = gcc.8  days = 7 }
			}
		}

		bypass = {
			custom_trigger_tooltip = {
				tooltip = gcc_focus_completed_tt
				has_global_flag = GCC_a_robust_alliance_completed
			}
			has_idea = idea_gcc_member_state
		}

		completion_reward = {
			set_global_flag = GCC_a_robust_alliance_completed
			create_faction = PENINSULA_SHIELD
			hidden_effect = {
				every_other_country = {
					limit = { has_idea = idea_gcc_member_state }
					add_ai_strategy = { type = alliance id = ROOT value = 1200 }
				}
			}
			if = {
				limit = { NOT = { tag = BHR } BHR = { has_idea = idea_gcc_member_state }}
				add_to_faction = BHR
			}
			if = {
				limit = { NOT = { tag = KUW } KUW = { has_idea = idea_gcc_member_state }}
				add_to_faction = KUW
			}
			if = {
				limit = { NOT = { tag = OMA } OMA = { has_idea = idea_gcc_member_state }}
				add_to_faction = OMA
			}
			if = {
				limit = { NOT = { tag = QAT } QAT = { has_idea = idea_gcc_member_state }}
				add_to_faction = QAT
			}
			if = {
				limit = { NOT = { tag = SAU } SAU = { has_idea = idea_gcc_member_state }}
				add_to_faction = SAU
			}
			if = {
				limit = { NOT = { tag = UAE } UAE = { has_idea = idea_gcc_member_state }}
				add_to_faction = UAE
			}
			if = {
				limit = { NOT = { tag = EGY } EGY = { has_idea = idea_gcc_member_state }}
				add_to_faction = EGY
			}
			if = {
				limit = { NOT = { tag = IRQ } IRQ = { has_idea = idea_gcc_member_state }}
				add_to_faction = IRQ
			}
			if = {
				limit = { NOT = { tag = JOR } JOR = { has_idea = idea_gcc_member_state }}
				add_to_faction = JOR
			}
			if = {
				limit = { NOT = { tag = MOR } MOR = { has_idea = idea_gcc_member_state }}
				add_to_faction = MOR
			}
			if = {
				limit = { NOT = { tag = YEM } YEM = { has_idea = idea_gcc_member_state }}
				add_to_faction = YEM
			}
			custom_effect_tooltip = GCC_unity_increase_10_tt
			add_to_variable = { global.gcc_unity = 10 }
			clamp_variable = {
				var = global.gcc_unity
				min = 0
				max = 100
			}
			log = "[GetDateText]: [This.GetName]: focus GCC_a_robust_alliance executed"
		}

		ai_will_do = {
			base = 1
		}
	}

	shared_focus = {
		id = GCC_political_union
		icon = aristocratic_funding

		x = 4
		y = 1
		relative_position_id = GCC_the_gcc

		cost = 10

		cancel_if_invalid = yes
		available_if_capitulated = no
		prerequisite = { focus = GCC_the_gcc }

		search_filters = {FOCUS_FILTER_POLITICAL}

		available = {
			has_idea = idea_gcc_member_state
			custom_trigger_tooltip = {
				tooltip = gcc_dominant_member_tt
				has_country_flag = gcc_dominant_member
			}
			custom_trigger_tooltip = {
				tooltip = gcc_unity_greater_0_tt
				check_variable = { global.gcc_unity > 0 }
			}
		}

		bypass = {
			custom_trigger_tooltip = {
				tooltip = gcc_focus_completed_tt
				has_global_flag = GCC_political_union_completed
			}
			has_idea = idea_gcc_member_state
		}

		completion_reward = {
			set_global_flag = GCC_political_union_completed
			every_country = {
				limit = { has_idea = idea_gcc_member_state }
				add_political_power = 50
			}
			log = "[GetDateText]: [This.GetName]: focus GCC_political_union executed"
		}

		ai_will_do = {
			base = 1
		}
	}

	shared_focus = {
		id = GCC_solidify_pro_american_alignment
		icon = american_political_reform

		x = 2
		y = 2
		relative_position_id = GCC_the_gcc

		cost = 10

		cancel_if_invalid = yes
		available_if_capitulated = no
		prerequisite = { focus = GCC_political_union }
		search_filters = {FOCUS_FILTER_INTERNAL_FACTION}

		available = {
			has_idea = idea_gcc_member_state
			custom_trigger_tooltip = {
				tooltip = gcc_dominant_member_tt
				has_country_flag = gcc_dominant_member
			}
			has_completed_focus = GCC_mass_arms_purchases
			custom_trigger_tooltip = {
				tooltip = gcc_unity_greater_50_tt
				check_variable = { global.gcc_unity > 50 }
			}
			NOT = {
				has_completed_focus = GCC_increase_autonomy
				has_completed_focus = GCC_new_partners
			}
		}

		bypass = {
			custom_trigger_tooltip = {
				tooltip = gcc_focus_completed_tt
				has_global_flag = GCC_solidify_pro_american_alignment_completed
			}
			has_idea = idea_gcc_member_state
		}

		completion_reward = {
			set_global_flag = GCC_solidify_pro_american_alignment_completed
			USA = { country_event = { days = 1 id = gcc.11 }}
			custom_effect_tooltip = radicalization_increase_tt
			add_to_variable = { radicalization = 10 }
			clamp_radicalization = yes
			increase_saudi_royal_family_opinion = yes
			decrease_wahabi_ulema_opinion = yes
			decrease_The_Ulema_opinion = yes

			log = "[GetDateText]: [This.GetName]: focus GCC_solidify_pro_american_alignment executed"
		}

		ai_will_do = {
			base = 1
		}
	}

	shared_focus = {
		id = GCC_increase_autonomy
		icon = demand_territory

		x = 4
		y = 2
		relative_position_id = GCC_the_gcc

		cost = 10

		cancel_if_invalid = yes
		available_if_capitulated = no
		prerequisite = { focus = GCC_political_union }

		search_filters = {FOCUS_FILTER_INFLUENCE}

		available = {
			has_idea = idea_gcc_member_state
			custom_trigger_tooltip = {
				tooltip = gcc_dominant_member_tt
				has_country_flag = gcc_dominant_member
			}
			custom_trigger_tooltip = {
				tooltip = gcc_unity_greater_50_tt
				check_variable = { global.gcc_unity > 50 }
			}
			NOT = {
				has_completed_focus = GCC_turkish_bases
				has_completed_focus = GCC_non_aggression_pact
				has_completed_focus = GCC_mass_arms_purchases
				has_completed_focus = GCC_invite_russian_advisors
				has_completed_focus = GCC_security_guarantees
				has_completed_focus = GCC_indian_bases
				has_completed_focus = GCC_foreign_procurement
			}
			OR = {
				NOT = { has_completed_focus = GCC_solidify_pro_american_alignment }
				custom_trigger_tooltip = {
					tooltip = gcc_usa_rejected_tt
					has_global_flag = gcc_usa_rejected
				}
			}
			OR = {
				NOT = { has_completed_focus = GCC_new_partners }
				custom_trigger_tooltip = {
					tooltip = gcc_new_partner_rejected_tt
					has_global_flag = gcc_new_partner_rejected
				}
			}
		}

		bypass = {
			custom_trigger_tooltip = {
				tooltip = gcc_focus_completed_tt
				has_global_flag = GCC_increase_autonomy_completed
			}
			has_idea = idea_gcc_member_state
		}

		completion_reward = {
			set_global_flag = GCC_increase_autonomy_completed
			every_country = {
				limit = { has_idea = idea_gcc_member_state }
				boost_domestic_influence_2_percent = yes
			}
			custom_effect_tooltip = GCC_increase_autonomy_tt
			log = "[GetDateText]: [This.GetName]: focus GCC_increase_autonomy executed"
		}

		ai_will_do = {
			base = 0
			modifier = {
				add = 1
				is_historical_focus_on = no
			}
		}
	}

	shared_focus = {
		id = GCC_pursue_hegemony
		icon = political_pressure_dark_green

		x = 4
		y = 3
		relative_position_id = GCC_the_gcc

		cost = 10

		cancel_if_invalid = yes
		available_if_capitulated = no
		prerequisite = { focus = GCC_increase_autonomy }

		search_filters = {FOCUS_FILTER_INFLUENCE}

		available = {
			has_idea = idea_gcc_member_state
			custom_trigger_tooltip = {
				tooltip = gcc_dominant_member_tt
				has_country_flag = gcc_dominant_member
			}
			custom_trigger_tooltip = {
				tooltip = gcc_unity_greater_75_tt
				check_variable = { global.gcc_unity > 75 }
			}
			NOT = {
				has_completed_focus = GCC_turkish_bases
				has_completed_focus = GCC_non_aggression_pact
				has_completed_focus = GCC_mass_arms_purchases
				has_completed_focus = GCC_invite_russian_advisors
				has_completed_focus = GCC_security_guarantees
				has_completed_focus = GCC_indian_bases
			}
		}

		bypass = {
			custom_trigger_tooltip = {
				tooltip = gcc_focus_completed_tt
				has_global_flag = GCC_pursue_hegemony_completed
			}
			has_idea = idea_gcc_member_state
		}

		completion_reward = {
			set_global_flag = GCC_pursue_hegemony_completed
			every_other_country = {
				limit = { has_idea = idea_gcc_member_state }
				generic_grant_2_percent_influence_of_ROOT = yes
			}
			log = "[GetDateText]: [This.GetName]: focus GCC_pursue_hegemony executed"
		}

		ai_will_do = {
			base = 1
		}
	}

	shared_focus = {
		id = GCC_exploit_authority
		icon = become_puppet

		x = 3
		y = 4
		relative_position_id = GCC_the_gcc

		cost = 15

		cancel_if_invalid = yes
		available_if_capitulated = no
		prerequisite = { focus = GCC_pursue_hegemony }
		mutually_exclusive = { focus = GCC_benign_dominance }

		search_filters = {FOCUS_FILTER_ANNEXATION}

		available = {
			has_idea = idea_gcc_member_state
			custom_trigger_tooltip = {
				tooltip = gcc_dominant_member_tt
				has_country_flag = gcc_dominant_member
			}
			custom_trigger_tooltip = {
				tooltip = gcc_unity_greater_90_tt
				check_variable = { global.gcc_unity > 90 }
			}
			NOT = {
				has_completed_focus = GCC_turkish_bases
				has_completed_focus = GCC_non_aggression_pact
				has_completed_focus = GCC_mass_arms_purchases
				has_completed_focus = GCC_invite_russian_advisors
				has_completed_focus = GCC_security_guarantees
				has_completed_focus = GCC_indian_bases
			}
			custom_trigger_tooltip = {
				tooltip = GCC_exploit_authority1_tt
				if = {
					limit = { NOT = { original_tag = BHR } BHR = { has_idea = idea_gcc_member_state }}
					BHR = {
						set_temp_variable = { temp_idx = -1 }
						any_of = {
							array = influence_array
							check_variable = { v = ROOT }
						}
						set_temp_variable = { temp_idx = i }
						check_variable = { temp_idx > -1 }
						check_variable = { influence_array_calc^temp_idx > 0.50 }
					}
				}
				if = {
					limit = { NOT = { original_tag = KUW } KUW = { has_idea = idea_gcc_member_state }}
					KUW = {
						set_temp_variable = { temp_idx = -1 }
						any_of = {
							array = influence_array
							check_variable = { v = ROOT }
						}
						set_temp_variable = { temp_idx = i }
						check_variable = { temp_idx > -1 }
						check_variable = { influence_array_calc^temp_idx > 0.50 }
					}
				}
				if = {
					limit = { NOT = { original_tag = OMA } OMA = { has_idea = idea_gcc_member_state }}
					OMA = {
						set_temp_variable = { temp_idx = -1 }
						any_of = {
							array = influence_array
							check_variable = { v = ROOT }
						}
						set_temp_variable = { temp_idx = i }
						check_variable = { temp_idx > -1 }
						check_variable = { influence_array_calc^temp_idx > 0.50 }
					}
				}
				if = {
					limit = { NOT = { original_tag = QAT } QAT = { has_idea = idea_gcc_member_state }}
					QAT = {
						set_temp_variable = { temp_idx = -1 }
						any_of = {
							array = influence_array
							check_variable = { v = ROOT }
						}
						set_temp_variable = { temp_idx = i }
						check_variable = { temp_idx > -1 }
						check_variable = { influence_array_calc^temp_idx > 0.50 }
					}
				}
				if = {
					limit = { NOT = { original_tag = SAU } SAU = { has_idea = idea_gcc_member_state }}
					SAU = {
						set_temp_variable = { temp_idx = -1 }
						any_of = {
							array = influence_array
							check_variable = { v = ROOT }
						}
						set_temp_variable = { temp_idx = i }
						check_variable = { temp_idx > -1 }
						check_variable = { influence_array_calc^temp_idx > 0.50 }
					}
				}
				if = {
					limit = { NOT = { original_tag = UAE } UAE = { has_idea = idea_gcc_member_state }}
					UAE = {
						set_temp_variable = { temp_idx = -1 }
						any_of = {
							array = influence_array
							check_variable = { v = ROOT }
						}
						set_temp_variable = { temp_idx = i }
						check_variable = { temp_idx > -1 }
						check_variable = { influence_array_calc^temp_idx > 0.50 }
					}
				}
				if = {
					limit = { NOT = { original_tag = EGY } EGY = { has_idea = idea_gcc_member_state }}
					EGY = {
						set_temp_variable = { temp_idx = -1 }
						any_of = {
							array = influence_array
							check_variable = { v = ROOT }
						}
						set_temp_variable = { temp_idx = i }
						check_variable = { temp_idx > -1 }
						check_variable = { influence_array_calc^temp_idx > 0.50 }
					}
				}
				if = {
					limit = { NOT = { original_tag = IRQ } IRQ = { has_idea = idea_gcc_member_state }}
					IRQ = {
						set_temp_variable = { temp_idx = -1 }
						any_of = {
							array = influence_array
							check_variable = { v = ROOT }
						}
						set_temp_variable = { temp_idx = i }
						check_variable = { temp_idx > -1 }
						check_variable = { influence_array_calc^temp_idx > 0.50 }
					}
				}
				if = {
					limit = { NOT = { original_tag = JOR } JOR = { has_idea = idea_gcc_member_state }}
					JOR = {
						set_temp_variable = { temp_idx = -1 }
						any_of = {
							array = influence_array
							check_variable = { v = ROOT }
						}
						set_temp_variable = { temp_idx = i }
						check_variable = { temp_idx > -1 }
						check_variable = { influence_array_calc^temp_idx > 0.50 }
					}
				}
				if = {
					limit = { NOT = { original_tag = MOR } MOR = { has_idea = idea_gcc_member_state }}
					MOR = {
						set_temp_variable = { temp_idx = -1 }
						any_of = {
							array = influence_array
							check_variable = { v = ROOT }
						}
						set_temp_variable = { temp_idx = i }
						check_variable = { temp_idx > -1 }
						check_variable = { influence_array_calc^temp_idx > 0.50 }
					}
				}
				if = {
					limit = { NOT = { original_tag = YEM } YEM = { has_idea = idea_gcc_member_state }}
					YEM = {
						set_temp_variable = { temp_idx = -1 }
						any_of = {
							array = influence_array
							check_variable = { v = ROOT }
						}
						set_temp_variable = { temp_idx = i }
						check_variable = { temp_idx > -1 }
						check_variable = { influence_array_calc^temp_idx > 0.50 }
					}
				}
			}
		}

		bypass = {
			custom_trigger_tooltip = {
				tooltip = gcc_focus_completed_tt
				has_global_flag = GCC_exploit_authority_completed
			}
			has_idea = idea_gcc_member_state
		}

		completion_reward = {
			set_global_flag = GCC_exploit_authority_completed
			if = {
				limit = { NOT = { original_tag = BHR } BHR = { has_idea = idea_gcc_member_state }}
				puppet = BHR
			}
			if = {
				limit = { NOT = { original_tag = EGY } EGY = { has_idea = idea_gcc_member_state }}
				puppet = EGY
			}
			if = {
				limit = { NOT = { original_tag = JOR } JOR = { has_idea = idea_gcc_member_state }}
				puppet = JOR
			}
			if = {
				limit = { NOT = { original_tag = KUW } KUW = { has_idea = idea_gcc_member_state }}
				puppet = KUW
			}
			if = {
				limit = { NOT = { original_tag = IRQ } IRQ = { has_idea = idea_gcc_member_state }}
				puppet = IRQ
			}
			if = {
				limit = { NOT = { original_tag = MOR } MOR = { has_idea = idea_gcc_member_state }}
				puppet = MOR
			}
			if = {
				limit = { NOT = { original_tag = OMA } OMA = { has_idea = idea_gcc_member_state }}
				puppet = OMA
			}
			if = {
				limit = { NOT = { original_tag = QAT } QAT = { has_idea = idea_gcc_member_state }}
				puppet = QAT
			}
			if = {
				limit = { NOT = { original_tag = SAU } SAU = { has_idea = idea_gcc_member_state }}
				puppet = SAU
			}
			if = {
				limit = { NOT = { original_tag = UAE } UAE = { has_idea = idea_gcc_member_state }}
				puppet = UAE
			}
			if = {
				limit = { NOT = { original_tag = YEM } YEM = { has_idea = idea_gcc_member_state }}
				puppet = YEM
			}
			every_country = { news_event = { id = gcc.16 }}
			log = "[GetDateText]: [This.GetName]: focus GCC_exploit_authority executed"
		}

		ai_will_do = {
			base = 1
		}
	}

	shared_focus = {
		id = GCC_benign_dominance
		icon = monarchism

		x = 5
		y = 4
		relative_position_id = GCC_the_gcc

		cost = 15

		cancel_if_invalid = yes
		available_if_capitulated = no
		prerequisite = { focus = GCC_pursue_hegemony }
		mutually_exclusive = { focus = GCC_exploit_authority }

		available = {
			has_idea = idea_gcc_member_state
			custom_trigger_tooltip = {
				tooltip = gcc_dominant_member_tt
				has_country_flag = gcc_dominant_member
			}
			custom_trigger_tooltip = {
				tooltip = gcc_unity_greater_90_tt
				check_variable = { global.gcc_unity > 90 }
			}
			NOT = {
				has_completed_focus = GCC_turkish_bases
				has_completed_focus = GCC_non_aggression_pact
				has_completed_focus = GCC_mass_arms_purchases
				has_completed_focus = GCC_invite_russian_advisors
				has_completed_focus = GCC_security_guarantees
				has_completed_focus = GCC_indian_bases
			}
			custom_trigger_tooltip = {
				tooltip = GCC_exploit_authority_tt
				NOT = {
					any_of_scopes = {
						array = global.gcc_member_state
						NOT = { tag = ROOT }
						NOT = { check_variable = { influence_array^0 = ROOT }}
					}
					# any_country = {
					# 	has_idea = idea_gcc_member_state
					# 	NOT = { tag = ROOT }
					# 	NOT = { check_variable = { influence_array^0 = ROOT } }
					# }
				}
			}
		}

		bypass = {
			custom_trigger_tooltip = {
				tooltip = gcc_focus_completed_tt
				has_global_flag = GCC_benign_dominance_completed
			}
			has_idea = idea_gcc_member_state
		}

		completion_reward = {
			set_global_flag = GCC_benign_dominance_completed
			custom_effect_tooltip = GCC_unity_increase_25_tt
			add_to_variable = { global.gcc_unity = 25 }
			clamp_variable = {
				var = global.gcc_unity
				min = 0
				max = 100
			}
			log = "[GetDateText]: [This.GetName]: focus GCC_benign_dominance executed"
		}

		ai_will_do = {
			base = 1
		}
	}

	shared_focus = {
		id = GCC_gulf_super_state
		icon = arabian_peninsula

		x = 2
		y = 5
		relative_position_id = GCC_the_gcc

		cost = 20

		cancel_if_invalid = yes
		available_if_capitulated = no
		prerequisite = { focus = GCC_exploit_authority }
		prerequisite = { focus = GCC_a_robust_alliance }

		search_filters = {FOCUS_FILTER_ANNEXATION}

		available = {
			has_idea = idea_gcc_member_state
			custom_trigger_tooltip = {
				tooltip = gcc_dominant_member_tt
				has_country_flag = gcc_dominant_member
			}
			custom_trigger_tooltip = {
				tooltip = gcc_unity_100_tt
				check_variable = { global.gcc_unity = 100 }
			}
			has_completed_focus = GCC_monetary_union
		}

		bypass = {
			custom_trigger_tooltip = {
				tooltip = gcc_focus_completed_tt
				has_global_flag = GCC_gulf_super_state_completed
			}
			has_idea = idea_gcc_member_state
		}

		completion_reward = {
			set_global_flag = GCC_gulf_super_state_completed
			every_other_country = {
				limit = { has_idea = idea_gcc_member_state }
				ROOT = {
					annex_country = {
						target = PREV
						transfer_troops = yes
					}
				}
			}
			every_other_country = {
				limit = { has_idea = idea_gcc_member_state }
				every_owned_state = {
					add_core_of = ROOT
				}
			}
			set_cosmetic_tag = GCC
			every_country = { news_event = { id = gcc.17 }}
			log = "[GetDateText]: [This.GetName]: focus GCC_gulf_super_state executed"
		}

		ai_will_do = {
			base = 1
		}
	}

	shared_focus = {
		id = GCC_new_partners
		icon = dangerous_deal2

		x = 6
		y = 2
		relative_position_id = GCC_the_gcc

		cost = 10

		cancel_if_invalid = yes
		available_if_capitulated = no
		prerequisite = { focus = GCC_political_union }

		available = {
			has_idea = idea_gcc_member_state
			custom_trigger_tooltip = {
				tooltip = gcc_dominant_member_tt
				has_country_flag = gcc_dominant_member
			}
			custom_trigger_tooltip = {
				tooltip = gcc_unity_greater_50_tt
				check_variable = { global.gcc_unity > 50 }
			}
			OR = {
				has_completed_focus = GCC_turkish_bases
				has_completed_focus = GCC_non_aggression_pact
				has_completed_focus = GCC_invite_russian_advisors
				has_completed_focus = GCC_security_guarantees
				has_completed_focus = GCC_indian_bases
			}
			OR = {
				NOT = { has_completed_focus = GCC_solidify_pro_american_alignment }
				custom_trigger_tooltip = {
					tooltip = gcc_usa_rejected_tt
					has_global_flag = gcc_usa_rejected
				}
			}
			NOT = { has_completed_focus = GCC_increase_autonomy }
		}

		bypass = {
			custom_trigger_tooltip = {
				tooltip = gcc_focus_completed_tt
				has_global_flag = GCC_new_partners_completed
			}
			has_idea = idea_gcc_member_state
		}

		completion_reward = {
			set_global_flag = GCC_new_partners_completed
			country_event = { id = gcc.13 }
			log = "[GetDateText]: [This.GetName]: focus GCC_new_partners executed"
		}

		ai_will_do = {
			base = 0
			modifier = {
				add = 1
				is_historical_focus_on = no
			}
		}
	}