#Written by Hiddengearz
# options for map_icon_category:
# For land units: infantry,armored,other
# For sea units: ship,transport,uboat

sub_units = {

	Militia_Bat = { #Rev 3 60% org of L inf - has large counter
		sprite = MD4_infantry_2
		map_icon_category = infantry
		ai_priority = 3
		priority = 5
		active = yes
		type = { infantry }
		group = infantry

		categories = {
			category_front_line
			category_light_infantry
			category_all_infantry
			category_army
			category_militia
		}

		combat_width = 3

		#Size Definitions
		max_strength = 27.69
		max_organisation = 60
		default_morale = 0.3
		manpower = 750

		#Misc Abilities
		training_time = 90
		suppression = 1
		weight = 0.5

		supply_consumption = 0.02

		transport = command_control_equipment

		essential = {
			Inf_equipment
		}

		need = {
			Inf_equipment = 240
			L_AT_Equipment = 6
			AA_Equipment = 2 ##Less AA means less AA defense
		}

		plains = {
			attack = -0.2
			defence = -0.15
		}
		desert = {
			attack = -0.2
			defence = -0.15
		}
		mountain = {
			attack = 0.1
		}
		jungle = {
			attack = 0.1
		}
		marsh = {
			attack = 0.1
		}

	}
	Mot_Militia_Bat = { #Rev 3 60% org of Mot inf - has large counter
		sprite = MD4_motorized
		map_icon_category = infantry
		ai_priority = 3
		priority = 5
		active = yes
		type = { motorized }
		group = mobile

		categories = {
			category_front_line
			category_light_infantry
			category_all_infantry
			category_army
			category_militia
		}

		combat_width = 4

		#Size Definitions
		max_strength = 27.69
		max_organisation = 60
		default_morale = 0.3
		manpower = 820

		#defence = 0.5

		#Misc Abilities
		training_time = 90
		suppression = 1
		weight = 0.5

		supply_consumption = 0.03

		transport = util_vehicle_equipment

		essential = {
			Inf_equipment
			util_vehicle_equipment
		}

		need = {
			Inf_equipment = 240
			L_AT_Equipment = 6
			H_AT_Equipment = 3
			AA_Equipment = 6
			util_vehicle_equipment = 60

		}

		plains = {
			attack = -0.05
			defence = 0.1
		}
		desert = {
			attack = -0.05
			defence = 0.1
		}
		mountain = {
			attack = -0.1
			defence = -0.44
		}
		urban = {
			attack = 0.1 #L Inf worst in urban terrain.
		}
	}
	L_Inf_Bat = { #Rev 3 - has large counter
		sprite = MD4_infantry_2
		map_icon_category = infantry
		ai_priority = 5
		priority = 5
		active = yes
		mountaineers = yes
		type = { infantry }
		group = infantry

		categories = {
			category_front_line
			category_light_infantry
			category_all_infantry
			category_army
			category_non_militia
		}

		combat_width = 3

		#Size Definitions
		max_strength = 25
		max_organisation = 46.15 #C&C gives 30% bonus = 60 org
		default_morale = 0.3
		manpower = 750

		#Misc Abilities
		training_time = 90
		suppression = 1
		weight = 0.5
		supply_consumption = 0.02
		transport = command_control_equipment
		essential = { Inf_equipment }

		need = {
			Inf_equipment = 190
			L_AT_Equipment = 12
			AA_Equipment = 9
			command_control_equipment = 20
		}

		plains = {
			attack = -0.2
			defence = -0.15
		}
		desert = {
			attack = -0.2
			defence = -0.15
		}
		mountain = {
			attack = 0.1
		}
		jungle = {
			attack = 0.1
		}
		marsh = {
			attack = 0.1
		}
	}
	Mot_Inf_Bat = { #Rev 3 - has large counter
		sprite = MD4_motorized
		map_icon_category = infantry
		ai_priority = 5
		priority = 5
		active = yes

		type = {
			motorized
		}

		group = mobile

		categories = {
			category_front_line
			category_light_infantry
			category_all_infantry
			category_army
			category_non_militia
		}

		combat_width = 4

		#Size Definitions
		max_strength = 35
		max_organisation = 46.15 #C&C gives 30% bonus = 60 org
		default_morale = 0.3
		manpower = 920

		#Misc Abilities
		training_time = 90
		suppression = 1
		weight = 1



		supply_consumption = 0.04 #0.11

		transport = util_vehicle_equipment

		essential = {
			Inf_equipment
			util_vehicle_equipment
		}

		need = {
			Inf_equipment = 240
			L_AT_Equipment = 6
			H_AT_Equipment = 6
			AA_Equipment = 9
			command_control_equipment = 20
			util_vehicle_equipment = 60
		}

		plains = {
			attack = -0.05
			defence = 0.1

		}
		hills = {
			attack = 0.05

		}
		desert = {
			attack = -0.05
			defence = 0.1

		}
		mountain = {
			attack = -0.1
			defence = -0.44

		}
		urban = {
			attack = 0.1 #L Inf worst in urban terrain.

		}

	}
	Mech_Inf_Bat = { #Rev 3 - has large counter
		sprite = MD4_mechanized
		map_icon_category = armored

		priority = 5
		active = yes
		type = { mechanized }

		group = armor

		categories = {
			category_front_line
			category_all_infantry
			category_army
			category_all_armor
			category_apc
			category_non_militia
		}

		combat_width = 4

		#Size Definitions
		max_strength = 35
		max_organisation = 46.15 #C&C gives 30% bonus = 60 org
		default_morale = 0.3
		manpower = 700

		#Misc Abilities
		training_time = 120
		suppression = 1
		weight = 1



		supply_consumption = 0.06 #0.18

		# needed since we give so much bonus to infantry even with no mech equipment
		essential = {
			Inf_equipment
			APC_Equipment
		}

		# this is what moves us and sets speed
		transport = APC_Equipment

		need = {
			Inf_equipment = 170
			L_AT_Equipment = 6
			H_AT_Equipment = 6
			AA_Equipment = 9
			command_control_equipment = 20
			APC_Equipment = 60
		}

		desert = {
			attack = 0.2
			defence = 0.2

		}
		plains = {
			attack = 0.2
			defence = 0.05

		}
		forest = {
			attack = -0.1

		}
		hills = {
			attack = -0.14

		}
		mountain = {
			attack = -0.1
			defence = -0.44

		}
		jungle = {
			attack = -0.1

		}
		marsh = {
			attack = -0.1
		}
		urban = {
			attack = 0.15 #L Inf worst in urban terrain.
			attack = 0.15 #L Inf worst in urban terrain.

		}
		# river = {
			# attack = -0.1

		# }
		# amphibious = {
			# attack = -0.2

		# }

	}
	Arm_Inf_Bat = { #Rev 3 - has large counter
		sprite = MD4_light_armor
		map_icon_category = armored
		ai_priority = 5
		priority = 5
		active = yes

		type = {
			mechanized
		}

		group = armor

		categories = {
			category_front_line
			category_all_infantry
			category_army
			category_all_armor
			category_IFV
			category_non_militia
		}

		combat_width = 4

		#Size Definitions
		max_strength = 35
		max_organisation = 46.15 #C&C gives 30% bonus = 60 org
		default_morale = 0.3
		manpower = 700

		#Misc Abilities
		training_time = 120
		suppression = 1
		weight = 1

		#

		supply_consumption = 0.06 #0.18

		# needed since we give so much bonus to infantry even with no mech equipment
		essential = {
			Inf_equipment
			IFV_Equipment
		}

		# this is what moves us and sets speed
		transport = IFV_Equipment

		need = {
			Inf_equipment = 150
			L_AT_Equipment = 9
			AA_Equipment = 9
			command_control_equipment = 20
			IFV_Equipment = 50
		}

		plains = {
			attack = 0.2
			defence = 0.1

		}
		desert = {
			attack = 0.2
			defence = 0.1

		}
		forest = {
			attack = -0.1

		}
		hills = {
			attack = -0.14

		}
		mountain = {
			attack = -0.23
			defence = -0.44

		}
		jungle = {
			attack = -0.2

		}
		marsh = {
			attack = -0.2
		}
		urban = {
			attack = 0.15 #L Inf worst in urban terrain.
			defence = 0.1

		}

	}

	L_Air_Inf_Bat = { #Rev 3 - has large counter
		sprite = MD4_infantry_2
		map_icon_category = infantry
		#special_forces = yes
		ai_priority = 5
		priority = 5
		active = yes

		type = {
			infantry
		}

		group = infantry

		categories = {
			category_front_line
			category_special_forces
			category_light_infantry
			category_all_infantry
			category_army
			category_non_militia
		}

		combat_width = 3

		#Size Definitions
		max_strength = 25
		max_organisation = 61.5 #C&C gives 30% bonus = 80 org
		default_morale = 0.3
		manpower = 800

		#Misc Abilities
		training_time = 90
		suppression = 1
		weight = 0.5



		supply_consumption = 0.02 #0.07

		transport = command_control_equipment

		essential = {
			Inf_equipment
		}

		can_be_parachuted = yes

		need = {
			Inf_equipment = 190
			L_AT_Equipment = 12
			AA_Equipment = 9
			command_control_equipment = 30
		}

		plains = {
			attack = -0.2
			defence = -0.15
		}
		desert = {
			attack = -0.2
			defence = -0.15
		}
		mountain = {
			attack = 0.1
		}
		jungle = {
			attack = 0.1
			#movement = 0.1
		}
		marsh = {
			attack = 0.1
			#movement = 0.1
		}
	}
	Mot_Air_Inf_Bat = { #Rev 3 - has large counter
		sprite = MD4_motorized
		map_icon_category = infantry
		#special_forces = yes
		ai_priority = 5
		priority = 5
		active = yes

		type = {
			motorized
		}

		group = mobile

		categories = {
			category_front_line
			category_special_forces
			category_light_infantry
			category_all_infantry
			category_army
			category_non_militia
		}

		combat_width = 4

		#Size Definitions
		max_strength = 25
		max_organisation = 60
		default_morale = 0.3
		manpower = 920

		#Misc Abilities
		training_time = 90
		suppression = 1
		weight = 0.5



		supply_consumption = 0.04 #0.07

		transport = util_vehicle_equipment

		essential = {
			Inf_equipment
			util_vehicle_equipment
		}

		can_be_parachuted = yes

		need = {
			Inf_equipment = 240
			L_AT_Equipment = 6
			H_AT_Equipment = 6
			AA_Equipment = 9
			command_control_equipment = 30
			util_vehicle_equipment = 60
		}


		plains = {
			attack = -0.05
			defence = 0.1

		}
		hills = {
			attack = 0.05

		}
		desert = {
			attack = -0.05
			defence = 0.1

		}
		mountain = {
			attack = -0.1
			defence = -0.44

		}

		urban = {
			attack = 0.1 #L Inf worst in urban terrain.

		}

	}
	Mech_Air_Inf_Bat = { #Rev 3 - has large counter
		sprite = MD4_mechanized
		map_icon_category = armored
		#special_forces = yes
		ai_priority = 5
		priority = 5
		active = yes

		type = {
			mechanized
		}

		group = armor

		categories = {
			category_front_line
			category_special_forces
			category_all_infantry
			category_army
			category_all_armor
			category_apc
			category_non_militia
		}

		combat_width = 4

		#Size Definitions
		max_strength = 30
		max_organisation = 60
		default_morale = 0.3
		manpower = 700

		#Misc Abilities
		training_time = 120
		suppression = 1
		weight = 1



		supply_consumption = 0.06 #0.18

		# needed since we give so much bonus to infantry even with no mech equipment
		essential = {
			Inf_equipment
			APC_Equipment
		}

		# this is what moves us and sets speed
		transport = APC_Equipment

		can_be_parachuted = yes

		need = {
			Inf_equipment = 170
			L_AT_Equipment = 6
			H_AT_Equipment = 6
			AA_Equipment = 9
			command_control_equipment = 30
			APC_Equipment = 60
		}

		plains = {
			attack = 0.2
			defence = 0.05

		}
		desert = {
			attack = 0.2
			defence = 0.05

		}
		forest = {
			attack = -0.1

		}
		hills = {
			attack = -0.14

		}
		mountain = {
			attack = -0.1
			defence = -0.44

		}
		jungle = {
			attack = -0.1

		}
		marsh = {
			attack = -0.1
		}
		urban = {
			attack = 0.15 #L Inf worst in urban terrain.
			attack = 0.15 #L Inf worst in urban terrain.

		}

	}
	Arm_Air_Inf_Bat = { #Rev 3 - has large counter
		sprite = MD4_light_armor
		map_icon_category = armored
		#special_forces = yes
		ai_priority = 5
		priority = 5
		active = yes

		type = {
			mechanized
		}

		group = armor

		categories = {
			category_front_line
			category_special_forces
			category_all_infantry
			category_army
			category_all_armor
			category_IFV
			category_non_militia
		}

		combat_width = 4

		#Size Definitions
		max_strength = 35
		max_organisation = 60
		default_morale = 0.3
		manpower = 700

		#Misc Abilities
		training_time = 120
		suppression = 1
		weight = 1



		supply_consumption = 0.06 #0.18

		# needed since we give so much bonus to infantry even with no mech equipment
		essential = {
			Inf_equipment
			IFV_Equipment
		}

		# this is what moves us and sets speed
		transport = IFV_Equipment

		can_be_parachuted = yes

		need = {
			Inf_equipment = 150
			L_AT_Equipment = 9
			AA_Equipment = 9
			command_control_equipment = 30
			IFV_Equipment = 60
		}

		plains = {
			attack = 0.2
			defence = 0.1

		}
		desert = {
			attack = 0.2
			defence = 0.1

		}
		forest = {
			attack = -0.1

		}
		hills = {
			attack = -0.14

		}
		mountain = {
			attack = -0.23
			defence = -0.44

		}
		urban = {
			attack = 0.15 #L Inf worst in urban terrain.
			defence = 0.1

		}
		jungle = {
			attack = -0.2

		}
		marsh = {
			attack = -0.2
		}

	}

	L_Marine_Bat = { #Rev 3 - has large counter
		sprite = MD4_infantry_2
		map_icon_category = infantry
		#special_forces = yes
		marines = yes
		ai_priority = 5
		priority = 5
		active = yes

		type = {
			infantry
		}

		group = infantry

		categories = {
			category_front_line
			category_special_forces
			category_light_infantry
			category_all_infantry
			category_army
			category_non_militia
		}

		combat_width = 3

		#Size Definitions
		max_strength = 25
		max_organisation = 61.5 #C&C gives 30% bonus = 80 org
		default_morale = 0.3
		manpower = 800

		#Misc Abilities
		training_time = 90
		suppression = 1
		weight = 0.5



		supply_consumption = 0.02 #0.18

		transport = command_control_equipment

		essential = {
			Inf_equipment
		}

		need = {
			Inf_equipment = 190
			L_AT_Equipment = 12
			AA_Equipment = 9
			command_control_equipment = 30
		}

		plains = {
			attack = -0.2
			defence = -0.15
		}
		desert = {
			attack = -0.2
			defence = -0.15
		}
		mountain = {
			attack = 0.1
		}
		jungle = {
			attack = 0.2
			#movement = 0.1
		}
		marsh = {
			attack = 0.3
		}
		river = {
			attack = 0.4
		}
		amphibious = {
			attack = 0.45
		}


	}
	Mot_Marine_Bat = { #Rev 3 - has large counter
		sprite = MD4_motorized
		map_icon_category = infantry
		#special_forces = yes
		marines = yes
		ai_priority = 5
		priority = 5
		active = yes

		type = {
			motorized
		}

		group = mobile

		categories = {
			category_front_line
			category_special_forces
			category_light_infantry
			category_all_infantry
			category_army
			category_non_militia
		}

		combat_width = 4

		#Size Definitions
		max_strength = 25
		max_organisation = 60
		default_morale = 0.3
		manpower = 920

		#Misc Abilities
		training_time = 90
		suppression = 1
		weight = 0.5



		supply_consumption = 0.04 #0.07

		transport = util_vehicle_equipment

		essential = {
			Inf_equipment
			util_vehicle_equipment
		}

		need = {
			Inf_equipment = 240
			L_AT_Equipment = 6
			H_AT_Equipment = 6
			AA_Equipment = 9
			command_control_equipment = 30
			util_vehicle_equipment = 60
		}

		plains = {
			attack = -0.05
			defence = 0.1

		}
		desert = {
			attack = -0.05
			defence = 0.1

		}
		hills = {
			attack = 0.05

		}
		urban = {
			attack = 0.1 #L Inf worst in urban terrain.

		}
		mountain = {
			attack = -0.1
			defence = -0.44

		}

		marsh = {
			attack = 0.3
		}
		river = {
			attack = 0.4
		}
		amphibious = {
			attack = 0.45
		}

	}
	Mech_Marine_Bat = { #Rev 3 - has large counter
		sprite = MD4_mechanized
		map_icon_category = armored
		#special_forces = yes
		marines = yes
		ai_priority = 5
		priority = 5
		active = yes

		type = {
			mechanized
		}

		group = armor

		categories = {
			category_front_line
			category_special_forces
			category_all_infantry
			category_army
			category_all_armor
			category_apc
			category_non_militia
		}

		combat_width = 4

		#Size Definitions
		max_strength = 30
		max_organisation = 60
		default_morale = 0.3
		manpower = 700

		#Misc Abilities
		training_time = 120
		suppression = 1
		weight = 1



		supply_consumption = 0.06 #0.18

		# needed since we give so much bonus to infantry even with no mech equipment
		essential = {
			Inf_equipment
			APC_Equipment
		}

		# this is what moves us and sets speed
		transport = APC_Equipment

		need = {
			Inf_equipment = 170
			L_AT_Equipment = 6
			H_AT_Equipment = 6
			AA_Equipment = 9
			command_control_equipment = 30
			APC_Equipment = 60
		}

		plains = {
			attack = 0.2
			defence = 0.05

		}
		desert = {
			attack = 0.2
			defence = 0.05

		}
		forest = {
			attack = -0.1

		}
		hills = {
			attack = -0.14

		}
		mountain = {
			attack = -0.1
			defence = -0.44

		}
		urban = {
			attack = 0.15 #L Inf worst in urban terrain.
			attack = 0.15 #L Inf worst in urban terrain.

		}
		marsh = {
			attack = -0.1
		}
		jungle = {
			attack = -0.1

		}
		river = {
			attack = 0.4
		}
		amphibious = {
			attack = 0.45
		}

	}
	Arm_Marine_Bat = { #Rev 3 - has large counter
		sprite = MD4_light_armor
		map_icon_category = armored
		#special_forces = yes
		marines = yes
		ai_priority = 5
		priority = 5
		active = yes

		type = {
			mechanized
		}

		group = armor

		categories = {
			category_front_line
			category_special_forces
			category_all_infantry
			category_army
			category_all_armor
			category_IFV
			category_non_militia
		}

		combat_width = 4

		#Size Definitions
		max_strength = 35
		max_organisation = 60
		default_morale = 0.3
		manpower = 700

		#Misc Abilities
		training_time = 120
		suppression = 1
		weight = 1



		supply_consumption = 0.06 #0.18

		# needed since we give so much bonus to infantry even with no mech equipment
		essential = {
			Inf_equipment
			IFV_Equipment
		}

		# this is what moves us and sets speed
		transport = IFV_Equipment


		need = {
			Inf_equipment = 150
			L_AT_Equipment = 9
			AA_Equipment = 9
			command_control_equipment = 30
			IFV_Equipment = 50
		}


		plains = {
			attack = 0.2
			defence = 0.1
		}
		desert = {
			attack = 0.2
			defence = 0.1
		}
		forest = {
			attack = -0.1

		}
		hills = {
			attack = -0.14

		}
		mountain = {
			attack = -0.23
			defence = -0.44

		}
		urban = {
			attack = 0.15 #L Inf worst in urban terrain.
			defence = 0.1

		}
		jungle = {
			attack = -0.2

		}
		marsh = {
			attack = -0.2
		}
		river = {
			attack = 0.4
		}
		amphibious = {
			attack = 0.45
		}

	}

	L_Air_assault_Bat = { #wip - has large counter
		sprite = MD4_infantry_2
		map_icon_category = infantry
		#special_forces = yes
		ai_priority = 5
		priority = 5
		active = yes

		type = {
			infantry
		}

		group = infantry

		categories = {
			category_front_line
			category_special_forces
			category_light_infantry
			category_all_infantry
			category_army
			category_non_militia
		}

		combat_width = 3

		#Size Definitions
		max_strength = 25
		max_organisation = 61.5 #C&C gives 30% bonus = 80 org
		default_morale = 0.3
		manpower = 800

		#Misc Abilities
		training_time = 90
		suppression = 1
		weight = 0.5



		supply_consumption = 0.03 #0.07

		transport = transport_helicopter_equipment

		essential = {
			Inf_equipment
			transport_helicopter_equipment
		}

		can_be_parachuted = yes
		transport = transport_helicopter_equipment

		need = {
			Inf_equipment = 190
			L_AT_Equipment = 12
			AA_Equipment = 9
			command_control_equipment = 30
			transport_helicopter_equipment = 30
		}

		plains = {
			attack = -0.2
			defence = -0.15
		}
		desert = {
			attack = -0.2
			defence = -0.15
		}
		hills = {
			movement = 0.1 #Cancel default penalty since in helos
		}
		forest = {
			movement = 0.15 #Cancel default penalty since in helos
		}
		mountain = {
			attack = 0.1
			movement = 0.3 #Cancel default penalty since in helos
		}
		urban = {
			movement = 0.2 #Cancel default penalty since in helos
		}
		jungle = {
			attack = 0.1
			movement = 0.3 #Cancel default penalty since in helos
		}
		marsh = {
			attack = 0.1
			movement = 0.3 #Cancel default penalty since in helos
		}
		river = {
			movement = 0.5 #Cancel default penalty since in helos
		}

	}
	Arm_Air_assault_Bat = { #wip - has large counter
		sprite = MD4_light_armor
		map_icon_category = armored
		#special_forces = yes
		ai_priority = 5
		priority = 5
		active = yes

		type = {
			mechanized
		}

		group = armor

		categories = {
			category_front_line
			category_special_forces
			category_all_infantry
			category_army
			category_all_armor
			category_IFV
			category_non_militia
		}

		combat_width = 4

		#Size Definitions
		max_strength = 35
		max_organisation = 60
		default_morale = 0.3
		manpower = 700

		#Misc Abilities
		training_time = 120
		suppression = 1
		weight = 1



		supply_consumption = 0.07 #0.18

		# needed since we give so much bonus to infantry even with no mech equipment
		essential = {
			Inf_equipment
			IFV_Equipment
			transport_helicopter_equipment
		}

		# this is what moves us and sets speed
		transport = transport_helicopter_equipment

		can_be_parachuted = yes

		need = {
			Inf_equipment = 150
			L_AT_Equipment = 9
			AA_Equipment = 9
			command_control_equipment = 30
			IFV_Equipment = 60
			transport_helicopter_equipment = 60
		}

		plains = {
			#attack = 0.1
			defence = 0.1

		}
		desert = {
			#attack = 0.1
			defence = 0.1

		}
		forest = {
			attack = -0.1
			movement = 0.15 #Cancel default penalty since in helos

		}
		hills = {
			attack = -0.14
			movement = 0.1 #Cancel default penalty since in helos

		}
		mountain = {
			attack = -0.23
			defence = -0.44
			movement = 0.3 #Cancel default penalty since in helos

		}
		urban = {
			attack = 0.15
			defence = 0.1
			movement = 0.2 #Cancel default penalty since in helos

		}
		jungle = {
			attack = 0.15
			defence = 0.1
			movement = 0.2 #Cancel default penalty since in helos
		}
		jungle = {
			attack = -0.2

		}
		marsh = {
			attack = -0.2
		}
		river = {
			movement = 0.5 #Cancel default penalty since in helos
		}


	}

	Special_Forces = { #wip - has large counter
		sprite = MD4_infantry_2
		map_icon_category = infantry
		special_forces = yes
		marines = yes
		ai_priority = 3
		priority = 5
		active = yes

		type = {
			infantry
		}

		group = infantry

		categories = {
			category_front_line
			category_special_forces
			category_light_infantry
			category_all_infantry
			category_army
			category_non_militia
		}

		combat_width = 3

		#Size Definitions
		max_strength = 25
		max_organisation = 61.5 #C&C gives 30% bonus = 80 org
		default_morale = 0.3
		manpower = 550

		#Misc Abilities
		training_time = 540
		suppression = 1
		weight = 0.5



		supply_consumption = 0.02 #0.07

		transport = command_control_equipment

		essential = {
			Inf_equipment
		}
		can_be_parachuted = yes

		need = {
			Inf_equipment = 110
			L_AT_Equipment = 8
			AA_Equipment = 6
			command_control_equipment = 30
		}

		# plains = {
			# attack = -0.15
			# defence = -0.15
		# }
		hills = {
			attack = 0.1
		}
		forest = {
			attack = 0.1
		}
		mountain = {
			attack = 0.1
		}
		marsh = {
			attack = 0.3
		}
		river = {
			attack = 0.4
		}
		amphibious = {
			attack = 0.5
		}
		jungle = {
			attack = 0.1
			#movement = 0.1
		}
		marsh = {
			attack = 0.1
			#movement = 0.1
		}
		urban = {
			attack = 0.15
			defence = 0.1
		}
		desert = {
			attack = 0.05
			defence = 0.05
			#movement = 0.25
		}

	}

	armor_Bat = { #Rev 3 - has large counter
		sprite = MD4_medium_armor
		map_icon_category = armored
		priority = 5
		active = yes
		ai_priority = 3
		type = {
			armor
		}

		group = armor

		categories = {
			category_tanks
			category_front_line
			category_all_armor
			category_army
			category_non_militia
		}

		combat_width = 4

		essential = {
			MBT_Equipment
		}

		need = {
			MBT_Equipment = 42
			command_control_equipment = 14
		}

		manpower = 450
		max_organisation = 23.07
		max_strength = 3
		default_morale = 0.3
		training_time = 180
		weight = 1.5



		supply_consumption = 0.08 #0.25

		transport = MBT_Equipment

		plains = {
			#attack = 0.1
			defence = 0.2

		}
		forest = {
			attack = -0.2

		}
		hills = {
			attack = -0.28

		}
		mountain = {
			attack = -0.46
			defence = -0.88

		}
		jungle = {
			attack = -0.4

		}
		marsh = {
			attack = -0.4
		}
		urban = {
			attack = 0.1 #L Inf worst in urban terrain.
			defence = 0.2
		}
		amphibious = {
			attack = -0.2 #was 0.4
		}

	}
	armor_Comp = {
		sprite = MD4_medium_armor
		map_icon_category = armored
		priority = 1
		active = yes
		ai_priority = 0
		type = {
			armor
			support
		}

		group = support

		categories = {
			category_tanks
			category_front_line
			category_all_armor
			category_army
		}

		combat_width = 2

		essential = {
			MBT_Equipment
		}

		need = {
			MBT_Equipment = 14
			command_control_equipment = 5
		}

		manpower = 150
		max_organisation = 23.07
		max_strength = 1
		default_morale = 0.3
		training_time = 180
		weight = 0.5

		supply_consumption = 0.03

		transport = MBT_Equipment

		# Support nerfs to combat abilities
		defense = -0.66
		breakthrough = -0.66
		soft_attack = -0.66
		hard_attack = -0.66

		plains = {
			#attack = 0.1
			defence = 0.05

		}
		forest = {
			attack = -0.05

		}
		hills = {
			attack = -0.07

		}
		mountain = {
			attack = -0.1
			defence = -0.1

		}
		urban = {
			attack = 0.075 #L Inf worst in urban terrain.
			defence = 0.05
		}
		jungle = {
			attack = -0.04

		}
		marsh = {
			attack = -0.04
		}
		amphibious = {
			attack = -0.02
		}
	}

	L_Recce_Bat = { #Rev 3 - has large counter
		sprite = MD4_infantry_2
		map_icon_category = infantry
		#special_forces = yes
		ai_priority = 2
		priority = 5
		active = yes

		type = {
			infantry
		}

		group = infantry

		categories = {
			category_front_line
			category_special_forces
			category_light_infantry
			category_all_infantry
			category_army
		}

		combat_width = 3

		#Size Definitions
		max_strength = 25
		max_organisation = 23.07
		default_morale = 0.1
		manpower = 700

		#Misc Abilities
		training_time = 90
		suppression = 1
		weight = 0.5

		supply_consumption = 0.02

		transport = command_control_equipment

		essential = {
			Inf_equipment
		}

		can_be_parachuted = yes

		need = {
			Inf_equipment = 190
			L_AT_Equipment = 9
			AA_Equipment = 6
			command_control_equipment = 20
			##land_Drone_equipment = 6
		}

		plains = {
			attack = -0.2
			defence = -0.15
		}
		desert = {
			attack = -0.2
			defence = -0.15
		}
		mountain = {
			attack = 0.1
		}
		jungle = {
			attack = 0.1
			#movement = 0.1
		}
		marsh = {
			attack = 0.1
			#movement = 0.1
		}

	}
	L_Recce_Comp = { #Rev 3
		sprite = MD4_infantry_2
		map_icon_category = infantry
		#special_forces = yes
		ai_priority = 0
		priority = 1
		active = yes

		type = {
			infantry
			support
		}

		group = support

		categories = {
			category_front_line
			category_special_forces
			category_light_infantry
			category_all_infantry
			category_army
		}

		combat_width = 1

		#Size Definitions
		max_strength = 8
		max_organisation = 23.07
		default_morale = 0.1
		manpower = 230

		#Misc Abilities
		training_time = 90
		suppression = 1
		weight = 0.2

		supply_consumption = 0.01



		# Support nerfs to combat abilities
		defense = -0.66
		breakthrough = -0.66
		soft_attack = -0.66
		hard_attack = -0.66

		essential = {
			Inf_equipment
			command_control_equipment
		}

		can_be_parachuted = yes

		need = {
			Inf_equipment = 63
			L_AT_Equipment = 3
			AA_Equipment = 2
			command_control_equipment = 7
			##land_Drone_equipment = 2
		}

		plains = {
			attack = -0.01
			defence = -0.01
		}
		mountain = {
			attack = 0.01
		}
		jungle = {
			attack = 0.01
			#movement = 0.1
		}
		marsh = {
			attack = 0.01
			#movement = 0.1
		}

	}
	Mot_Recce_Bat = { #Rev 3 - has large counter
		sprite = MD4_motorized
		map_icon_category = infantry
		#special_forces = yes
		ai_priority = 2
		priority = 5
		active = yes

		type = {
			motorized
		}

		group = mobile

		categories = {
			category_front_line
			category_special_forces
			category_light_infantry
			category_all_infantry
			category_army
		}

		combat_width = 4

		#Size Definitions
		max_strength = 25
		max_organisation = 23.07
		default_morale = 0.1
		manpower = 800

		#Misc Abilities
		training_time = 90
		suppression = 1
		weight = 0.5
		supply_consumption = 0.03

		transport = util_vehicle_equipment

		essential = {
			Inf_equipment
			util_vehicle_equipment
		}

		can_be_parachuted = yes

		need = {
			Inf_equipment = 240
			L_AT_Equipment = 3
			H_AT_Equipment = 6
			AA_Equipment = 6
			command_control_equipment = 20
			##land_Drone_equipment = 6
			util_vehicle_equipment = 48
		}

		plains = {
			attack = -0.05
			defence = 0.1

		}
		hills = {
			attack = 0.05

		}
		desert = {
			attack = -0.05
			defence = 0.1

		}
		mountain = {
			attack = -0.1
			defence = -0.44

		}
		urban = {
			attack = 0.1 #L Inf worst in urban terrain.

		}

	}
	Mot_Recce_Comp = { #Rev 3
		sprite = MD4_motorized
		map_icon_category = infantry
		#special_forces = yes
		ai_priority = 0
		priority = 1
		active = yes

		type = {
			motorized
			support
		}

		group = support

		categories = {
			category_front_line
			category_special_forces
			category_light_infantry
			category_all_infantry
			category_army
		}

		combat_width = 2

		#Size Definitions
		max_strength = 8
		max_organisation = 23.07
		default_morale = 0.1
		manpower = 260

		#Misc Abilities
		training_time = 90
		suppression = 1
		weight = 0.2

		supply_consumption = 0.03

		# Support nerfs to combat abilities
		defense = -0.66
		breakthrough = -0.66
		soft_attack = -0.66
		hard_attack = -0.66

		transport = util_vehicle_equipment

		essential = {
			Inf_equipment
			util_vehicle_equipment
		}

		can_be_parachuted = yes

		need = {
			Inf_equipment = 63
			L_AT_Equipment = 1
			H_AT_Equipment = 2
			AA_Equipment = 2
			command_control_equipment = 7
			##land_Drone_equipment = 2
			util_vehicle_equipment = 16
		}

		mountain = {
			attack = -0.01
			defence = -0.01

		}
		desert = {
			attack = 0.01
			defence = 0.01

		}
		urban = {
			attack = 0.01 #L Inf worst in urban terrain.

		}

	}

	Mech_Recce_Bat = { #Rev 3 - has large counter
		sprite = MD4_mechanized
		map_icon_category = infantry
		#special_forces = yes
		ai_priority = 2
		priority = 5
		active = yes

		type = {
			mechanized
		}

		group = armor

		categories = {
			category_front_line
			category_special_forces
			category_all_infantry
			category_army
			category_all_armor
			category_apc
		}

		combat_width = 4
		#Size Definitions
		max_strength = 25
		max_organisation = 23.07
		default_morale = 0.1
		manpower = 600

		#Misc Abilities
		training_time = 120
		suppression = 1
		weight = 1
		supply_consumption = 0.06

		# needed since we give so much bonus to infantry even with no mech equipment
		essential = {
			Inf_equipment
			APC_Equipment
		}

		# this is what moves us and sets speed
		transport = APC_Equipment

		can_be_parachuted = yes

		need = {
			Inf_equipment = 170
			L_AT_Equipment = 3
			H_AT_Equipment = 6
			AA_Equipment = 6
			command_control_equipment = 20
			APC_Equipment = 48
		}

		plains = {
			attack = 0.2
			defence = 0.05

		}
		desert = {
			attack = 0.2
			defence = 0.05

		}
		forest = {
			attack = -0.1

		}
		hills = {
			attack = -0.14

		}
		mountain = {
			attack = -0.1
			defence = -0.44

		}
		jungle = {
			attack = -0.1

		}
		marsh = {
			attack = -0.1
		}
		urban = {
			attack = 0.15 #L Inf worst in urban terrain.
			attack = 0.15 #L Inf worst in urban terrain.

		}
	}
	Mech_Recce_Comp = { #Rev 3
		sprite = MD4_mechanized
		map_icon_category = infantry
		#special_forces = yes
		ai_priority = 0
		priority = 1
		active = yes

		type = {
			mechanized
			support
		}

		group = support

		categories = {
			category_front_line
			category_special_forces
			category_all_infantry
			category_army
			category_all_armor
			category_apc
		}

		combat_width = 2

		#Size Definitions
		max_strength = 8
		max_organisation = 23.07
		default_morale = 0.1
		manpower = 200

		#Misc Abilities
		training_time = 120
		suppression = 1
		weight = 1

		supply_consumption = 0.02

		# Support nerfs to combat abilities
		defense = -0.66
		breakthrough = -0.66
		soft_attack = -0.66
		hard_attack = -0.66

		# needed since we give so much bonus to infantry even with no mech equipment
		essential = {
			Inf_equipment
			APC_Equipment
		}

		# this is what moves us and sets speed
		transport = APC_Equipment

		can_be_parachuted = yes

		need = {
			Inf_equipment = 57
			L_AT_Equipment = 1
			L_AT_Equipment = 2
			AA_Equipment = 2
			command_control_equipment = 7
			#land_Drone_equipment = 2
			APC_Equipment = 16
		}

		plains = {
			#attack = 0.1
			defence = 0.01

		}
		forest = {
			attack = -0.01

		}
		hills = {
			attack = -0.01

		}
		mountain = {
			attack = -0.01
			defence = -0.01

		}
		jungle = {
			attack = -0.01

		}
		marsh = {
			attack = -0.01
		}
		urban = {
			attack = 0.01
			attack = 0.01

		}

	}
	Arm_Recce_Bat = { #Rev 3 - has large counter heavy mechanized recce
		sprite = MD4_light_armor
		map_icon_category = infantry
		#special_forces = yes
		ai_priority = 2
		priority = 5
		active = yes

		type = {
			mechanized
		}

		group = armor

		categories = {
			category_front_line
			category_special_forces
			category_all_infantry
			category_army
			category_all_armor
			category_IFV
		}

		combat_width = 4

		#Size Definitions
		max_strength = 25
		max_organisation = 23.07
		default_morale = 0.1
		manpower = 600

		#Misc Abilities
		training_time = 120
		suppression = 1
		weight = 1

		supply_consumption = 0.06

		# needed since we give so much bonus to infantry even with no mech equipment
		essential = {
			Inf_equipment
			IFV_Equipment
		}

		# this is what moves us and sets speed
		transport = IFV_Equipment

		can_be_parachuted = yes

		need = {
			Inf_equipment = 150
			L_AT_Equipment = 6
			AA_Equipment = 6
			command_control_equipment = 20
			#land_Drone_equipment = 6
			IFV_Equipment = 40
		}

		plains = {
			attack = 0.2
			defence = 0.1

		}
		desert = {
			attack = 0.2
			defence = 0.1

		}
		forest = {
			attack = -0.1

		}
		hills = {
			attack = -0.14

		}
		mountain = {
			attack = -0.23
			defence = -0.44

		}
		jungle = {
			attack = -0.2

		}
		marsh = {
			attack = -0.2
		}
		urban = {
			attack = 0.15 #L Inf worst in urban terrain.
			defence = 0.1

		}

	}
	Arm_Recce_Comp = { #Rev 3
		sprite = MD4_light_armor
		map_icon_category = infantry
		#special_forces = yes
		ai_priority = 0
		priority = 1
		active = yes

		type = {
			mechanized
			support
		}

		group = support

		categories = {
			category_front_line
			category_special_forces
			category_all_infantry
			category_army
			category_all_armor
			category_IFV
		}

		combat_width = 2

		#Size Definitions
		max_strength = 8
		max_organisation = 23.07
		default_morale = 0.1
		manpower = 200

		#Misc Abilities
		training_time = 120
		suppression = 1
		weight = 0.33

		supply_consumption = 0.02

		# Support nerfs to combat abilities
		defense = -0.66
		breakthrough = -0.66
		soft_attack = -0.66
		hard_attack = -0.66

		# needed since we give so much bonus to infantry even with no mech equipment
		essential = {
			Inf_equipment
			IFV_Equipment
		}

		# this is what moves us and sets speed
		transport = IFV_Equipment

		can_be_parachuted = yes

		need = {
			Inf_equipment = 50
			L_AT_Equipment = 2
			AA_Equipment = 2
			command_control_equipment = 7
			#land_Drone_equipment = 2
			IFV_Equipment = 13
		}

		plains = {
			#attack = 0.1
			defence = 0.01

		}
		forest = {
			attack = -0.01

		}
		hills = {
			attack = -0.01

		}
		mountain = {
			attack = -0.0
			defence = -0.01

		}
		jungle = {
			attack = -0.02

		}
		marsh = {
			attack = -0.02
		}
		urban = {
			attack = 0.01 #L Inf worst in urban terrain.
			defence = 0.01

		}

	}
	armor_Recce_Bat = { #this fella was using ww2 tanks
		sprite = MD4_medium_armor
		map_icon_category = armored
		ai_priority = 2
		priority = 5
		active = yes

		type = {
			armor
		}

		group = armor

		categories = {
			category_tanks
			category_special_forces
			category_front_line
			category_all_armor
			category_army
		}

		combat_width = 4

		essential = {
			Rec_tank_Equipment
		}

		need = {
			Rec_tank_Equipment = 42
			#land_Drone_equipment = 6
			command_control_equipment = 14
		}

		manpower = 450
		max_organisation = 23.07
		default_morale = 0.1
		max_strength = 3
		training_time = 180
		weight = 1.5

		supply_consumption = 0.07
		can_be_parachuted = yes

		transport = Rec_tank_Equipment

		plains = {
			#attack = 0.1
			defence = 0.1

		}
		forest = {
			attack = -0.1

		}
		hills = {
			attack = -0.14

		}
		mountain = {
			attack = -0.23
			defence = -0.44

		}
		urban = {
			attack = 0.15 #L Inf worst in urban terrain.
			defence = 0.1

		}
	}
	armor_Recce_Comp = {
		sprite = MD4_medium_armor
		map_icon_category = armored
		ai_priority = 0
		priority = 1
		active = yes

		type = {
			armor
			support
		}

		group = support

		categories = {
			category_tanks
			category_special_forces
			category_front_line
			category_all_armor
			category_army
		}

		combat_width = 2

		essential = {
			Rec_tank_Equipment
		}

		need = {
			command_control_equipment = 5
			Rec_tank_Equipment = 14
			#land_Drone_equipment = 2
		}

		manpower = 150
		max_organisation = 23.07
		default_morale = 0.1
		max_strength = 1
		training_time = 180
		weight = 0.5

		supply_consumption = 0.03

		transport = Rec_tank_Equipment

		can_be_parachuted = yes

		#Support nerfs to combat abilities
		defense = -0.66
		breakthrough = -0.66
		soft_attack = -0.66
		hard_attack = -0.66

		plains = {
			#attack = 0.1
			defence = 0.01

		}
		forest = {
			attack = -0.01

		}
		hills = {
			attack = -0.01

		}
		mountain = {
			attack = -0.01
			defence = -0.01

		}
		urban = {
			attack = 0.01 #L Inf worst in urban terrain.
			defence = 0.01

		}
	}

	L_Engi_Bat = { #Rev 3 - has large counter
		sprite = MD4_infantry_2
		map_icon_category = infantry
		ai_priority = 0
		priority = 0
		active = yes

		type = {
			infantry
		}

		group = infantry

		categories = {
			category_front_line
			category_light_infantry
			category_all_infantry
			category_army
		}

		combat_width = 2

		#Size Definitions
		max_strength = 25
		max_organisation = 0
		default_morale = 0.1
		manpower = 700

		#Misc Abilities
		training_time = 90
		suppression = 1
		weight = 0.5

		defense = -0.5
		breakthrough = -0.5
		soft_attack = -0.5
		hard_attack = -0.5

		supply_consumption = 0.02
		entrenchment = 5

		can_be_parachuted = yes

		transport = Inf_equipment

		#transport = util_vehicle_equipment

		essential = {
			Inf_equipment
			#Engi_equipment
		}

		need = {
			Inf_equipment = 80
			#Engi_equipment = 30

		}

		forest = {
			attack = 0.3
			movement = 0.45
		}

		hills = {
			attack = 0.3
			movement = 0.45
		}

		desert = {
			attack = 0.3
			movement = 0.45

		}

		jungle = {
			attack = 0.3
			movement = 0.45
		}

		marsh = {
			attack = 0.3
			movement = 0.45
		}

		fort = {
			attack = 0.3
			movement = 0.45
		}
		urban = {
			attack = 0.1
			movement = 0.45
		}

		river = {
			attack = 0.6
			defence = 0.3
			movement = 0.45
		}

		amphibious = {
			attack = 0.6
			movement = 0.45
		}

	}
	L_Engi_Comp = { #Needs to be tested - has large counter
		sprite = MD4_infantry_2
		map_icon_category = infantry
		ai_priority = 0
		priority = 0
		active = yes

		type = {
			infantry
			support
		}

		group = support

		categories = {
			category_front_line
			category_light_infantry
			category_all_infantry
			category_army
		}

		combat_width = 1

		#Size Definitions
		max_strength = 8
		max_organisation = 25
		default_morale = 0.1
		manpower = 233

		#Misc Abilities
		training_time = 90
		suppression = 1
		weight = 0.5

		supply_consumption = 0.01

		can_be_parachuted = yes

		transport = Inf_equipment

		#transport = util_vehicle_equipment

		# Support nerfs to combat abilities
		defense = -0.66
		breakthrough = -0.66
		soft_attack = -0.66
		hard_attack = -0.66

		essential = {
			Inf_equipment
			#Engi_equipment
		}

		need = {
			Inf_equipment = 26
			#Engi_equipment = 10

		}

		forest = {
			attack = 0.03
			movement = 0.05
		}

		hills = {
			attack = 0.03
			movement = 0.05
		}

		desert = {
			attack = 0.03
			movement = 0.05

		}

		jungle = {
			attack = 0.03
			movement = 0.05
		}

		marsh = {
			attack = 0.03
			movement = 0.05
		}

		fort = {
			attack = 0.03
			movement = 0.05
		}
		urban = {
			attack = 0.03
			movement = 0.05
		}

		river = {
			attack = 0.06
			defence = 0.03
			movement = 0.05
		}

		amphibious = {
			attack = 0.06
			movement = 0.05
		}

	}
	H_Engi_Bat = { #Rev 3 - has large counter
		sprite = MD4_infantry_2
		map_icon_category = infantry
		ai_priority = 0
		priority = 1
		active = yes

		type = {
			armor
		}

		group = armor

		categories = {
			category_front_line
			category_light_infantry
			category_all_infantry
			category_army
		}

		combat_width = 4

		#Size Definitions
		max_strength = 25
		max_organisation = 0
		default_morale = 0.1
		manpower = 700

		#Misc Abilities
		training_time = 90
		suppression = 1
		weight = 0.5
		supply_consumption = 0.06
		entrenchment = 10
		defense = -0.5
		breakthrough = -0.5
		soft_attack = -0.5
		hard_attack = -0.5
		can_be_parachuted = yes
		# this is what moves us and sets speed
		transport = util_vehicle_equipment

		essential = {
			Inf_equipment
			util_vehicle_equipment
		}

		need = {
			Inf_equipment = 80
			command_control_equipment = 10
			util_vehicle_equipment = 10

		}

		forest = {
			attack = 0.3
			movement = 0.45
		}

		hills = {
			attack = 0.3
			movement = 0.45
		}

		desert = {
			attack = 0.3
			movement = 0.45

		}

		jungle = {
			attack = 0.3
			movement = 0.45
		}

		marsh = {
			attack = 0.3
			movement = 0.45
		}

		fort = {
			attack = 0.3
			movement = 0.45
		}
		urban = {
			attack = 0.1
			movement = 0.45
		}

		river = {
			attack = 0.6
			defence = 0.3
			movement = 0.45
		}

		amphibious = {
			attack = 0.6
			movement = 0.45
		}

	}
	H_Engi_Comp = { #needs to be tested
		sprite = MD4_infantry_2
		map_icon_category = infantry
		ai_priority = 0
		priority = 1
		active = yes

		type = {
			armor
			support
		}

		group = support

		categories = {
			category_front_line
			category_light_infantry
			category_all_infantry
			category_army
		}

		combat_width = 2

		#Size Definitions
		max_strength = 8
		max_organisation = 25
		default_morale = 0.1
		manpower = 233

		#Misc Abilities
		training_time = 90
		suppression = 1
		weight = 0.5

		supply_consumption = 0.02

		# Support nerfs to combat abilities
		defense = -0.66
		breakthrough = -0.66
		soft_attack = -0.66
		hard_attack = -0.66
		can_be_parachuted = yes

		# this is what moves us and sets speed
		transport = util_vehicle_equipment

		essential = {
			Inf_equipment
			command_control_equipment
		}

		need = {
			Inf_equipment = 25
			util_vehicle_equipment = 3
			command_control_equipment = 5
		}

		forest = {
			attack = 0.03
			movement = 0.05
		}

		hills = {
			attack = 0.03
			movement = 0.05
		}

		desert = {
			attack = 0.03
			movement = 0.05

		}

		jungle = {
			attack = 0.03
			movement = 0.05
		}

		marsh = {
			attack = 0.03
			movement = 0.05
		}

		fort = {
			attack = 0.03
			movement = 0.05
		}
		urban = {
			attack = 0.03
			movement = 0.05
		}

		river = {
			attack = 0.06
			defence = 0.03
			movement = 0.05
		}

		amphibious = {
			attack = 0.06
			movement = 0.05
		}

	}

	Arty_Bat = { #Rev 3 - has large counter
		sprite = artillery
		map_icon_category = infantry
		ai_priority = 0
		priority = 1
		active = yes

		type = {
			artillery
		}

		group = infantry

		categories = {
			#category_support_battalions
			category_army
			category_artillery
		}


		combat_width = 3

		need = {
			artillery_equipment = 18
		}
		manpower = 550
		training_time = 120
		max_organisation = 10
		default_morale = 0.1
		max_strength = 0.3
		weight = 0.1

		supply_consumption = 0.06

		transport = artillery_equipment

		can_be_parachuted = yes

	}
	Arty_Battery = { #Needs to be tested
		sprite = artillery
		map_icon_category = infantry
		ai_priority = 0
		priority = 1
		active = yes

		type = {
			artillery
			support
		}

		group = support

		categories = {
			#category_support_battalions
			category_army
			category_artillery
		}


		combat_width = 1

		need = {
			artillery_equipment = 6
		}
		manpower = 183
		training_time = 120
		max_organisation = 25
		default_morale = 0.1
		max_strength = 0.1
		weight = 0.1

		supply_consumption = 0.02

		# Support nerfs to combat abilities
		defense = -0.66
		breakthrough = -0.66
		soft_attack = -0.66
		hard_attack = -0.66

		transport = artillery_equipment

		can_be_parachuted = yes


	}
	SP_Arty_Bat = { #Rev 3 - has large counter
		sprite = MD4_medium_armor
		map_icon_category = armored
		ai_priority = 0
		priority = 1
		active = yes

		type = {
			armor
			artillery
		}

		group = armor

		categories = {
			category_all_armor
			category_army
			category_artillery

		}
		combat_width = 3

		need = {
			SP_arty_equipment = 18
		}
		manpower = 550
		max_organisation = 10
		default_morale = 0.1
		max_strength = 0.6
		training_time = 180
		weight = 1.25
		supply_consumption = 0.08 #0.44

		transport = SP_arty_equipment


	}
	SP_Arty_Battery = { #Needs to be tested
		sprite = MD4_medium_armor
		map_icon_category = armored
		ai_priority = 0
		priority = 1
		active = yes

		type = {
			armor
			artillery
			support
		}

		group = support

		categories = {
			category_all_armor
			category_army
			category_artillery

		}
		combat_width = 2

		need = {
			SP_arty_equipment = 6
		}
		manpower = 183
		max_organisation = 25
		default_morale = 0.1
		max_strength = 0.2
		training_time = 180
		weight = 1.25

		supply_consumption = 0.03

		transport = SP_arty_equipment

		# Support nerfs to combat abilities
		defense = -0.66
		breakthrough = -0.66
		soft_attack = -0.66
		hard_attack = -0.66

	}

	SP_AA_Bat = { #has large counter
		sprite = MD4_medium_armor
		map_icon_category = armored
		ai_priority = 0
		priority = 1
		active = yes

		type = {
			armor
			anti_air
		}

		group = armor

		categories = {
			category_all_armor
			category_army
			category_SP_AA

		}

		combat_width = 4

		need = {
			SP_AA_Equipment = 18
		}
		manpower = 550
		max_organisation = 5
		default_morale = 0.1
		max_strength = 0.6
		training_time = 180
		weight = 1.25
		supply_consumption = 0.06

		transport = SP_AA_Equipment

		can_be_parachuted = yes

	}
	SP_AA_Battery = {
		sprite = MD4_medium_armor
		map_icon_category = armored
		ai_priority = 0
		priority = 1
		active = yes

		type = {
			armor
			anti_air
			support
		}

		group = support

		categories = {
			category_all_armor
			category_army
			category_SP_AA

		}

		combat_width = 2

		need = {
			SP_AA_Equipment = 6
		}
		manpower = 183
		max_organisation = 25
		default_morale = 0.1
		max_strength = 0.2
		training_time = 180
		weight = 1.25
		supply_consumption = 0.02

		# Support nerfs to combat abilities
		defense = -0.66
		breakthrough = -0.66
		soft_attack = -0.66
		hard_attack = -0.66

		transport = SP_AA_Equipment

		can_be_parachuted = yes

	}


	#Needed for Operations - DO NOT TOUCH
	fake_intel_unit = {
		sprite = infantry
		map_icon_category = infantry

		priority = 0
		ai_priority = 0
		active = no

		type = {
			infantry
		}

		group = infantry

		categories = {
			category_front_line
			category_light_infantry
			category_all_infantry
			category_army
		}

		combat_width = 1

		#Size Definitions
		max_strength = 1
		max_organisation = 100
		default_morale = 0.3
		manpower = 0

		#Misc Abilities
		training_time = 90
		suppression = 1
		weight = 0.5

		supply_consumption = 0.0

		need = {
			Inf_equipment= 1
		}
	}
}