state = {
	id = 1010
	name = "STATE_1010"
	manpower = 20
	state_category = state_00
	
	resources = {
	}

	history = {
		owner = USA
		victory_points = {
			13067 1 
		}
		buildings = {
			infrastructure = 1
			internet_station = 1
			13067 = {
				naval_base = 1
			}
		}
		add_core_of = USA
		2017.1.1 = {
			add_manpower = 1
			buildings = {
				internet_station = 2
			}
		}
	}

	provinces = {
		13067
	}
}