
state = {
	id = 1014
	name = "STATE_1014"

	history = {
		owner = POL
		victory_points = {
			347 5 
		}
		victory_points = {
			3254 1 
		}
		buildings = {
			infrastructure = 3
			internet_station = 1
		}
		add_core_of = POL
		2017.1.1 = {
			add_manpower = 1062
			buildings = {
				internet_station = 4
				industrial_complex = 1
			}
		}
	}

	provinces = {
		290 347 400 3254 11247 11274 
	}
	manpower = 1204323
	buildings_max_level_factor = 1.000
	state_category = state_02
}
