
state = {
	id = 1019
	name = "STATE_1019"

	resources = {
	}
	history = {
		owner = ETH
		buildings = {
			infrastructure = 1
			internet_station = 0

		}
		add_core_of = ETH
		2017.1.1 = {
			add_manpower = 1037274
			buildings = {
				internet_station = 1
			}
		}
	}

	provinces = {
		374 397 510 518 5041 13802 13803 13804 13805 13806 13807 13808
	}
	manpower = 1481919
	buildings_max_level_factor = 1.000
	state_category = state_02
}
