state = {
	id = 1027
	name = "STATE_1027"
	manpower = 2776782

	state_category = state_04

	history = {
		owner = BRA
		
		victory_points = { 10933 5 } #Natal
		victory_points = { 2175 1 } #Mossoró
		victory_points = { 10989 3 } #Campina Grande
		
		buildings = {
			infrastructure = 4
			internet_station = 1
			10933 = {
				naval_base = 6
			}
		}
		add_core_of = BRA
		2017.1.1 = {
			add_manpower = 632218
		}
	}
	provinces = {
		2175 10933 10989
 	}
}
