
state = {
	id = 175
	name = "STATE_175"
	resources = {
		oil = 98
	}

	impassable = yes

	history = {
		owner = SAU
		buildings = {
			infrastructure = 0
			internet_station = 0

		}
		add_core_of = SAU
		add_core_of = NEJ
		2017.1.1 = {
			buildings = {
				internet_station = 0
			}
			add_manpower = 3104
		}
	}

	provinces = {
		8118
	}
	manpower = 4695
	buildings_max_level_factor = 1.000
	state_category = state_00
}
