
state = {
	id = 181
	name = "STATE_181"
	resources = {
		oil = 36
		aluminium = 19
		steel = 3
	}

	history = {
		owner = QAT
		victory_points = {
			3738 5 
		}
		buildings = {
			infrastructure = 5
			internet_station = 2
			industrial_complex = 1
			air_base = 10
			8051 = {
				naval_base = 10

			}

		}
		add_core_of = QAT
		2017.1.1 = {
			add_manpower = 1785757
			buildings = {
				infrastructure = 7
				internet_station = 4
				industrial_complex = 3
			}
		}
	}

	provinces = {
		8051 3728 3738 
	}
	manpower = 590957
	buildings_max_level_factor = 1.000
	state_category = state_01
}
