state = {
	id = 21
	name = "STATE_21"
	manpower = 57123
	state_category = state_00

	history = {
		owner = ENG
		buildings = {
			infrastructure = 7
			internet_station = 1
			air_base = 2
			13010 = {
				naval_base = 3
			}
		}
		2017.1.1 = {
			buildings = {
				internet_station = 3
			}
			add_manpower = 6877
		}
	}
	
	provinces = {
		13010 
	}
}