
state = {
	id = 236
	name = "STATE_236"
	
	resources = {
		oil = 2
	}

	history = {
		owner = ETH
		victory_points = {
			7980 5 
		}
		victory_points = {
			338 1 
		}
		victory_points = {
			208 1 
		}
		buildings = {
			infrastructure = 0
			internet_station = 0
		}
		add_core_of = ETH
		add_core_of = SOM
		2017.1.1 = {
			add_manpower = 2000000
			add_manpower = 615248
			buildings = {
				infrastructure = 1
				internet_station = 0
			}
		}
	}		

	provinces = {
		4995 7980 8062 12757 12812 208 288 338 13335 13828 13829 13837 13838 13839 13840 13841 13842 13843 13844 13845 13846 13847 13848 13849 13850
	}
	manpower = 4122786
	buildings_max_level_factor = 1.000
	state_category = state_05
}
