state = {
	id = 25
	name = "STATE_25"
	manpower = 1367
	state_category = state_00
	
	history = {
		owner = ENG
		add_core_of = STH
		buildings = {
		air_base = 1
			infrastructure = 4
			internet_station = 1
			13013 = {
				naval_base = 1
			}
		}
		2017.1.1 = {
			buildings = {
				internet_station = 3
			}
			add_manpower = 165
		}
	}
	
	provinces = {
		13013 
	}
}