
state = {
	id = 335
	name = "STATE_335"

	history = {
		owner = UKR
		victory_points = {
			9548 5 
		}
		buildings = {
			infrastructure = 3
			internet_station = 1
		}
		add_core_of = UKR
		add_core_of = ROM
		2017.1.1 = {
			buildings = {
				internet_station = 2
			}
			#add_manpower = -13632
		}

	}

	provinces = {
		577 3407 9548
	}
	manpower = 922817
	buildings_max_level_factor = 1.000
	state_category = state_02
}
