
state = {
	id = 348
	name = "STATE_348"

	history = {
		owner = GAH
		victory_points = {
			8039 5 
		}
		victory_points = {
			8096 1 
		}
		buildings = {
			infrastructure = 1
			internet_station = 0

		}
		add_core_of = GAH
		2017.1.1 = {
			buildings = {
				internet_station = 0
			}
			add_manpower = 1726915

		}

	}

	provinces = {
		8039 8096 9632 9643 9672
	}
	manpower = 3258360
	buildings_max_level_factor = 1.000
	state_category = state_04
}
