
state = {
	id = 363
	name = "STATE_363"

	history = {
		owner = SEN
		victory_points = {
			12710 2 #St. Louis
		}
		buildings = {
			infrastructure = 1
			internet_station = 0

		}
		add_core_of = SEN
		2017.1.1 = {
			buildings = {
				internet_station = 0
			}
			add_manpower = 708771
		}
	}

	provinces = {
		8015 12710 6807 
	}
	manpower = 915754
	buildings_max_level_factor = 1.000
	state_category = state_02
}
