state = {
	id = 429
	name = "STATE_429"
	manpower = 24120251
	state_category = state_13

	resources = {
		steel = 25
	}

	history = {
		owner = RAJ
		victory_points = {
			12822 5 
		}
		victory_points = {
			89 7 
		}
		victory_points = {
			10729 3 
		}
		victory_points = {
			2002 1 
		}
		buildings = {
			infrastructure = 2
			internet_station = 0
			industrial_complex = 1
			arms_factory = 1
			air_base = 8
		}
		add_core_of = RAJ
		2017.1.1 = {
			add_manpower = 2000000
			add_manpower = 2000000
			add_manpower = 2000000
			add_manpower = 1002654
			buildings = {
				internet_station = 1
				industrial_complex = 2
			}
		}
	}	

	provinces = {
		2002 10729 10772 12822 84 89 100 
	}
}