
state = {
	id = 433
	name = "STATE_433"

	history = {
		owner = POL
		victory_points = {
			9508 5 
		}
		buildings = {
			infrastructure = 5
			internet_station = 2
			industrial_complex = 1
		}
		add_core_of = POL
		2017.1.1 = {
			buildings = {
				internet_station = 4
			}
			add_manpower = 1938
		}
	}

	provinces = {
		493 584 3482 9508 9546 11428 11532 660 
	}
	manpower = 2483385
	buildings_max_level_factor = 1.000
	state_category = state_03
}
