state = {
	id = 455
	name = "STATE_455"
	manpower = 1515788
	state_category = state_02
	
	resources = {
		steel = 2
	}

	history = {
		owner = RAJ
		victory_points = {
			12338 5 
		}
		buildings = {
			infrastructure = 3
			internet_station = 1
			air_base = 2
		}
		add_core_of = RAJ
		2017.1.1 = {
			buildings = {
				internet_station = 2
			}
			add_manpower = 460792
		}
	}

	provinces = {
		10389 12338 
	}
}