state = {
	id = 464
	name = "STATE_464"
	manpower = 15301352
	state_category = state_11

	history = {
		owner = RAJ
		victory_points = { 7363 5 } #Coimbatore
		victory_points = { 8067 5 } #Salem
		
		buildings = {
			infrastructure = 3
			internet_station = 1
			industrial_complex = 1
			synthetic_refinery = 1
		}
		add_core_of = RAJ
		2017.1.1 = {
			add_manpower = 2000000
			add_manpower = 2000000
			add_manpower = 442328
			buildings = {
				internet_station = 2
				industrial_complex = 2
			}
		}
	}

	provinces = {
		7363 12247 10246 8067 1268 10808 4420
	}
}