state = {
	id = 480
	name = "STATE_480"
	manpower = 273236
	state_category = state_00

	history = {
		owner = MLD
		victory_points = { 4967 3 } #Malé

		buildings = {
			infrastructure = 4
			internet_station = 1
			air_base = 3
			4967 = {
				naval_base = 2
			}

		}
		add_core_of = MLD
		2017.1.1 = {
			buildings = {
				internet_station = 3
			}
			add_manpower = 120017
		}
	}

	provinces = {
		 4967

		}
}
