
state = {
	id = 484
	name = "STATE_484"

	history = {
		owner = BHU
		add_core_of = BHU
		victory_points = {
			8010 1
		}
		buildings = {
			infrastructure = 2
			internet_station = 0
			air_base = 1

		}
		2017.1.1 = {
			buildings = {
				internet_station = 1
				infrastructure = 1
			}
			add_manpower = 124748
		}

	}

	provinces = {
		8010
	}
	manpower = 318697
	buildings_max_level_factor = 1.000
	state_category = state_01
}
