state = {
	id = 49
	name = "STATE_49"
	manpower = 244229

	state_category = state_00

	resources = {
		oil = 35
	}
	history = {
		owner = HOL
		victory_points = { 153 1 } #Willemstad
		buildings = {
			infrastructure = 6
			internet_station = 2
			153 = {
				naval_base = 1
			}

		}
		add_core_of = HOL
		2017.1.1 = {
			buildings = {
				internet_station = 4
			}
			add_manpower = 21771
		}
	}

	provinces = {
		153
	}
}
