state = {
	id = 491
	name = "STATE_491"
	
	history = {
		owner = TAI
		buildings = {
			11162 = {
				naval_base = 1
			}
		}
		add_claim_by = VIE
		add_claim_by = CHI
		add_claim_by = MAY
		add_claim_by = PHI
		2017.1.1 = {
			buildings = {
				air_base = 1
			}
		}
	}
	
	provinces = {
		11162 
	}
	manpower = 1
	state_category = state_00
	buildings_max_level_factor = 1.000
}
