
state = {
	id = 550
	name = "STATE_550"


	manpower = 1638480
	buildings_max_level_factor = 1.000
	state_category = state_03
	history = {
		owner = SWE
		victory_points = {
			11215 1 
		}
		victory_points = {
			9279 5 
		}
		victory_points = {
			11160 1 
		}
		victory_points = {
			6345 1 
		}
		victory_points = {
			6412 1 
		}
		buildings = {
			infrastructure = 6
			internet_station = 2
			industrial_complex = 2
			air_base = 3
			dockyard = 1
			11215 = {
				naval_base = 5

			}
			9279 = {
				naval_base = 5

			}

		}
		add_core_of = SWE
		2017.1.1 = {
			buildings = {
				internet_station = 4
			}
			add_manpower = 190405
		}
	}

	provinces = {
		3307 6345 6412 9279 9300 11160 11215 11376 
	}
}
