state = {
	id = 624
	name = "STATE_624"
	manpower = 1000
	state_category = state_00

	history = {
		owner = USA
		#victory_points = { 11181 1 }
		
		buildings = {
			infrastructure = 5
			internet_station = 2
			air_base = 4
			11181 = {
				naval_base = 5
			}
		}
	}

	provinces = {
		11181
	}
}