
state = {
	id = 634
	name = "STATE_634"

	resources = {
		oil = 3
	}

	history = {
		owner = IND
		victory_points = {
			4608 10
		}
		victory_points = {
			10479 5
		}
		victory_points = {
			12472 2
		}
		victory_points = {
			1209 2
		}
		victory_points = {
			4306 1
		}
		victory_points = {
			7654 1
		}
		victory_points = { 1413 5 } #Semarang
		victory_points = { 12293 5 } #Surakarta
		victory_points = { 10135 5 } #Yogyakarta
		victory_points = { 7642 2 } #Cilacap
		victory_points = { 12277 2 } #Pekalongan

		buildings = {
			infrastructure = 4
			internet_station = 1
			industrial_complex = 3
			dockyard = 1
			air_base = 4
			4608 = {
				naval_base = 4

			}

		}
		add_core_of = IND
		2017.1.1 = {
			add_manpower = 2000000
			add_manpower = 2000000
			add_manpower = 2000000
			add_manpower = 484242
			add_manpower = 2000000
			add_manpower = 2000000
			add_manpower = 2000000
			add_manpower = 43347
			buildings = {
				internet_station = 3
				industrial_complex = 7
				arms_factory = 2
			}
		}
	}

	provinces = {
		1209 4306 4608 7654 10479 10491 12472 6074 7223 7642 12277 10135 12293 1413 4390
	}
	manpower = 64002567
	buildings_max_level_factor = 1.000
	state_category = state_17
}
