state = {
	id = 658
	name = "STATE_658"
	resources = {
		oil = 3.000
		aluminium = 20
	}

	history = {
		owner = SOV
		victory_points = {
			7375 5 
		}
		victory_points = {
			6278 5 
		}
		victory_points = {
			12527 3 
		}
		victory_points = {
			4400 3 
		}
		victory_points = {
			12244 3 
		}
		victory_points = {
			6388 1 
		}
		victory_points = {
			206 3 
		}
		victory_points = {
			12216 3 
		}
		victory_points = {
			11228 3 
		}
		victory_points = {
			9283 1 
		}
		victory_points = {
			9293 3 
		}
		victory_points = {
			1380 1 
		}
		
		buildings = {
			infrastructure = 4
			internet_station = 1
			industrial_complex = 0
			arms_factory = 2
			air_base = 2
		}
		
		add_core_of = SOV
		2017.1.1 = {
			#add_manpower = -81006
			buildings = {
				internet_station = 3
				industrial_complex = 1
			}
		}
	}

	provinces = {
		123 189 206 278 305 390 1365 1380 1754 3000 4326 4372 4400 4802 4874 6025 6278 6388 7375 9283 9293 10216 10286 11111 11195 11228 11320 11352 12175 12187 12203 12216 12244 12527 
	}
	manpower = 4232579
	state_category = state_05
}