state = {
	id = 679
	name = "STATE_679"
	manpower = 578985
	state_category = state_01
	
	resources = {
		oil = 98
	}

	history = {
		owner = SOV
		victory_points = {
			12517 4 
		}
		victory_points = {
			4669 3 
		}
		victory_points = {
			1684 3 
		}
		victory_points = {
			7689 3 
		}
		victory_points = {
			10536 3 
		}
		
		buildings = {
			infrastructure = 3
			internet_station = 1
			air_base = 4
		}
		
		add_core_of = SOV
		2017.1.1 = {
			#add_manpower = -11081
			buildings = {
				internet_station = 2
				industrial_complex = 1
			}
		}
	}

	provinces = {
		96 1664 1684 3415 4669 4761 7689 7738 7809 8461 9142 10536 10564 12517 12545 13076 
	}
}