
state = {
	id = 703
	name = "STATE_703"

	resources = {
		steel = 3
	}

	history = {
		owner = BLR
		victory_points = {
			11370 10 
		}
		victory_points = {
			11241 5 
		}
		victory_points = {
			11313 3 
		}
		victory_points = {
			294 3 
		}
		victory_points = {
			6249 3 
		}
		victory_points = {
			11220 3 
		}
		victory_points = {
			277 1 
		}
		victory_points = {
			360 1 
		}
		buildings = {
			infrastructure = 4
			internet_station = 1
			industrial_complex = 1
			air_base = 6

		}
		add_core_of = BLR
		2017.1.1 = {
			#add_manpower = -244772
			buildings = {
				internet_station = 3
				industrial_complex = 2
				arms_factory = 1
			}
		}
	}

	provinces = {
		216 233 277 294 323 360 386 406 3267 3331 6249 6292 6326 6354 6371 9236 9241 9323 11220 11241 11322 11370 699 784 833 
	}
	manpower = 4799462
	buildings_max_level_factor = 1.000
	state_category = state_05
}
