
state = {
	id = 705
	name = "STATE_705"

	history = {
		owner = SOO
		victory_points = {
			11609 2 
		}
		buildings = {
			infrastructure = 2
			internet_station = 0
			air_base = 1

		}
		add_core_of = GEO
		add_core_of = SOO
		2017.1.1 = {
			buildings = {
				internet_station = 1
			}
			#add_manpower = -968
		}
	}

	provinces = {
		1530 11609 
	}
	manpower = 54500
	buildings_max_level_factor = 1.000
	state_category = state_01
}
