
state = {
	id = 717
	name = "STATE_717"
	resources = {
		oil = 2
	}

	history = {
		owner = KAZ
		victory_points = {
			10148 5 
		}
		victory_points = {
			10603 5 
		}
		victory_points = {
			4686 3 
		}
		victory_points = {
			7597 5 
		}
		victory_points = {
			4300 1 
		}
		victory_points = {
			4374 1 
		}
		victory_points = {
			7600 1 
		}
		victory_points = {
			4773 1 
		}
		buildings = {
			infrastructure = 3
			internet_station = 1
			industrial_complex = 1
			air_base = 2

		}
		add_core_of = KAZ
		2017.1.1 = {
			add_manpower = 898174
			buildings = {
				internet_station = 2
				industrial_complex = 2
			}

		}

	}

	provinces = {
		483 661 798 4300 4374 4492 4581 4636 4638 4686 4773 7556 7597 7600 7777 10148 10353 10601 10603 12329 12385 12397 12471 12640 12658 13220 13221 13224 13225 
	}
	manpower = 3965820
	buildings_max_level_factor = 1.000
	state_category = state_05
}
