
state = {
	id = 941
	name = "STATE_941"
	manpower = 175163
	
	state_category = state_01

	history = {
		owner = PAP
		victory_points = {
			10234 1 
		}
		buildings = {
			infrastructure = 1
			10234 = {
				naval_base = 1
			}
		}
		add_core_of = PAP
		add_core_of = SOL
		2017.1.1 = {
			buildings = {
				internet_station = 1
			}
			add_manpower = 136274
		}
	}

	provinces = {
		10234
	}
}
