state = {
	id = 955
	name = "STATE_955"
	manpower = 76945
	state_category = state_00

	history = {
		owner = ENG
		victory_points = { 3311 1 } #Douglas

		buildings = {
			infrastructure = 6
			internet_station = 2
			3311 = {
				naval_base = 1
			}
		}
		add_core_of = ENG
		add_core_of = IOM #Isle of Mann
		2017.1.1 = {
			buildings = {
				internet_station = 2
			}
			add_manpower = 7049
		}
	}

	provinces = {
	   3311
	}
}