state = {
	id = 956
	name = "STATE_956"
	
	resources = {
		oil = 1
	}

	history = {
		owner = ITA
		victory_points = {
			9990 1 
		}
		victory_points = {
			6972 1 
		}
		victory_points = {
			12098 1 
		}
		
		buildings = {
			infrastructure = 4
			internet_station = 1
			arms_factory = 1
			dockyard = 1
			industrial_complex = 1
			air_base = 3			
			9990 = {
				naval_base = 5

			}
		}
		add_core_of = ITA
		2017.1.1 = {
			add_manpower = -95000
			buildings = {
				internet_station = 3
				industrial_complex = 1
			}
		}
	}	

	provinces = {
		6972 9856 9990 10027 12098 
	}
	manpower = 2630000
	buildings_max_level_factor = 1.000
	state_category = state_04
}
