
state = {
	id = 968
	name = "STATE_968"
	resources = {
		steel = 24
		tungsten = 15
	}
	history = {
		owner = SPR
		victory_points = {
			6902 1
		}
		victory_points = {
			6866 1
		}
		victory_points = {
			11820 1
		}
		buildings = {
			infrastructure = 5
			internet_station = 2
			industrial_complex = 1
			air_base = 6

		}
		add_core_of = SPR
		2017.1.1 = {
			add_manpower = 19212
			buildings = {
				internet_station = 4
				industrial_complex = 1
			}
		}
	}

	provinces = {
		809 985 3930 6866 6902 9839 9877 9917 11820 11851
	}
	manpower = 1058503
	buildings_max_level_factor = 1.000
	state_category = state_02
}
