
state = {
	id = 997
	name = "STATE_997"

	history = {
		owner = MLV
		buildings = {
			infrastructure = 2
			internet_station = 0

		}
		add_core_of = MLV
		add_core_of = ROM
		2017.1.1 = {
			buildings = {
				internet_station = 3
			}
			add_manpower = 2958
		}
	}

	provinces = {
		13302
	}
	manpower = 132392
	buildings_max_level_factor = 1.000
	state_category = state_00
}
