#Written by Hiddengearz, Balanced by Bird, re-balanced by dc
###Reworked as of 11/27/2020 adding stealth qualities and survivability - lowering damage output
equipments = {
	strategic_bomber_equipment = {
		is_archetype = yes
		is_buildable = no
		is_convertable = yes
		type = strategic_bomber
		group_by = archetype
		sprite = strat_bomber
		air_map_icon_frame = 8
		interface_category = interface_category_air

		# Strategic bomber
		interface_overview_category_index = 5

		upgrades = {
			plane_bomb_upgrade
			plane_range_upgrade
			plane_engine_upgrade
			plane_reliability_upgrade
		}

		air_superiority = 1
		reliability = 0.80

		# Air vs Navy - high damage / low hit chance / hard to hurt
		naval_strike_attack = 4
		naval_strike_targetting = 3

		#Space taken in convoy
		lend_lease_cost = 12

		build_cost_ic = 500
		resources = {
			aluminium = 2
			tungsten = 1
		}
		fuel_consumption = 0.2
		manpower = 85
	}
	#1965
	strategic_bomber1 = {
		year = 1965

		archetype = strategic_bomber_equipment
		priority = 1

		air_range = 5474
		maximum_speed = 845
		air_agility = 49.5
		air_attack = 2.5
		air_defence = 260

		air_ground_attack = 50 # Ground & bomb updated
		air_bombing = 100

		build_cost_ic = 500
		resources = {
			aluminium = 2
			tungsten = 2
		}
		fuel_consumption = 20
	}
	#1975
	strategic_bomber2 = {
		year = 1975

		archetype = strategic_bomber_equipment
		parent = strategic_bomber1
		priority = 1
		air_range = 5875
		maximum_speed = 962
		air_agility = 57.25 #1.4
		air_attack = 5 #1.2
		air_defence = 290 #1.5

		air_ground_attack = 55 #Ground & bomb updated 1.4
		air_bombing = 117 #1.5
		naval_strike_attack = 5
		naval_strike_targetting = 3.25

		build_cost_ic = 425
		resources = {
			aluminium = 3
			tungsten = 2
		}
		fuel_consumption = 18.0
	}
	#1985
	strategic_bomber3 = {
		year = 1985

		archetype = strategic_bomber_equipment
		parent = strategic_bomber2
		priority = 130

		air_range = 7453
		maximum_speed = 1427
		air_agility = 59.5
		air_attack = 5
		air_defence = 310

		air_ground_attack = 60 # Ground & bomb updated
		air_bombing = 135
		naval_strike_attack = 8
		naval_strike_targetting = 3.75

		build_cost_ic = 400
		resources = {
			aluminium = 3
			tungsten = 3
		}
		fuel_consumption = 18.0
	}
	#2015
	strategic_bomber4 = {
		year = 2015

		archetype = strategic_bomber_equipment
		parent = strategic_bomber3
		priority = 150

		air_range = 10547
		maximum_speed = 1074
		air_agility = 85.5
		air_attack = 5
		air_defence = 475

		air_ground_attack = 70 # Ground & bomb updated
		air_bombing = 175
		naval_strike_attack = 8.5
		naval_strike_targetting = 4.5

		build_cost_ic = 420
		resources = {
			aluminium = 5
			tungsten = 4
		}
		fuel_consumption = 20
	}
	#2025
	strategic_bomber5 = {
		year = 2025

		archetype = strategic_bomber_equipment
		parent = strategic_bomber4
		priority = 55

		air_range = 10745
		maximum_speed = 1187
		air_agility = 87
		air_attack = 5
		air_defence = 500

		air_ground_attack = 75 # Ground & bomb updated
		air_bombing = 200
		naval_strike_attack = 9.75
		naval_strike_targetting = 5

		build_cost_ic = 430
		resources = {
			aluminium = 5
			tungsten = 4
		}
		fuel_consumption = 20
	}
	#2035
	strategic_bomber6 = {
		year = 2035

		archetype = strategic_bomber_equipment
		parent = strategic_bomber5
		priority = 60

		air_range = 10745
		maximum_speed = 1378
		air_agility = 89.5
		air_attack = 5
		air_defence = 525

		air_ground_attack = 80  # Ground & bomb updated
		air_bombing = 225
		naval_strike_attack = 11
		naval_strike_targetting = 6

		build_cost_ic = 440
		resources = {
			aluminium = 5
			tungsten = 4
		}
		fuel_consumption = 16
	}


	# Transport plane
	transport_plane_equipment = {
		is_archetype = yes
		is_convertable = yes
		type = air_transport
		group_by = archetype
		sprite = transport_plane
		air_map_icon_frame = 12
		interface_category = interface_category_air

		# Transport
		interface_overview_category_index = 6

		air_superiority = 0
		reliability = 0.85

		# Air vs Navy - high damage / low hit chance / hard to hurt
		naval_strike_attack = 0.0
		naval_strike_targetting = 0.0

		build_cost_ic = 300
		resources = {
			aluminium = 3
		}
		fuel_consumption = 12
		manpower = 75
	}
	transport_plane1 = {
		year = 1965

		archetype = transport_plane_equipment
		active = no
		priority = 5

		air_range = 2260
		maximum_speed = 300
		air_agility = 34
		air_defence = 200

		build_cost_ic = 300
		resources = {
			aluminium = 4
		}
		fuel_consumption = 12
	}
	transport_plane2 = {
		year = 1985

		archetype = transport_plane_equipment
		parent = transport_plane1
		active = no
		priority = 20

		air_range = 2460
		maximum_speed = 360
		air_agility = 42
		air_defence = 230

		build_cost_ic = 225
		resources = {
			aluminium = 5
		}
		fuel_consumption = 10
	}
	transport_plane3 = {
		year = 1995

		archetype = transport_plane_equipment
		parent = transport_plane2
		active = no
		priority = 35

		air_range = 2748
		maximum_speed = 420
		air_agility = 45
		air_defence = 240

		build_cost_ic = 200
		resources = {
			aluminium = 6
		}
		fuel_consumption = 10
	}
	transport_plane4 = {
		year = 2015

		archetype = transport_plane_equipment
		parent = transport_plane3
		active = no
		priority = 50

		air_range = 2960
		maximum_speed = 560
		air_agility = 53
		air_defence = 270

		build_cost_ic = 200
		resources = {
			aluminium = 7
		}
		fuel_consumption = 11
	}
	transport_plane5 = {
		year = 2025

		archetype = transport_plane_equipment
		parent = transport_plane4
		active = no
		priority = 60

		air_range = 3225
		maximum_speed = 620
		air_agility = 55.5
		air_defence = 280

		build_cost_ic = 225
		resources = {
			aluminium = 8
		}
		fuel_consumption = 11
	}
	transport_plane6 = {
		year = 2035

		archetype = transport_plane_equipment
		parent = transport_plane5
		active = no
		priority = 70

		air_range = 3675
		maximum_speed = 680
		air_agility = 58
		air_defence = 290

		build_cost_ic = 250
		resources = {
			aluminium = 9
		}
		fuel_consumption = 9
	}

	CAS_equipment = {
		is_archetype = yes
		is_buildable = no
		is_convertable = yes

		type = { cas }
		group_by = archetype
		sprite = cas
		air_map_icon_frame = 7
		picture = archetype_CAS_equipment
		interface_category = interface_category_air

		# CAS
		interface_overview_category_index = 0

		upgrades = {
			plane_cas_upgrade
			plane_range_upgrade
			plane_engine_upgrade
			plane_reliability_upgrade
		}

		air_superiority = 1
		reliability = 0.92

		# Air vs Ground
		air_ground_attack = 50

		# Air vs Navy - high damage / high hit chance / easy to hurt
		naval_strike_attack = 2.5
		naval_strike_targetting = 2

		#Space taken in convoy
		lend_lease_cost = 8

		build_cost_ic = 200
		resources = {
			aluminium = 2
			tungsten = 1
		}
		fuel_consumption = 7.75
		manpower = 22
	}
	#1975
	cas1 = {
		year = 1975

		archetype = CAS_equipment
		priority = 10

		air_range = 1050
		maximum_speed = 800
		air_agility = 55
		air_attack = 7
		air_defence = 120

		air_ground_attack = 45
		naval_strike_attack = 2.5
		naval_strike_targetting = 2
		air_bombing = 30

		build_cost_ic = 200
		resources = {
			aluminium = 2
			tungsten = 2
		}
		fuel_consumption = 3.75
	}
	#1995
	cas2 = {
		year = 1995

		archetype = CAS_equipment
		parent = cas1
		priority = 70

		air_range = 1274
		maximum_speed = 960
		air_agility = 65
		air_attack = 8 #1.5
		air_defence = 145 #1.5

		air_ground_attack = 70 #1.7
		naval_strike_attack = 3.25 #1.2
		naval_strike_targetting = 2 #1.2
		air_bombing = 40 #1.8

		build_cost_ic = 155
		resources = {
			aluminium = 4
			tungsten = 2
		}
		fuel_consumption = 6.75
	}
	#2015
	cas3 = {
		year = 2015

		archetype = CAS_equipment
		parent = cas2
		priority = 85

		air_range = 1435
		maximum_speed = 1152
		air_agility = 73
		air_attack = 8.25
		air_defence = 220

		air_ground_attack = 90
		naval_strike_attack = 4
		naval_strike_targetting = 2.5
		air_bombing = 45

		build_cost_ic = 150
		resources = {
			aluminium = 5
			tungsten = 3
		}
		fuel_consumption = 7.25
	}
	#2025
	cas4 = {
		year = 2025

		archetype = CAS_equipment
		parent = cas3
		priority = 95

		air_range = 1623
		maximum_speed = 1278
		air_agility = 76
		air_attack = 8.5
		air_defence = 230

		air_ground_attack = 110
		naval_strike_attack = 4.5
		naval_strike_targetting = 3
		air_bombing = 50

		build_cost_ic = 150
		resources = {
			aluminium = 5
			tungsten = 3
		}
		fuel_consumption = 7.25
	}
	#2035
	cas5 = {
		year = 2035

		archetype = CAS_equipment
		parent = cas4
		priority = 95

		air_range = 1815
		maximum_speed = 1408
		air_agility = 78
		air_attack = 8.75
		air_defence = 240

		air_ground_attack = 130
		naval_strike_attack = 5
		naval_strike_targetting = 3.5
		air_bombing = 55

		build_cost_ic = 155
		resources = {
			aluminium = 5
			tungsten = 3
		}
		fuel_consumption = 5.25
	}
	##Naval Plane
	nav_plane_equipment = {
		is_archetype = yes
		is_buildable = no
		is_convertable = yes
		type = { naval_bomber scout_plane }
		group_by = archetype
		sprite = nav_plane
		air_map_icon_frame = 10
		interface_category = interface_category_air

		# Naval bomber
		interface_overview_category_index = 2

		upgrades = {
			nav_gun_upgrade
			plane_range_upgrade
			plane_engine_upgrade
			plane_reliability_upgrade
		}

		air_superiority = 1
		reliability = 0.825
		air_ground_attack = 5

		# Air vs Navy - high damage / medium hit chance / easy to hurt
		naval_strike_attack = 8
		naval_strike_targetting = 6.5

		build_cost_ic = 300
		resources = {
			aluminium = 3
			tungsten = 2
		}
		fuel_consumption = 12
		manpower = 50
	}
	#1965
	naval_plane1 = {
		year = 1965

		archetype = nav_plane_equipment
		priority = 10

		air_range = 1875
		maximum_speed = 530
		air_agility = 47
		air_attack = 6
		air_defence = 210

		air_ground_attack = 5 #updated combat stats
		naval_strike_attack = 8
		naval_strike_targetting = 6.5

		build_cost_ic = 300
		resources = {
			aluminium = 3
			tungsten = 2
		}
		fuel_consumption = 12
	}
	#1975
	naval_plane2 = {
		year = 1975

		archetype = nav_plane_equipment
		parent = naval_plane1
		priority = 45

		air_range = 2000
		maximum_speed = 645
		air_agility = 54
		air_attack = 6 #1.2
		air_defence = 235 #1.2

		air_ground_attack = 5 #updated combat stats 1.3
		naval_strike_attack = 9.25 #1.3
		naval_strike_targetting = 7.5


		build_cost_ic = 250
		resources = {
			aluminium = 3
			tungsten = 2
		}
		fuel_consumption = 10
	}
	#1985
	naval_plane3 = {
		year = 1985

		archetype = nav_plane_equipment
		parent = naval_plane2
		priority = 95

		air_range = 2250
		maximum_speed = 748
		air_agility = 57
		air_attack = 7
		air_defence = 245

		air_ground_attack = 5 #combat stats updated
		naval_strike_attack = 10.5
		naval_strike_targetting = 9

		build_cost_ic = 230
		resources = {
			aluminium = 4
			tungsten = 2
		}
		fuel_consumption = 10
	}
	#2015
	naval_plane4 = {
		year = 2015

		archetype = nav_plane_equipment
		parent = naval_plane3
		priority = 120

		air_range = 2400
		maximum_speed = 884
		air_agility = 67
		air_attack = 8
		air_defence = 265

		air_ground_attack = 5 #updated combat stats
		naval_strike_attack = 12.25
		naval_strike_targetting = 11.5

		build_cost_ic = 210
		resources = {
			aluminium = 4
			tungsten = 4
		}
		fuel_consumption = 11
	}
	#2025
	naval_plane5 = { #s8
		year = 2025

		archetype = nav_plane_equipment
		parent = naval_plane4
		priority = 120

		air_range = 2675
		maximum_speed = 976
		air_agility = 69
		air_attack = 8.5
		air_defence = 285

		air_ground_attack = 5 #updated combat stats
		naval_strike_attack = 14
		naval_strike_targetting = 12.75

		build_cost_ic = 215
		resources = {
			aluminium = 5
			tungsten = 3
		}
		fuel_consumption = 11
	}
	#2035 - Capped Units
	naval_plane6 = {
		year = 2035

		archetype = nav_plane_equipment
		parent = naval_plane5
		priority = 120

		air_range = 2950
		maximum_speed = 1175
		air_agility = 72
		air_attack = 8.5
		air_defence = 300

		air_ground_attack = 5 #updated combat stats
		naval_strike_attack = 16
		naval_strike_targetting = 14
		build_cost_ic = 220
		resources = {
			aluminium = 5
			tungsten = 3
		}
		fuel_consumption = 9.0
	}
}
