scripted_gui = {

	israel_screen_gui = {
		context_type = decision_category
		
		window_name = "israel_screen_gui"
		
		visible = {
			
		}
		effects = {
			region_west_bank_click = {
				set_variable = { israel_state_selected = 2}
			}
			region_israel_click = {
				set_variable = { israel_state_selected = 2}
			}
			region_gaza_click = {
				set_variable = { israel_state_selected = 2}
			}
		}
		triggers = {
		}
	}
}
