SER;Ruling Cabinet - Start;Name;Pool;Ideology;Personality;Loyalty;Picturename;x;
71001;Head of State;Natasa Micic;2003;SL;Popular Figurehead;high;M_SER_natasa_micic;x;
71002;Head of Government;Zoran Zivkovic;2003;SL;Naive Optimist;high;M_SER_zoran_zivkovic;x;
71003;Foreign Minister;Goran Svilanovic;2003;SL;Biased Intellectual;high;M_SER_goran_svilanovic;x;
71004;Minister of Armament;Boris Tadic;2003;SL;Laissez Faires Capitalist;high;M_SER_boris_tadic;x;
71005;Minister of Security;Dusan Mihajlovic;2003;SL;Crooked Kleptocrat;high;M_SER_dusan_mihajlovic;x;
71006;Head of Military Intelligence;Misa Milicevic;2003;SL;Political Specialist;high;Unknown;x;
71007;Chief of Staff;Dragan Paskas;2003;NA;School of Manoeuvre;high;M_SER_dragan_paskas;x;
71008;Chief of Army;Vladimir Lazarevic;2003;NA;Armoured Spearhead Doctrine;high;M_SER_vladimir_lazarevic;x;
71009;Chief of Navy;Mihajlo Zarkovic;2003;NA;Decisive Naval Battle Doctrine;high;M_SER_mihajlo_zarkovic;x;
71010;Chief of Air Force;Branislav Petrovic;2003;NA;Air Superiority Doctrine;high;Unknown;x;
;Replacements;;;;;;;;
71011;Head of Government;Vojislav Kostunica;2003;SC;Backroom Backstabber;high;M_SER_vojislav_kostunica;x;
71012;Foreign Minister;Vuk Draskovic;2003;SC;Biased Intellectual;high;M_SER_vuk_draskovic;x;
71013;Minister of Security;Zoran Stankovic;2003;ML;Compassionate Gentleman;high;M_SER_zoran_stankovic;x;
71014;Chief of Staff;Mladen Cirkovic;2007;NA;School of Manoeuvre;high;M_SER_mladen_cirkovic;x;
71015;Chief of Air Force;Dragan Katanic;2006;NA;Air Superiority Doctrine;high;M_SER_dragan_katanic;x;
71016;Head of Government;Mirko Cvetkovic;2008;SL;Silent Workhorse;high;M_SER_mirko_cvetkovic;x;
71017;Foreign Minister;Vuk Jeremic;2007;SL;Great Compromiser;high;M_SER_vuk_jeremic;x;
71018;Minister of Security;Dragan Sutanovac;2003;SL;Compassionate Gentleman;high;M_SER_dragan_sutanovac;x;
71019;Head of State;Tomislav Nikolic;2003;PA;Autocratic Charmer;high;M_SER_tomislav_nikolic;x;
71020;Head of Military Intelligence;Danica Draskovic;2003;SL;Political Specialist;high;M_SER_danica_draskovic;x;
71021;Head of State;Aleksandar II;2003;SC;Stern Imperialist;high;M_SER_aleksandar_ii;x;
71022;Head of State;Aleksandar II;2003;SL;Stern Imperialist;high;M_SER_aleksandar_ii;x;
71023;Head of Government;Vuk Draskovic ;2003;SC;Ambitious Union Boss;high;M_SER_vuk_draskovic;x;
71024;Foreign Minister;Velimir Ilic;2003;SC;Iron Fisted Brute;high;M_SER_velimir_ilic;x;
71025;Minister of Security;Vojslav Mihailovic;2003;SC;Crime Fighter;high;M_SER_vojslav_mihailovic;x;
71026;Minister of Armament;Zoran Andjelkovic;2003;SD;Corrupt Kleptocrat;high;M_SER_zoran_andjelkovic;x;
71027;Minister of Security;Ivica Dacic;2008;SD;Back Stabber;high;M_SER_ivica_dacic;x;
71028;Head of Government;Tomislav Nikolic;2003;PA;Backroom Backstabber;high;M_SER_tomislav_nikolic;x;
71029;Minister of Security;Aleksandar Vucic;2003;PA;Prince of Terror;high;M_SER_aleksander_vucic;x;
71030;Head of Military Intelligence;Aleksandar Vucic;2003;PA;Political Specialist;high;M_SER_aleksander_vucic;x;
71031;Minister of Security;Gordana-Pop Lazic;2003;FA;Silent Lawyer;high;M_SER_gordana-pop_lazic;x;
71032;Minister of Security;Dragan Jocic;2003;ML;Efficient Sociopath;high;M_SER_dragan_jocic;x;
71033;Minister of Armament;Prvoslav Davinic;2003;SL;Infantry Proponent;high;M_SER_prvoslav_davinic;x;
71034;Chief of Staff;Ljubisa Jokic;2005;NA;School of Fire Support;high;M_SER_ljubisa_jokic;x;
71035;Chief of Army;Ljubisa Jokic;2003;NA;Guns and Butter Doctrine;high;M_SER_ljubisa_jokic;x;
71036;Minister of Armament;Dragan Sutanovac;2007;SL;Corrupt Kleptocrat;high;M_SER_dragan_sutanovac;x;
71037;Chief of Army;Mladen Cirkovic;2003;NA;Armoured Spearhead Doctrine;high;M_SER_mladen_cirkovic;x;
71038;Chief of Staff;Zdravko Ponos;2006;ML;School of Psychology;high;M_SER_zdravko_ponos;x;
71039;Chief of Army;Zdravko Ponos;2005;ML;Guns and Butter Doctrine;high;M_SER_zdravko_ponos;x;
71040;Chief of Army;Miloje Miletic;2005;NA;Decisive Battle Doctrine;high;M_SER_miloje_miletic;x;
71041;Chief of Staff;Miloje Miletic;2007;NA;School of Fire Support;high;M_SER_miloje_miletic;x;
71042;Chief of Staff;Ljubisa Dikovic;2012;NA;School of Psychology;high;M_SER_ljubisa_dikovic;x;
71043;Head of Military Intelligence;Rade Bulatovic;2003;ML;Political Specialist;high;M_SER_rade_bulatovic;x;
71044;Minister of Security;Zoran Alimpic;2010;SL;Crime Fighter;high;M_SER_zoran_alimpic;x;
71045;Minister of Security;Vladan Batic;2003;ML;Silent Lawyer;high;M_SER_vladan_batic;x;
71046;Foreign Minister;Biserka Jevtimijevic Drinjakovic;2014;SL;Great Compromiser;high;M_SER_biserka_jevtimijevic_drinjakovic;x;
71047;Head of Government;Nenad Canak;2003;SL;Flamboyant Tough Guy;high;M_SER_nenad_canak;x;
71048;Head of State;Nenad Canak;2003;SL;Benevolent Gentleman;high;M_SER_nenad_canak;x;
71049;Minister of Armament;Igor Jovicic;2010;ML;Administrative Genius;high;M_SER_igor_jovicic;x;
71050;Foreign Minister;Milan Parivodic;2008;ML;Great Compromiser;high;M_SER_milan_parivodic;x;
71051;Minister of Security;Borislav Pelevic;2003;PA;Back Stabber;high;M_SER_borislav_pelevic;x;
71052;Minister of Security;Dusan Petrovic;2007;SL;Man of the People;high;M_SER_dusan_petrovic;x;
71053;Foreign Minister;Jovan Ratkovic;2008;SL;Apologetic Clerk;high;M_SER_jovan_ratkovic;x;
71054;Foreign Minister;Aleksandar Vucic;2003;PA;Iron Fisted Brute;high;Unknown;x;
71055;Minister of Armament;Zoran Stankovic;2003;ML;Laissez Faires Capitalist;high;M_SER_zoran_stankovic;x;
71056;Head of Government;Boris Tadic;2003;SL;Flamboyant Tough Guy;high;M_SER_boris_tadic;x;
71057;Head of State;Boris Tadic;2003;SL;Benevolent Gentleman;high;M_SER_boris_tadic;x;
71058;Head of State;Ivica Dacic;2004;SD;Pig-headed Isolationist;high;M_SER_ivica_dacic;x;
71059;Head of State;Dragan Marsicanin;2004;ML;Weary Stiffneck;high;M_SER_dragan_marsicanin;x;
71060;Chief of Air Force;Nebojsa Djukanovic;2010;NA;Army Aviation Doctrine;high;M_SER_nebojsa_djukanovic;x;
71061;Chief of Army;Vojin Jondic;2011;NA;Elastic Defence Doctrine;high;M_SER_vojin_jondic;x;
71062;Head of Military Intelligence;Zivko Terzic;2008;NA;Naval Intelligence Specialist;high;M_SER_zivko_terzic;x;
71063;Head of Military Intelligence;Zdravko Jelisavcic;2003;NA;Logistics Specialist;high;M_SER_zdravko_jelisavcic;x;
71064;Chief of Army;Milomir Miladinovic;2003;NA;Decisive Battle Doctrine;high;M_SER_milomir_miladinovic;x;
71065;Chief of Staff;Milomir Miladinovic;2004;NA;School of Defence;high;M_SER_milomir_miladinovic;x;
71066;Chief of Staff;Mihajlo Zarkovic;2004;NA;School of Psychology;high;M_SER_mihajlo_zarkovic;x;
71067;Chief of Army;Jovan Lakcevic;2003;NA;Elastic Defence Doctrine;high;M_SER_jovan_lakcevic;x;
71068;Chief of Staff;Jovan Lakcevic;2005;NA;School of Fire Support;high;M_SER_jovan_lakcevic;x;
71069;Head of Military Intelligence;Milan Zaric;2003;NA;Logistics Specialist;high;M_SER_milan_zaric;x;
71070;Head of Military Intelligence;Svetko Kovac;2003;NA;Logistics Specialist;high;M_SER_svetko_kovac;x;
71071;Head of Government;Dragan Todorovic;2003;PA;Political Protege;high;M_SER_dragan_todorovic;x;
71072;Head of State;Vojislav Seselj;1099;FA;Barking Buffoon;high;M_SER_vojislav_seselj;x;*hague
71073;Minister of Armament;Veselin Sljivancanin;1099;PA;Tank Proponent;high;M_SER_veselin_sljivancanin;x;*hague
71073;Minister of Armament;Mile Mrksic;1099;PA;Corrupt Kleptocrat;high;M_SER_mile_mrksic;x;*hague
71074;Minister of Security;Milan Martic;1099;FA;Back Stabber;high;M_SER_milan_martic;x;*hague
71075;Minister of Armament;Ratko Mladic;1099;FA;Military Entrepreneur;high;M_SER_ratko_mladic;x;*fugitive
71076;Minister of Security;Goran Hadzic;1099;FA;Back Stabber;high;M_SER_goran_hadzic;x;*fugitive
71077;Chief of Staff;Veselin Sljivancanin;1099;FA;School of Fire Support;high;M_SER_veselin_sljivancanin;x;*hague
71078;Minister of Security;Momcilo Krajisnik;1099;FA;Prince of Terror;high;M_SER_momcilo_krajisnik;x;*hague
71079;Chief of Staff;Nebojsa Pavkovic;1099;FA;School of Mass Combat;high;M_SER_nebojsa_pavkovic;x;*hague
