UKR_wve_rivlary_alignment_to_the_west = {
	if = {
		limit = {
			OR = {
				UKR = {
					set_temp_variable = { temp_idx = -1 }
					any_of = {
						array = influence_array
						value = v
						index = i
						if = {
							limit = { var:v = { tag = USA } }
							set_temp_variable = { temp_idx = i }
							always = yes
						}
						else = { always = no }
					}
					check_variable = { temp_idx > -1 }
					check_variable = { influence_array_calc^temp_idx > 0.10 }
				}
				UKR = {
					set_temp_variable = { temp_idx = -1 }
					any_of = {
						array = influence_array
						value = v
						index = i
						if = {
							limit = { var:v = { tag = ENG } }
							set_temp_variable = { temp_idx = i }
							always = yes
						}
						else = { always = no }
					}
					check_variable = { temp_idx > -1 }
					check_variable = { influence_array_calc^temp_idx > 0.10 }
				}
				UKR = {
					set_temp_variable = { temp_idx = -1 }
					any_of = {
						array = influence_array
						value = v
						index = i
						if = {
							limit = { var:v = { tag = FRA } }
							set_temp_variable = { temp_idx = i }
							always = yes
						}
						else = { always = no }
					}
					check_variable = { temp_idx > -1 }
					check_variable = { influence_array_calc^temp_idx > 0.10 }
				}
				UKR = {
					set_temp_variable = { temp_idx = -1 }
					any_of = {
						array = influence_array
						value = v
						index = i
						if = {
							limit = { var:v = { tag = GER } }
							set_temp_variable = { temp_idx = i }
							always = yes
						}
						else = { always = no }
					}
					check_variable = { temp_idx > -1 }
					check_variable = { influence_array_calc^temp_idx > 0.10 }
				}
			}
		}	
		if = {
			limit = {  has_idea = UKR_east_dominant }
			swap_ideas = {
				remove_idea = UKR_east_dominant
				add_idea = UKR_east_strengthened
			}
		}
		else_if = {
			limit = { has_idea = UKR_east_strengthened }
			swap_ideas = {
				remove_idea = UKR_east_strengthened
				add_idea = UKR_west_east_rivalry_balanced
			}
		}
		else_if = {
			limit = { has_idea = UKR_west_east_rivalry_balanced }
			swap_ideas = {
				remove_idea = UKR_west_east_rivalry_balanced
				add_idea = UKR_west_strengthened
			}
		}
		else_if = {
			limit = { has_idea = UKR_west_strengthened }
			swap_ideas = {
				remove_idea = UKR_west_strengthened
				add_idea = UKR_west_dominant
			}
		}
	}
}

UKR_wve_rivlary_alignment_to_the_east = {
	if = {
		limit = {
			OR = {
				UKR = {
					set_temp_variable = { temp_idx = -1 }
					any_of = {
						array = influence_array
						value = v
						index = i
						if = {
							limit = { var:v = { tag = SOV } }
							set_temp_variable = { temp_idx = i }
							always = yes
						}
						else = { always = no }
					}
					check_variable = { temp_idx > -1 }
					check_variable = { influence_array_calc^temp_idx > 0.10 }
				}
				UKR = {
					set_temp_variable = { temp_idx = -1 }
					any_of = {
						array = influence_array
						value = v
						index = i
						if = {
							limit = { var:v = { tag = CHI } }
							set_temp_variable = { temp_idx = i }
							always = yes
						}
						else = { always = no }
					}
					check_variable = { temp_idx > -1 }
					check_variable = { influence_array_calc^temp_idx > 0.10 }
				}
			}
		}
		if = {
			limit = { has_idea = UKR_west_dominant }
			swap_ideas = {
				remove_idea = UKR_west_dominant
				add_idea = UKR_west_strengthened
			}
		}
		else_if = {
			limit = { has_idea = UKR_west_strengthened }
			swap_ideas = {
				remove_idea = UKR_west_strengthened
				add_idea = UKR_west_east_rivalry_balanced
			}
		}
		else_if = {
			limit = { has_idea = UKR_west_east_rivalry_balanced }
			swap_ideas = {
				remove_idea = UKR_west_east_rivalry_balanced
				add_idea = UKR_east_strengthened
			}
		}
		else_if = {
			limit = { has_idea = UKR_east_strengthened }
			swap_ideas = {
				remove_idea = UKR_east_strengthened
				add_idea = UKR_east_dominant
			}
		}
	}
}

UKR_idea_pro_ukraine_government_reforms = {
	if = {
		limit = { has_idea = UKR_idea_pro_ukraine_reform_7 }
		swap_ideas = {
			remove_idea = UKR_idea_pro_ukraine_reform_7
			add_idea = UKR_idea_pro_ukraine_reform_8
		}
	}
	else_if = {
		limit = { has_idea = UKR_idea_pro_ukraine_reform_6 }
		swap_ideas = {
			remove_idea = UKR_idea_pro_ukraine_reform_6
			add_idea = UKR_idea_pro_ukraine_reform_7
		}
	}
	else_if = {
		limit = { has_idea = UKR_idea_pro_ukraine_reform_5 }
		swap_ideas = {
			remove_idea = UKR_idea_pro_ukraine_reform_5
			add_idea = UKR_idea_pro_ukraine_reform_6
		}
	}
	else_if = {
		limit = { has_idea = UKR_idea_pro_ukraine_reform_4 }
		swap_ideas = {
			remove_idea = UKR_idea_pro_ukraine_reform_4
			add_idea = UKR_idea_pro_ukraine_reform_5
		}
	}
	else_if = {
		limit = { has_idea = UKR_idea_pro_ukraine_reform_3 }
		swap_ideas = {
			remove_idea = UKR_idea_pro_ukraine_reform_3
			add_idea = UKR_idea_pro_ukraine_reform_4
		}
	}
	else_if = {
		limit = { has_idea = UKR_idea_pro_ukraine_reform_2 }
		swap_ideas = {
			remove_idea = UKR_idea_pro_ukraine_reform_2
			add_idea = UKR_idea_pro_ukraine_reform_3
		}
	}
	else_if = {
		limit = { has_idea = UKR_idea_pro_ukraine_reform_1 }
		swap_ideas = {
			remove_idea = UKR_idea_pro_ukraine_reform_1
			add_idea = UKR_idea_pro_ukraine_reform_2
		}
	}
	else_if = {
		limit = { has_idea = UKR_idea_government_in_need }
		swap_ideas = {
			remove_idea = UKR_idea_government_in_need
			add_idea = UKR_idea_pro_ukraine_reform_1
		}
	}
}
UKR_idea_pro_russia_government_reforms = {
	if = {
		limit = { has_idea = UKR_idea_pro_russia_reform_7 }
		swap_ideas = {
			remove_idea = UKR_idea_pro_russia_reform_7
			add_idea = UKR_idea_pro_russia_reform_8
		}
	}
	else_if = {
		limit = { has_idea = UKR_idea_pro_russia_reform_6 }
		swap_ideas = {
			remove_idea = UKR_idea_pro_russia_reform_6
			add_idea = UKR_idea_pro_russia_reform_7
		}
	}
	else_if = {
		limit = { has_idea = UKR_idea_pro_russia_reform_5 }
		swap_ideas = {
			remove_idea = UKR_idea_pro_russia_reform_5
			add_idea = UKR_idea_pro_russia_reform_6
		}
	}
	else_if = {
		limit = { has_idea = UKR_idea_pro_russia_reform_4 }
		swap_ideas = {
			remove_idea = UKR_idea_pro_russia_reform_4
			add_idea = UKR_idea_pro_russia_reform_5
		}
	}
	else_if = {
		limit = { has_idea = UKR_idea_pro_russia_reform_3 }
		swap_ideas = {
			remove_idea = UKR_idea_pro_russia_reform_3
			add_idea = UKR_idea_pro_russia_reform_4
		}
	}
	else_if = {
		limit = { has_idea = UKR_idea_pro_russia_reform_2 }
		swap_ideas = {
			remove_idea = UKR_idea_pro_russia_reform_2
			add_idea = UKR_idea_pro_russia_reform_3
		}
	}
	else_if = {
		limit = { has_idea = UKR_idea_pro_russia_reform_1 }
		swap_ideas = {
			remove_idea = UKR_idea_pro_russia_reform_1
			add_idea = UKR_idea_pro_russia_reform_2
		}
	}
	else_if = {
		limit = { has_idea = UKR_idea_government_in_need }
		swap_ideas = {
			remove_idea = UKR_idea_government_in_need
			add_idea = UKR_idea_pro_russia_reform_1
		}
	}
}