﻿division_template = {
	name = "Yaugika Padatika Dibhiśana"		#Composite Infantry Division

	regiments = {
		Mot_Inf_Bat = { x = 0 y = 0 }
		Mot_Inf_Bat = { x = 0 y = 1 }
		Mot_Inf_Bat = { x = 0 y = 2 }
		Arty_Bat = { x = 0 y = 3 }

		Mot_Inf_Bat = { x = 1 y = 0 }
		Mot_Inf_Bat = { x = 1 y = 1 }
		Mot_Inf_Bat = { x = 1 y = 2 }
		Arty_Bat = { x = 1 y = 3 }

		Mot_Inf_Bat = { x = 2 y = 0 }
		Mot_Inf_Bat = { x = 2 y = 1 }
		L_Engi_Bat = { x = 2 y = 2 }
	}
}

division_template = {
	name = "Padatika Dibhiśana"				#Infantry Division

	regiments = {
		Mot_Inf_Bat = { x = 0 y = 0 }
		Mot_Inf_Bat = { x = 0 y = 1 }
		Mot_Inf_Bat = { x = 0 y = 2 }
		Arty_Bat = { x = 0 y = 3 }

		Mot_Inf_Bat = { x = 1 y = 0 }
		Mot_Inf_Bat = { x = 1 y = 1 }
		Arty_Bat = { x = 1 y = 2 }

		Mot_Inf_Bat = { x = 2 y = 0 }
		Mot_Inf_Bat = { x = 2 y = 1 }
		Arty_Bat = { x = 1 y = 1 }
	}

	support = {
		L_Engi_Comp = { x = 0 y = 0 }
	}
}

division_template = {
	name = "Samjoya Dibhiśana"				#Armoured Division

	regiments = {
		armor_Bat = { x = 0 y = 0 }
		armor_Bat = { x = 0 y = 1 }
		armor_Bat = { x = 0 y = 2 }
		SP_Arty_Bat = { x = 0 y = 3 }

		Mech_Inf_Bat = { x = 1 y = 0 }
		Mech_Inf_Bat = { x = 1 y = 1 }
		Mech_Inf_Bat = { x = 1 y = 2 }
		SP_Arty_Bat = { x = 1 y = 3 }
	}
}

division_template = {
	name = "Paratrooper Brigade"

	regiments = {
		L_Air_Inf_Bat = { x = 0 y = 0 }
		L_Air_Inf_Bat = { x = 0 y = 1 }
		L_Air_Inf_Bat = { x = 0 y = 2 }
		L_Air_Inf_Bat = { x = 0 y = 3 }
		Special_Forces = { x = 0 y = 4 }
	}
	support = {
		L_Engi_Comp = { x = 0 y = 0 }
		Arty_Battery = { x = 0 y = 1 }
	}

	priority = 2
}
division_template = {
	name = "Marine Brigade"

	regiments = {
		L_Marine_Bat = { x = 0 y = 0 }
		L_Marine_Bat = { x = 0 y = 1 }
		L_Marine_Bat = { x = 0 y = 2 }
	}
	support = {
		L_Engi_Comp = { x = 0 y = 0 }
		Arty_Battery = { x = 0 y = 1 }
	}

	priority = 2
}
units = {
	#9th Division
	division = {
		name = "9 Ma Padatika Dibhiśanera"
		location = 11929		#Savar
		division_template = "Yaugika Padatika Dibhiśana"
		start_experience_factor = 0.3
		start_equipment_factor = 0.01
	}

	#10th Division
	division = {
		name = "10 Ma Padatika Dibhiśanera"
		location = 1142		#Ramu
		division_template = "Padatika Dibhiśana"
		start_experience_factor = 0.3
		start_equipment_factor = 0.01
	}

	#11th Division
	division = {
		name = "11 Ma Padatika Dibhiśanera"
		location = 113		#Majhira
		division_template = "Samjoya Dibhiśana"
		start_experience_factor = 0.3
		start_equipment_factor = 0.01
	}

	#17th Division
	division = {
		name = "17 Ma Padatika Dibhiśanera"
		location = 115		#Jalalabad
		division_template = "Padatika Dibhiśana"
		start_experience_factor = 0.3
		start_equipment_factor = 0.01
	}

	#19th Division
	division = {
		name = "19 Ma Padatika Dibhiśanera"
		location = 112		#Shahid Salahuddin
		division_template = "Yaugika Padatika Dibhiśana"
		start_experience_factor = 0.3
		start_equipment_factor = 0.01
	}

	#24th Division
	division = {
		name = "24 Ma Padatika Dibhiśanera"
		location = 12010		#Chittagong
		division_template = "Padatika Dibhiśana"
		start_experience_factor = 0.3
		start_equipment_factor = 0.01
	}

	#33rd Division
	division = {
		name = "33 Ma Padatika Dibhiśanera"
		location = 11968		#Comilla
		division_template = "Padatika Dibhiśana"
		start_experience_factor = 0.3
		start_equipment_factor = 0.01
	}

	#66th Division
	division = {
		name = "66 Ma Padatika Dibhiśanera"
		location = 10443		#Rangpur
		division_template = "Padatika Dibhiśana"
		start_experience_factor = 0.3
		start_equipment_factor = 0.01
	}

	division = {
		name = "Bangladesh Paratrooper Brigade"
		location = 11929
		division_template = "Paratrooper Brigade"
		start_experience_factor = 0.5
		start_equipment_factor = 0.01
	}

	division = {
		name = "Bangladesh Marines"
		location = 11929
		division_template = "Marine Brigade"
		start_experience_factor = 0.5
		start_equipment_factor = 0.01
	}

}

instant_effect = {

	add_equipment_to_stockpile = {
		type = L_Strike_fighter2		#L-39
		amount = 7
		producer = CZE
	}
	add_equipment_to_stockpile = {
		type = MBT_3			#Khalid
		amount = 44
		producer = PAK
	}

	add_equipment_to_stockpile = {
		type = MBT_1			#Type 69-IIG, but comparable to Type 79
		#version_name = "Type-79"
		amount = 58
		producer = CHI
	}

	add_equipment_to_stockpile = {
		type = MBT_1			#Type 59
		amount = 174
		producer = CHI
	}

	add_equipment_to_stockpile = {
		type = Rec_tank_0			#Type 62
		amount = 36
		producer = CHI
	}

	add_equipment_to_stockpile = {
		type = APC_4				#BTR-80
		amount = 325
		producer = SOV
	}

	add_equipment_to_stockpile = {
		type = APC_2				#MT-LB
		amount = 134
		producer = SOV
	}

	add_equipment_to_stockpile = {
		type = SP_arty_1				#Nora B-52
		amount = 18
		producer = SER
	}

	add_equipment_to_stockpile = {
		type = Anti_Air_2				#FN-16
		amount = 600
		producer = CHI
	}

	add_equipment_to_stockpile = {
		type = Anti_tank_2				#Metis
		amount = 400
		producer = SOV
	}

	add_equipment_to_stockpile = {
		type = util_vehicle_3				#Dongfeng EQ2050
		amount = 500
		producer = CHI
	}

	add_equipment_to_stockpile = {
		type = util_vehicle_3				#Otokar Cobra
		amount = 22
		producer = TUR
	}

	add_equipment_to_stockpile = {
		type = artillery_0				#Various Chinese artillery
		amount = 173
		producer = CHI
	}

	#Aircraft
	add_equipment_to_stockpile = {
		type = MR_Fighter1			#Chengdu F-7
		amount = 32
		producer = CHI
	}

	add_equipment_to_stockpile = {
		type = MR_Fighter2			#Mig-29
		amount = 8
		producer = SOV
	}

	add_equipment_to_stockpile = {
		type = transport_helicopter1			#Mi-17
		amount = 34
		producer = SOV
	}

	#Fill up what's missing
	add_equipment_to_stockpile = {
		type = command_control_equipment
		amount = 1400
		producer = CHI
	}

	add_equipment_to_stockpile = {
		type = Heavy_Anti_tank_0
		amount = 400
		producer = CHI
	}

	add_equipment_to_stockpile = {
		type = infantry_weapons1
		amount = 12000
		producer = CHI
	}

	add_equipment_to_stockpile = {
		type = util_vehicle_0
		amount = 2500
		producer = CHI
	}

	if = {
		limit = { NOT = { has_dlc = "Man the Guns" } }
		if = {
			limit = { has_dlc = "Death or Dishonor" }
			CHI = {
				create_production_license = {
					target = BAN
					equipment = {
						type = diesel_attack_submarine_1			#Type-035G
						version_name = "Type 035G-Class"
					}
					cost_factor = 0
				}
			}
		}

		if = {
			limit = { has_dlc = "Death or Dishonor" }
			KOR = {
				create_production_license = {
					target = BAN
					equipment = {
						type = frigate_2			#Ulsan-Class
					}
					cost_factor = 0
				}
			}
		}

		if = {
			limit = { has_dlc = "Death or Dishonor" }
			CHI = {
				create_production_license = {
					target = BAN
					equipment = {
						type = frigate_2			#Type 053H2 Jianghu-III-Class
						version_name = "Type 053H2 Jianghu-III-Class"
					}
					cost_factor = 0
				}
			}
		}

		if = {
			limit = { has_dlc = "Death or Dishonor" }
			CHI = {
				create_production_license = {
					target = BAN
					equipment = {
						type = missile_corvette_2			#C13B-Class
						version_name = "C13B-Class"
					}
					cost_factor = 0
				}
			}
		}

		if = {
			limit = { has_dlc = "Death or Dishonor" }
			CHI = {
				create_production_license = {
					target = BAN
					equipment = {
						type = missile_corvette_2
					}
					cost_factor = 0
				}
			}
		}

		#Naval production
		add_equipment_production = { #Remaining Type 056 C-13B classes)
			equipment = {
				type = missile_corvette_2
				version_name = "C13B-Class"
				creator = "CHI"
			}
			requested_factories = 1
			progress = 0.4
			efficiency = 100
			amount = 6
		}

		add_equipment_production = { #Remaining Durjoy classes)
			equipment = {
				type = missile_corvette_2
				creator = "BAN"
			}
			requested_factories = 1
			progress = 0.2
			efficiency = 100
			amount = 4
		}
	}
}