﻿units = {

	### Naval OOB ###
	fleet = {
		name = "Grupo de Aviação"
		naval_base = 10980
		task_force = {
			name = "Grupo de Aviação"
			location = 10980 # Rio
			ship = { name = "São Paulo" definition = carrier start_experience_factor = 0.50 equipment = { carrier_0 = { amount = 1 owner = BRA  creator = FRA } } air_wings = { } }
		}
	}
}
