﻿division_template = {
	name = "Bataillon de Garde Républicain"

	regiments = {
		Mech_Inf_Bat = { x = 0 y = 0 }
	}

	support = {
		armor_Recce_Comp = { x = 0 y = 0 }
		Arty_Battery = { x = 0 y = 1 }
		SP_AA_Battery = { x = 0 y = 2 }
	}

	priority = 2

}

division_template = {
	name = "Régiment Aéroporté"

	regiments = {
		L_Air_Inf_Bat = { x = 0 y = 0 }
	}

	support = {
		armor_Recce_Comp = { x = 0 y = 0 }
		Arty_Battery = { x = 0 y = 1 }
		SP_AA_Battery = { x = 0 y = 2 }
	}

	priority = 2

}

division_template = {
	name = "Bataillon d'Infanterie"

	regiments = {
		Mot_Inf_Bat = { x = 0 y = 0 }
	}



}

units = {

	division = {
		name = "Garde Républicaine"
		location = 5139   	#Libreville
		division_template = "Bataillon de Garde Républicain"
		start_experience_factor = 0.2
		start_equipment_factor = 0.01
	}

	division = {
		name = "Régiment Aéroporté"
		location = 5139   	#
		division_template = "Régiment Aéroporté"
		start_experience_factor = 0.2
		start_equipment_factor = 0.01
	}


	division = {
		name = "1 Bataillon d'Infanterie"
		location = 10948   	#
		division_template = "Bataillon d'Infanterie"
		start_experience_factor = 0.1
		start_equipment_factor = 0.01
	}

	division = {
		name = "2 Bataillon d'Infanterie"
		location = 8207   	#
		division_template = "Bataillon d'Infanterie"
		start_experience_factor = 0.1
		start_equipment_factor = 0.01
	}

	division = {
		name = "3 Bataillon d'Infanterie"
		location = 3246   	#
		division_template = "Bataillon d'Infanterie"
		start_experience_factor = 0.1
		start_equipment_factor = 0.01
	}

}

instant_effect = {

	add_equipment_to_stockpile = {
		type = command_control_equipment
		amount = 200
		producer = SOV
	}

	add_equipment_to_stockpile = {
		type = infantry_weapons				#AKM
		amount = 400
		producer = SOV
	}

	add_equipment_to_stockpile = {
		type = infantry_weapons1				#M16
		amount = 400
		producer = USA
	}

	add_equipment_to_stockpile = {
		type = infantry_weapons				#FN FAL
		amount = 400
		producer = BEL
	}

	add_equipment_to_stockpile = {
		type = infantry_weapons1				#FAMAS
		amount = 100
		producer = FRA
	}

	add_equipment_to_stockpile = {
		type = Rec_tank_0			#EE-9 Cascavel
		amount = 14
		producer = BRA
	}

	add_equipment_to_stockpile = {
		type = Rec_tank_0			#Panhard AML
		#version_name = "Panhard AML"
		amount = 24
		producer = FRA
	}

	add_equipment_to_stockpile = {
		type = Rec_tank_0			#ERC 90
		#version_name = "ERC 90 F1 Lynx"
		amount = 6
		producer = FRA
	}

	add_equipment_to_stockpile = {
		type = util_vehicle_2	#EE-3 Jararaca
		amount = 12
		producer = BRA
	}

	add_equipment_to_stockpile = {
		type = util_vehicle_3			#VBL
		amount = 14
		producer = FRA
	}

	add_equipment_to_stockpile = {
		type = APC_2			#EE-11 Urutu
		amount = 12
		producer = BRA
	}


	add_equipment_to_stockpile = {
		type = Rec_tank_0			#V-150
		amount = 9
		producer = POR
	}

	add_equipment_to_stockpile = {
		type = APC_1			#Panhard M3
		amount = 9
		producer = FRA
	}

	add_equipment_to_stockpile = {
		type = APC_2			#Berliet VXB-170
		amount = 12
		producer = FRA
	}

	add_equipment_to_stockpile = {
		type = artillery_0			#M101
		#version_name = "M101"
		amount = 4
		producer = USA
	}

	add_equipment_to_stockpile = {
		type = Anti_tank_1			#MILAN
		amount = 4
		producer = FRA
	}

	add_equipment_to_stockpile = {
		type = SP_Anti_Air_0			#ERC-20
		amount = 4
		producer = FRA
	}

	add_equipment_to_stockpile = {
		type = util_vehicle_0			#Peugeot P4
		amount = 100
		producer = FRA
	}

	add_equipment_to_stockpile = {
		type = util_vehicle_0			#Technicals
		amount = 100
		producer = GAB
	}


	add_equipment_to_stockpile = {
		type = Anti_Air_1			#Just giving them some Mistral
		amount = 60
		producer = FRA
	}

	add_equipment_to_stockpile = {
		type = Strike_fighter1			#Mirage 5
		amount = 9
		producer = FRA
	}

	add_equipment_to_stockpile = {
		type = transport_plane1			#C-130 Hercules
		amount = 1
		producer = USA
	}


	add_equipment_to_stockpile = {
		type = transport_helicopter1			#AS332 Super Puma for SA-342 & SA 316
		amount = 8
		producer = FRA
	}

	add_equipment_to_stockpile = {
		type = transport_helicopter1			#SA 330 Puma
		amount = 3
		producer = FRA
	}

}